0000 002a 0000 002a 0000 002a 0000 002a
0000 002a 0000 002a 0000 002a 0000 002a
0000 002a 0000 002a 0000 002a 0000 002a
0000 002a 0000 002a 0000 002a 0000 002a
0000 002a 0000 002a 0000 002a 0000 002a
0000 002a 0000 002a 0000 002a 0000 002a
0000 002a 0000 002a 0000 002a 0000 002a
0000 002a 0000 002a 0000 002a 0000 002a
0000 002a 0000 002a 0000 002a 0000 002a
0000 002a 0000 002a 0000 002a 0000 002a
0000 002a 0000 002a 0000 002a 0000 002a
0000 002a 0000 002a 0000 002a 0000 002a
0000 002a 0000 002a 0000 002a 0000 002a
0000 002a 0000 002a 0000 002a 0000 002a
0000 002a 0000 002a 0000 002a 0000 002a
0000 002a 0000 002a 0000 002a 0000 002a
0000 002a 0000 002a 0000 002a 0000 002a
0000 002a 0000 002a 0000 002a 0000 002a
0000 002a 0000 002a 0000 002a 0000 002a
0000 002a 0000 002a 0000 002a 0000 002a
0000 002a 0000 002a 0000 002a 0000 002a
0000 002a 0000 002a 0000 002a 0000 002a
0000 002a 0000 002a 0000 002a 0000 002a
0000 002a 0000 002a 0000 002a 0000 002a
0000 002a 0000 002a 0000 002a 0000 002a
0000 002a 0000 002a 0000 002a 0000 002a
0000 002a 0000 002a 0000 002a 0000 002a
0000 002a 0000 002a 0000 002a 0000 002a
0000 002a 0000 002a 0000 002a 0000 002a
0000 002a 0000 002a 0000 002a 0000 002a
0000 002a 0000 002a 0000 002a 0000 002a
0000 002a 0000 002a 0000 002a 0000 002a
0000 002a 0000 002a 0000 002a 0000 002a
0000 002a 0000 002a 0000 002a 0000 002a
0000 002a 0000 002a 0000 002a 0000 002a
0000 002a 0000 002a 0000 002a 0000 002a
0000 002a 0000 002a 0000 002a 0000 002a
0000 002a 0000 002a 0000 002a 0000 002a
0000 002a 0000 002a 0000 002a 0000 002a
0000 002a 0000 002a 0000 002a 0000 002a
0000 002a 0000 002a 0000 002a 0000 002a
0000 002a 0000 002a 0000 002a 0000 002a
0000 002a 0000 002a 0000 002a 0000 002a
0000 002a 0000 002a 0000 002a 0000 002a
0000 002a 0000 002a 0000 002a 0000 002a
0000 002a 0000 002a 0000 002a 0000 002a
0000 002a 0000 002a 0000 002a 0000 002a
0000 002a 0000 002a 0000 002a 0000 002a
0000 002a 0000 002a 0000 002a 0000 002a
0000 002a 0000 002a 0000 002a 0000 002a
0000 002a 0000 002a 0000 002a 0000 002a
0000 002a 0000 002a 0000 002a 0000 002a
0000 002a 0000 002a 0000 002a 0000 002a
0000 002a 0000 002a 0000 002a 0000 002a
0000 002a 0000 002a 0000 002a 0000 002a
0000 002a 0000 002a 0000 002a 0000 002a
0000 002a 0000 002a 0000 002a 0000 002a
0000 002a 0000 002a 0000 002a 0000 002a
0000 002a 0000 002a 0000 002a 0000 002a
0000 002a 0000 002a 0000 002a 0000 002a
0000 002a 0000 002a 0000 002a 0000 002a
0000 002a 0000 002a 0000 002a 0000 002a
0000 002a 0000 002a 0000 002a 0000 002a
0000 002a 0000 002a 0000 002a 0000 002a
0000 002a 0000 002a 0000 002a 0000 002a
0000 002a 0000 002a 0000 002a 0000 002a
0000 002a 0000 002a 0000 002a 0000 002a
0000 002a 0000 002a 0000 002a 0000 002a
0000 002a 0000 002a 0000 002a 0000 002a
0000 002a 0000 002a 0000 002a 0000 002a
0000 002a 0000 002a 0000 002a 0000 002a
0000 002a 0000 002a 0000 002a 0000 002a
0000 002a 0000 002a 0000 002a 0000 002a
0000 002a 0000 002a 0000 002a 0000 002a
0000 002a 0000 002a 0000 002a 0000 002a
0000 002a 0000 002a 0000 002a 0000 002a
0000 002a 0000 002a 0000 002a 0000 002a
0000 002a 0000 002a 0000 002a 0000 002a
0000 002a 0000 002a 0000 002a 0000 002a
0000 002a 0000 002a 0000 002a 0000 002a
0000 002a 0000 002a 0000 002a 0000 002a
0000 002a 0000 002a 0000 002a 0000 002a
0000 002a 0000 002a 0000 002a 0000 002a
0000 002a 0000 002a 0000 002a 0000 002a
0000 002a 0000 002a 0000 002a 0000 002a
0000 002a 0000 002a 0000 002a 0000 002a
0000 002a 0000 002a 0000 002a 0000 002a
0000 002a 0000 002a 0000 002a 0000 002a
0000 002a 0000 002a 0000 002a 0000 002a
0000 002a 0000 002a 0000 002a 0000 002a
0000 002a 0000 002a 0000 002a 0000 002a
0000 002a 0000 002a 0000 002a 0000 002a
0000 002a 0000 002a 0000 002a 0000 002a
0000 002a 0000 002a 0000 002a 0000 002a
0000 002a 0000 002a 0000 002a 0000 002a
0000 002a 0000 002a 0000 002a 0000 002a
0000 002a 0000 002a 0000 002a 0000 002a
0000 002a 0000 002a 0000 002a 0000 002a
0000 002a 0000 002a 0000 002a 0000 002a
0000 002a 0000 002a 0000 002a 0000 002a
0000 002a 0000 002a 0000 002a 0000 002a
0000 002a 0000 002a 0000 002a 0000 002a
0000 002a 0000 002a 0000 002a 0000 002a
0000 002a 0000 002a 0000 002a 0000 002a
0000 002a 0000 002a 0000 002a 0000 002a
0000 002a 0000 002a 0000 002a 0000 002a
0000 002a 0000 002a 0000 002a 0000 002a
0000 002a 0000 002a 0000 002a 0000 002a
0000 002a 0000 002a 0000 002a 0000 002a
0000 002a 0000 002a 0000 002a 0000 002a
0000 002a 0000 002a 0000 002a 0000 002a
0000 002a 0000 002a 0000 002a 0000 002a
0000 002a 0000 002a 0000 002a 0000 002a
0000 002a 0000 002a 0000 002a 0000 002a
0000 002a 0000 002a 0000 002a 0000 002a
0000 002a 0000 002a 0000 002a 0000 002a
0000 002a 0000 002a 0000 002a 0000 002a
0000 002a 0000 002a 0000 002a 0000 002a
0000 002a 0000 002a 0000 002a 0000 002a
0000 002a 0000 002a 0000 002a 0000 002a
0000 002a 0000 002a 0000 002a 0000 002a
0000 002a 0000 002a 0000 002a 0000 002a
0000 002a 0000 002a 0000 002a 0000 002a
0000 002a 0000 002a 0000 002a 0000 002a
0000 002a 0000 002a 0000 002a 0000 002a
0000 002a 0000 002a 0000 002a 0000 002a
0000 002a 0000 002a 0000 002a 0000 002a
0000 002a 0000 002a 0000 002a 0000 002a
0000 002a 0000 002a 0000 002a 0000 002a
0000 002a 0000 002a 0000 002a 0000 002a
0000 002a 0000 002a 0000 002a 0000 002a
0000 002a 0000 002a 0000 002a 0000 002a
0000 002a 0000 002a 0000 002a 0000 002a
0000 002a 0000 002a 0000 002a 0000 002a
0000 002a 0000 002a 0000 002a 0000 002a
0000 002a 0000 002a 0000 002a 0000 002a
0000 002a 0000 002a 0000 002a 0000 002a
0000 002a 0000 002a 0000 002a 0000 002a
0000 002a 0000 002a 0000 002a 0000 002a
0000 002a 0000 002a 0000 002a 0000 002a
0000 002a 0000 002a 0000 002a 0000 002a
0000 002a 0000 002a 0000 002a 0000 002a
0000 002a 0000 002a 0000 002a 0000 002a
0000 002a 0000 002a 0000 002a 0000 002a
0000 002a 0000 002a 0000 002a 0000 002a
0000 002a 0000 002a 0000 002a 0000 002a
0000 002a 0000 002a 0000 002a 0000 002a
0000 002a 0000 002a 0000 002a 0000 002a
0000 002a 0000 002a 0000 002a 0000 002a
0000 002a 0000 002a 0000 002a 0000 002a
0000 002a 0000 002a 0000 002a 0000 002a
0000 002a 0000 002a 0000 002a 0000 002a
0000 002a 0000 002a 0000 002a 0000 002a
0000 002a 0000 002a 0000 002a 0000 002a
0000 002a 0000 002a 0000 002a 0000 002a
0000 002a 0000 002a 0000 002a 0000 002a
0000 002a 0000 002a 0000 002a 0000 002a
0000 002a 0000 002a 0000 002a 0000 002a
0000 002a 0000 002a 0000 002a 0000 002a
0000 002a 0000 002a 0000 002a 0000 002a
0000 002a 0000 002a 0000 002a 0000 002a
0000 002a 0000 002a 0000 002a 0000 002a
0000 002a 0000 002a 0000 002a 0000 002a
0000 002a 0000 002a 0000 002a 0000 002a
0000 002a 0000 002a 0000 002a 0000 002a
0000 002a 0000 002a 0000 002a 0000 002a
0000 002a 0000 002a 0000 002a 0000 002a
0000 002a 0000 002a 0000 002a 0000 002a
0000 002a 0000 002a 0000 002a 0000 002a
0000 002a 0000 002a 0000 002a 0000 002a
0000 002a 0000 002a 0000 002a 0000 002a
0000 002a 0000 002a 0000 002a 0000 002a
0000 002a 0000 002a 0000 002a 0000 002a
0000 002a 0000 002a 0000 002a 0000 002a
0000 002a 0000 002a 0000 002a 0000 002a
0000 002a 0000 002a 0000 002a 0000 002a
0000 002a 0000 002a 0000 002a 0000 002a
0000 002a 0000 002a 0000 002a 0000 002a
0000 002a 0000 002a 0000 002a 0000 002a
0000 002a 0000 002a 0000 002a 0000 002a
0000 002a 0000 002a 0000 002a 0000 002a
0000 002a 0000 002a 0000 002a 0000 002a
0000 002a 0000 002a 0000 002a 0000 002a
0000 002a 0000 002a 0000 002a 0000 002a
0000 002a 0000 002a 0000 002a 0000 002a
0000 002a 0000 002a 0000 002a 0000 002a
0000 002a 0000 002a 0000 002a 0000 002a
0000 002a 0000 002a 0000 002a 0000 002a
0000 002a 0000 002a 0000 002a 0000 002a
0000 002a 0000 002a 0000 002a 0000 002a
0000 002a 0000 002a 0000 002a 0000 002a
0000 002a 0000 002a 0000 002a 0000 002a
0000 002a 0000 002a 0000 002a 0000 002a
0000 002a 0000 002a 0000 002a 0000 002a
0000 002a 0000 002a 0000 002a 0000 002a
0000 002a 0000 002a 0000 002a 0000 002a
0000 002a 0000 002a 0000 002a 0000 002a
0000 002a 0000 002a 0000 002a 0000 002a
0000 002a 0000 002a 0000 002a 0000 002a
0000 002a 0000 002a 0000 002a 0000 002a
0000 002a 0000 002a 0000 002a 0000 002a
0000 002a 0000 002a 0000 002a 0000 002a
0000 002a 0000 002a 0000 002a 0000 002a
0000 002a 0000 002a 0000 002a 0000 002a
0000 002a 0000 002a 0000 002a 0000 002a
0000 002a 0000 002a 0000 002a 0000 002a
0000 002a 0000 002a 0000 002a 0000 002a
0000 002a 0000 002a 0000 002a 0000 002a
0000 002a 0000 002a 0000 002a 0000 002a
0000 002a 0000 002a 0000 002a 0000 002a
0000 002a 0000 002a 0000 002a 0000 002a
0000 002a 0000 002a 0000 002a 0000 002a
0000 002a 0000 002a 0000 002a 0000 002a
0000 002a 0000 002a 0000 002a 0000 002a
0000 002a 0000 002a 0000 002a 0000 002a
0000 002a 0000 002a 0000 002a 0000 002a
0000 002a 0000 002a 0000 002a 0000 002a
0000 002a 0000 002a 0000 002a 0000 002a
0000 002a 0000 002a 0000 002a 0000 002a
0000 002a 0000 002a 0000 002a 0000 002a
0000 002a 0000 002a 0000 002a 0000 002a
0000 002a 0000 002a 0000 002a 0000 002a
0000 002a 0000 002a 0000 002a 0000 002a
0000 002a 0000 002a 0000 002a 0000 002a
0000 002a 0000 002a 0000 002a 0000 002a
0000 002a 0000 002a 0000 002a 0000 002a
0000 002a 0000 002a 0000 002a 0000 002a
0000 002a 0000 002a 0000 002a 0000 002a
0000 002a 0000 002a 0000 002a 0000 002a
0000 002a 0000 002a 0000 002a 0000 002a
0000 002a 0000 002a 0000 002a 0000 002a
0000 002a 0000 002a 0000 002a 0000 002a
0000 002a 0000 002a 0000 002a 0000 002a
0000 002a 0000 002a 0000 002a 0000 002a
0000 002a 0000 002a 0000 002a 0000 002a
0000 002a 0000 002a 0000 002a 0000 002a
0000 002a 0000 002a 0000 002a 0000 002a
0000 002a 0000 002a 0000 002a 0000 002a
0000 002a 0000 002a 0000 002a 0000 002a
0000 002a 0000 002a 0000 002a 0000 002a
0000 002a 0000 002a 0000 002a 0000 002a
0000 002a 0000 002a 0000 002a 0000 002a
0000 002a 0000 002a 0000 002a 0000 002a
0000 002a 0000 002a 0000 002a 0000 002a
0000 002a 0000 002a 0000 002a 0000 002a
0000 002a 0000 002a 0000 002a 0000 002a
0000 002a 0000 002a 0000 002a 0000 002a
0000 002a 0000 002a 0000 002a 0000 002a
0000 002a 0000 002a 0000 002a 0000 002a
0000 002a 0000 002a 0000 002a 0000 002a
0000 002a 0000 002a 0000 002a 0000 002a
0000 002a 0000 002a 0000 002a 0000 002a
0000 002a 0000 002a 0000 002a 0000 002a
0000 002a 0000 002a 0000 002a 0000 002a
0000 002a 0000 002a 0000 002a 0000 002a
0000 002a 0000 002a 0000 002a 0000 002a