0000 0030 0000 0030 0000 0030 0000 0030
0000 0030 0000 0030 0000 0030 0000 0030
0000 0030 0000 0030 0000 0030 0000 0030
0000 0030 0000 0030 0000 0030 0000 0030
0000 0030 0000 0030 0000 0030 0000 0030
0000 0000 0000 0000 0000 0000 0000 0000
0000 0000 0000 0000 0000 0000 0000 0000
0000 0000 0000 0000 0000 0000 0000 0000
0000 0030 0000 0030 0000 0030 0000 0030
0000 0030 0000 0030 0000 0030 0000 0030
0000 0030 0000 0030 0000 0030 0000 0030
0000 0030 0000 0030 0000 0030 0000 0030
0000 0030 0000 0030 0000 0030 0000 0030
0000 0000 0000 0000 0000 0000 0000 0000
0000 0000 0000 0000 0000 0000 0000 0000
0000 0000 0000 0000 0000 0000 0000 0000
0000 0030 0000 0030 0000 0030 0000 0030
0000 0030 0000 0030 0000 0030 0000 0030
0000 0030 0000 0030 0000 0030 0000 0030
0000 0030 0000 0030 0000 0030 0000 0030
0000 0030 0000 0030 0000 0030 0000 0030
0000 0000 0000 0000 0000 0000 0000 0000
0000 0000 0000 0000 0000 0000 0000 0000
0000 0000 0000 0000 0000 0000 0000 0000
0000 0030 0000 0030 0000 0030 0000 0030
0000 0030 0000 0030 0000 0030 0000 0030
0000 0030 0000 0030 0000 0030 0000 0030
0000 0030 0000 0030 0000 0030 0000 0030
0000 0030 0000 0030 0000 0030 0000 0030
0000 0000 0000 0000 0000 0000 0000 0000
0000 0000 0000 0000 0000 0000 0000 0000
0000 0000 0000 0000 0000 0000 0000 0000
0000 0030 0000 0030 0000 0030 0000 0030
0000 0030 0000 0030 0000 0030 0000 0030
0000 0030 0000 0030 0000 0030 0000 0030
0000 0030 0000 0030 0000 0030 0000 0030
0000 0030 0000 0030 0000 0030 0000 0030
0000 0000 0000 0000 0000 0000 0000 0000
0000 0000 0000 0000 0000 0000 0000 0000
0000 0000 0000 0000 0000 0000 0000 0000
0000 0030 0000 0030 0000 0030 0000 0030
0000 0030 0000 0030 0000 0030 0000 0030
0000 0030 0000 0030 0000 0030 0000 0030
0000 0030 0000 0030 0000 0030 0000 0030
0000 0030 0000 0030 0000 0030 0000 0030
0000 0000 0000 0000 0000 0000 0000 0000
0000 0000 0000 0000 0000 0000 0000 0000
0000 0000 0000 0000 0000 0000 0000 0000
0000 0030 0000 0030 0000 0030 0000 0030
0000 0030 0000 0030 0000 0030 0000 0030
0000 0030 0000 0030 0000 0030 0000 0030
0000 0030 0000 0030 0000 0030 0000 0030
0000 0030 0000 0030 0000 0030 0000 0030
0000 0000 0000 0000 0000 0000 0000 0000
0000 0000 0000 0000 0000 0000 0000 0000
0000 0000 0000 0000 0000 0000 0000 0000
0000 0030 0000 0030 0000 0030 0000 0030
0000 0030 0000 0030 0000 0030 0000 0030
0000 0030 0000 0030 0000 0030 0000 0030
0000 0030 0000 0030 0000 0030 0000 0030
0000 0030 0000 0030 0000 0030 0000 0030
0000 0000 0000 0000 0000 0000 0000 0000
0000 0000 0000 0000 0000 0000 0000 0000
0000 0000 0000 0000 0000 0000 0000 0000
0000 0030 0000 0030 0000 0030 0000 0030
0000 0030 0000 0030 0000 0030 0000 0030
0000 0030 0000 0030 0000 0030 0000 0030
0000 0030 0000 0030 0000 0030 0000 0030
0000 0030 0000 0030 0000 0030 0000 0030
0000 0000 0000 0000 0000 0000 0000 0000
0000 0000 0000 0000 0000 0000 0000 0000
0000 0000 0000 0000 0000 0000 0000 0000
0000 0030 0000 0030 0000 0030 0000 0030
0000 0030 0000 0030 0000 0030 0000 0030
0000 0030 0000 0030 0000 0030 0000 0030
0000 0030 0000 0030 0000 0030 0000 0030
0000 0030 0000 0030 0000 0030 0000 0030
0000 0000 0000 0000 0000 0000 0000 0000
0000 0000 0000 0000 0000 0000 0000 0000
0000 0000 0000 0000 0000 0000 0000 0000
0000 0030 0000 0030 0000 0030 0000 0030
0000 0030 0000 0030 0000 0030 0000 0030
0000 0030 0000 0030 0000 0030 0000 0030
0000 0030 0000 0030 0000 0030 0000 0030
0000 0030 0000 0030 0000 0030 0000 0030
0000 0000 0000 0000 0000 0000 0000 0000
0000 0000 0000 0000 0000 0000 0000 0000
0000 0000 0000 0000 0000 0000 0000 0000
0000 0030 0000 0030 0000 0030 0000 0030
0000 0030 0000 0030 0000 0030 0000 0030
0000 0030 0000 0030 0000 0030 0000 0030
0000 0030 0000 0030 0000 0030 0000 0030
0000 0030 0000 0030 0000 0030 0000 0030
0000 0000 0000 0000 0000 0000 0000 0000
0000 0000 0000 0000 0000 0000 0000 0000
0000 0000 0000 0000 0000 0000 0000 0000
0000 0030 0000 0030 0000 0030 0000 0030
0000 0030 0000 0030 0000 0030 0000 0030
0000 0030 0000 0030 0000 0030 0000 0030
0000 0030 0000 0030 0000 0030 0000 0030
0000 0030 0000 0030 0000 0030 0000 0030
0000 0000 0000 0000 0000 0000 0000 0000
0000 0000 0000 0000 0000 0000 0000 0000
0000 0000 0000 0000 0000 0000 0000 0000
0000 0030 0000 0030 0000 0030 0000 0030
0000 0030 0000 0030 0000 0030 0000 0030
0000 0030 0000 0030 0000 0030 0000 0030
0000 0030 0000 0030 0000 0030 0000 0030
0000 0030 0000 0030 0000 0030 0000 0000
0000 0000 0000 0000 0000 0000 0000 0000
0000 0000 0000 0000 0000 0000 0000 0000
0000 0000 0000 0000 0000 0000 0000 0000
0000 0030 0000 0030 0000 0030 0000 0030
0000 0030 0000 0030 0000 0030 0000 0030
0000 0030 0000 0030 0000 0030 0000 0030
0000 0030 0000 0030 0000 0030 0000 0030
0000 0030 0000 0030 0000 0000 0000 0000
0000 0000 0000 0000 0000 0000 0000 0000
0000 0000 0000 0000 0000 0000 0000 0000
0000 0000 0000 0000 0000 0000 0000 0000
0000 0030 0000 0030 0000 0030 0000 0030
0000 0030 0000 0030 0000 0030 0000 0030
0000 0030 0000 0030 0000 0030 0000 0030
0000 0030 0000 0030 0000 0030 0000 0030
0000 0030 0000 0000 0000 0000 0000 0000
0000 0000 0000 0000 0000 0000 0000 0000
0000 0000 0000 0000 0000 0000 0000 0000
0000 0000 0000 0000 0000 0000 0000 0000
0000 0030 0000 0030 0000 0030 0000 0030
0000 0030 0000 0030 0000 0030 0000 0030
0000 0030 0000 0030 0000 0030 0000 0030
0000 0030 0000 0030 0000 0030 0000 0030
0000 0000 0000 0000 0000 0000 0000 0000
0000 0000 0000 0000 0000 0000 0000 0000
0000 0000 0000 0000 0000 0000 0000 0000
0000 0000 0000 0000 0000 0000 0000 0000
0000 0030 0000 0030 0000 0030 0000 0030
0000 0030 0000 0030 0000 0030 0000 0030
0000 0030 0000 0030 0000 0030 0000 0030
0000 0030 0000 0030 0000 0030 0000 0000
0000 0000 0000 0000 0000 0000 0000 0000
0000 0000 0000 0000 0000 0000 0000 0000
0000 0000 0000 0000 0000 0000 0000 0000
0000 0000 0000 0000 0000 0000 0000 0000
0000 0030 0000 0030 0000 0030 0000 0030
0000 0030 0000 0030 0000 0030 0000 0030
0000 0030 0000 0030 0000 0030 0000 0030
0000 0030 0000 0030 0000 0000 0000 0000
0000 0000 0000 0000 0000 0000 0000 0000
0000 0000 0000 0000 0000 0000 0000 0000
0000 0000 0000 0000 0000 0000 0000 0000
0000 0000 0000 0000 0000 0000 0000 0000
0000 0030 0000 0030 0000 0030 0000 0030
0000 0030 0000 0030 0000 0030 0000 0030
0000 0030 0000 0030 0000 0030 0000 0030
0000 0030 0000 0000 0000 0000 0000 0000
0000 0000 0000 0000 0000 0000 0000 0000
0000 0000 0000 0000 0000 0000 0000 0000
0000 0000 0000 0000 0000 0000 0000 0000
0000 0000 0000 0000 0000 0000 0000 0000
0000 0030 0000 0030 0000 0030 0000 0030
0000 0030 0000 0030 0000 0030 0000 0030
0000 0030 0000 0030 0000 0030 0000 0030
0000 0000 0000 0000 0000 0000 0000 0000
0000 0000 0000 0000 0000 0000 0000 0000
0000 0000 0000 0000 0000 0000 0000 0000
0000 0000 0000 0000 0000 0000 0000 0000
0000 0000 0000 0000 0000 0000 0000 0000
0000 0030 0000 0030 0000 0030 0000 0030
0000 0030 0000 0030 0000 0030 0000 0030
0000 0030 0000 0030 0000 0030 0000 0000
0000 0000 0000 0000 0000 0000 0000 0000
0000 0000 0000 0000 0000 0000 0000 0000
0000 0000 0000 0000 0000 0000 0000 0000
0000 0000 0000 0000 0000 0000 0000 0000
0000 0000 0000 0000 0000 0000 0000 0000
0000 0000 0000 0000 0000 0000 0000 0000
0000 0000 0000 0000 0000 0000 0000 0000
0000 0000 0000 0000 0000 0030 0000 0030
0000 0030 0000 0030 0000 0030 0000 0030
0000 0030 0000 0030 0000 0030 0000 0030
0000 0000 0000 0000 0000 0000 0000 0000
0000 0000 0000 0000 0000 0000 0000 0000
0000 0000 0000 0000 0000 0000 0000 0000
0000 0000 0000 0000 0000 0000 0000 0000
0000 0000 0000 0000 0000 0000 0000 0000
0000 0000 0000 0030 0000 0030 0000 0030
0000 0030 0000 0030 0000 0030 0000 0030
0000 0030 0000 0030 0000 0030 0000 0030
0000 0000 0000 0000 0000 0000 0000 0000
0000 0000 0000 0000 0000 0000 0000 0000
0000 0000 0000 0000 0000 0000 0000 0000
0000 0000 0000 0000 0000 0000 0000 0000
0000 0000 0000 0000 0000 0000 0000 0000
0000 0030 0000 0030 0000 0030 0000 0030
0000 0030 0000 0030 0000 0030 0000 0030
0000 0030 0000 0030 0000 0030 0000 0030
0000 0000 0000 0000 0000 0000 0000 0000
0000 0000 0000 0000 0000 0000 0000 0000
0000 0000 0000 0000 0000 0000 0000 0000
0000 0000 0000 0000 0000 0000 0000 0000
0000 0000 0000 0000 0000 0000 0000 0030
0000 0030 0000 0030 0000 0030 0000 0030
0000 0030 0000 0030 0000 0030 0000 0030
0000 0030 0000 0030 0000 0030 0000 0030
0000 0000 0000 0000 0000 0000 0000 0000
0000 0000 0000 0000 0000 0000 0000 0000
0000 0000 0000 0000 0000 0000 0000 0000
0000 0000 0000 0000 0000 0000 0000 0000
0000 0000 0000 0000 0000 0030 0000 0030
0000 0030 0000 0030 0000 0030 0000 0030
0000 0030 0000 0030 0000 0030 0000 0030
0000 0030 0000 0030 0000 0030 0000 0030
0000 0000 0000 0000 0000 0000 0000 0000
0000 0000 0000 0000 0000 0000 0000 0000
0000 0000 0000 0000 0000 0000 0000 0000
0000 0000 0000 0000 0000 0000 0000 0000
0000 0000 0000 0030 0000 0030 0000 0030
0000 0030 0000 0030 0000 0030 0000 0030
0000 0030 0000 0030 0000 0030 0000 0030
0000 0030 0000 0030 0000 0030 0000 0030
0000 0000 0000 0000 0000 0000 0000 0000
0000 0000 0000 0000 0000 0000 0000 0000
0000 0000 0000 0000 0000 0000 0000 0000
0000 0000 0000 0000 0000 0000 0000 0000
0000 0030 0000 0030 0000 0030 0000 0030
0000 0030 0000 0030 0000 0030 0000 0030
0000 0030 0000 0030 0000 0030 0000 0030
0000 0030 0000 0030 0000 0030 0000 0030
0000 0000 0000 0000 0000 0000 0000 0000
0000 0000 0000 0000 0000 0000 0000 0000
0000 0000 0000 0000 0000 0000 0000 0000
0000 0000 0000 0000 0000 0000 0000 0030
0000 0030 0000 0030 0000 0030 0000 0030
0000 0030 0000 0030 0000 0030 0000 0030
0000 0030 0000 0030 0000 0030 0000 0030
0000 0030 0000 0030 0000 0030 0000 0030
0000 0000 0000 0000 0000 0000 0000 0000
0000 0000 0000 0000 0000 0000 0000 0000
0000 0000 0000 0000 0000 0000 0000 0000
0000 0000 0000 0000 0000 0030 0000 0030
0000 0030 0000 0030 0000 0030 0000 0030
0000 0030 0000 0030 0000 0030 0000 0030
0000 0030 0000 0030 0000 0030 0000 0030
0000 0030 0000 0030 0000 0030 0000 0030
0000 0000 0000 0000 0000 0000 0000 0000
0000 0000 0000 0000 0000 0000 0000 0000
0000 0000 0000 0000 0000 0000 0000 0000
0000 0000 0000 0030 0000 0030 0000 0030
0000 0030 0000 0030 0000 0030 0000 0030
0000 0030 0000 0030 0000 0030 0000 0030
0000 0030 0000 0030 0000 0030 0000 0030
0000 0030 0000 0030 0000 0030 0000 0030
0000 0000 0000 0000 0000 0000 0000 0000
0000 0000 0000 0000 0000 0000 0000 0000
0000 0000 0000 0000 0000 0000 0000 0000