0000 0023 0000 0023 0000 0023 0000 0023
0000 0023 0000 0023 0000 0023 0000 0023
0000 0023 0000 0023 0000 0023 0000 0023
0000 0023 0000 0023 0000 0023 0000 0023
0000 0023 0000 0023 0000 0023 0000 0023
0000 0023 0000 0023 0000 0023 0000 0023
0000 0023 0000 0023 0000 0023 0000 0023
0000 0023 0000 0023 0000 0023 0000 0023
0000 0023 0000 0023 0000 0023 0000 0023
0000 0023 0000 0023 0000 0023 0000 0023
0000 0023 0000 0023 0000 0023 0000 0023
0000 0023 0000 0023 0000 0023 0000 0023
0000 0023 0000 0023 0000 0023 0000 0023
0000 0023 0000 0023 0000 0023 0000 0023
0000 0023 0000 0023 0000 0023 0000 0023
0000 0023 0000 0023 0000 0023 0000 0023
0000 0023 0000 0023 0000 0023 0000 0023
0000 0023 0000 0023 0000 0023 0000 0023
0000 0023 0000 0023 0000 0023 0000 0023
0000 0023 0000 0023 0000 0023 0000 0023
0000 0023 0000 0023 0000 0023 0000 0023
0000 0023 0000 0023 0000 0023 0000 0023
0000 0023 0000 0023 0000 0023 0000 0023
0000 0023 0000 0023 0000 0023 0000 0023
0000 0023 0000 0023 0000 0023 0000 0023
0000 0023 0000 0023 0000 0023 0000 0023
0000 0023 0000 0023 0000 0023 0000 0023
0000 0023 0000 0023 0000 0023 0000 0023
0000 0023 0000 0023 0000 0023 0000 0023
0000 0023 0000 0023 0000 0023 0000 0023
0000 0023 0000 0023 0000 0023 0000 0023
0000 0023 0000 0023 0000 0023 0000 0023
0000 0023 0000 0023 0000 0023 0000 0023
0000 0023 0000 0023 0000 0023 0000 0023
0000 0023 0000 0023 0000 0023 0000 0023
0000 0023 0000 0023 0000 0023 0000 0023
0000 0023 0000 0023 0000 0023 0000 0023
0000 0023 0000 0023 0000 0023 0000 0023
0000 0023 0000 0023 0000 0023 0000 0023
0000 0023 0000 0023 0000 0023 0000 0023
0000 0023 0000 0023 0000 0023 0000 0023
0000 0023 0000 0023 0000 0023 0000 0023
0000 0023 0000 0023 0000 0023 0000 0023
0000 0023 0000 0023 0000 0023 0000 0023
0000 0023 0000 0023 0000 0023 0000 0023
0000 0023 0000 0023 0000 0023 0000 0023
0000 0023 0000 0023 0000 0023 0000 0023
0000 0023 0000 0023 0000 0023 0000 0023
0000 0023 0000 0023 0000 0023 0000 0023
0000 0023 0000 0023 0000 0023 0000 0023
0000 0023 0000 0023 0000 0023 0000 0023
0000 0023 0000 0023 0000 0023 0000 0023
0000 0023 0000 0023 0000 0023 0000 0023
0000 0023 0000 0023 0000 0023 0000 0023
0000 0023 0000 0023 0000 0023 0000 0023
0000 0023 0000 0023 0000 0023 0000 0023
0000 0023 0000 0023 0000 0023 0000 0023
0000 0023 0000 0023 0000 0023 0000 0023
0000 0023 0000 0023 0000 0023 0000 0023
0000 0023 0000 0023 0000 0023 0000 0023
0000 0023 0000 0023 0000 0023 0000 0023
0000 0023 0000 0023 0000 0023 0000 0023
0000 0023 0000 0023 0000 0023 0000 0023
0000 0023 0000 0023 0000 0023 0000 0023
0000 0023 0000 0023 0000 0023 0000 0023
0000 0023 0000 0023 0000 0023 0000 0023
0000 0023 0000 0023 0000 0023 0000 0023
0000 0023 0000 0023 0000 0023 0000 0023
0000 0023 0000 0023 0000 0023 0000 0023
0000 0023 0000 0023 0000 0023 0000 0023
0000 0023 0000 0023 0000 0023 0000 0023
0000 0023 0000 0023 0000 0023 0000 0023
0000 0023 0000 0023 0000 0023 0000 0023
0000 0023 0000 0023 0000 0023 0000 0023
0000 0023 0000 0023 0000 0023 0000 0023
0000 0023 0000 0023 0000 0023 0000 0023
0000 0023 0000 0023 0000 0023 0000 0023
0000 0023 0000 0023 0000 0023 0000 0023
0000 0023 0000 0023 0000 0023 0000 0023
0000 0023 0000 0023 0000 0023 0000 0023
0000 0023 0000 0023 0000 0023 0000 0023
0000 0023 0000 0023 0000 0023 0000 0023
0000 0023 0000 0023 0000 0023 0000 0023
0000 0023 0000 0023 0000 0023 0000 0023
0000 0023 0000 0023 0000 0023 0000 0023
0000 0023 0000 0023 0000 0023 0000 0023
0000 0023 0000 0023 0000 0023 0000 0023
0000 0023 0000 0023 0000 0023 0000 0023
0000 0023 0000 0023 0000 0023 0000 0023
0000 0023 0000 0023 0000 0023 0000 0023
0000 0023 0000 0023 0000 0023 0000 0023
0000 0023 0000 0023 0000 0023 0000 0023
0000 0023 0000 0023 0000 0023 0000 0023
0000 0023 0000 0023 0000 0023 0000 0023
0000 0023 0000 0023 0000 0023 0000 0023
0000 0023 0000 0023 0000 0023 0000 0023
0000 0023 0000 0023 0000 0023 0000 0023
0000 0023 0000 0023 0000 0023 0000 0023
0000 0023 0000 0023 0000 0023 0000 0023
0000 0023 0000 0023 0000 0023 0000 0023
0000 0023 0000 0023 0000 0023 0000 0023
0000 0023 0000 0023 0000 0023 0000 0023
0000 0023 0000 0023 0000 0023 0000 0023
0000 0023 0000 0023 0000 0023 0000 0023
0000 0023 0000 0023 0000 0023 0000 0023
0000 0023 0000 0023 0000 0023 0000 0023
0000 0023 0000 0023 0000 0023 0000 0023
0000 0023 0000 0023 0000 0023 0000 0023
0000 0023 0000 0023 0000 0023 0000 0023
0000 0023 0000 0023 0000 0023 0000 0023
0000 0023 0000 0023 0000 0023 0000 0023
0000 0023 0000 0023 0000 0023 0000 0023
0000 0023 0000 0023 0000 0023 0000 0023
0000 0023 0000 0023 0000 0023 0000 0023
0000 0023 0000 0023 0000 0023 0000 0023
0000 0023 0000 0023 0000 0023 0000 0023
0000 0023 0000 0023 0000 0023 0000 0023
0000 0023 0000 0023 0000 0023 0000 0023
0000 0023 0000 0023 0000 0023 0000 0023
0000 0023 0000 0023 0000 0023 0000 0023
0000 0023 0000 0023 0000 0023 0000 0023
0000 0023 0000 0023 0000 0023 0000 0023
0000 0023 0000 0023 0000 0023 0000 0023
0000 0023 0000 0023 0000 0023 0000 0023
0000 0023 0000 0023 0000 0023 0000 0023
0000 0023 0000 0023 0000 0023 0000 0023
0000 0023 0000 0023 0000 0023 0000 0023
0000 0023 0000 0023 0000 0023 0000 0023
0000 0023 0000 0023 0000 0023 0000 0023
0000 0023 0000 0023 0000 0023 0000 0023
0000 0023 0000 0023 0000 0023 0000 0023
0000 0023 0000 0023 0000 0023 0000 0023
0000 0023 0000 0023 0000 0023 0000 0023
0000 0023 0000 0023 0000 0023 0000 0023
0000 0023 0000 0023 0000 0023 0000 0023
0000 0023 0000 0023 0000 0023 0000 0023
0000 0023 0000 0023 0000 0023 0000 0023
0000 0023 0000 0023 0000 0023 0000 0023
0000 0023 0000 0023 0000 0023 0000 0023
0000 0023 0000 0023 0000 0023 0000 0023
0000 0023 0000 0023 0000 0023 0000 0023
0000 0023 0000 0023 0000 0023 0000 0023
0000 0023 0000 0023 0000 0023 0000 0023
0000 0023 0000 0023 0000 0023 0000 0023
0000 0023 0000 0023 0000 0023 0000 0023
0000 0023 0000 0023 0000 0023 0000 0023
0000 0023 0000 0023 0000 0023 0000 0023
0000 0023 0000 0023 0000 0023 0000 0023
0000 0023 0000 0023 0000 0023 0000 0023
0000 0023 0000 0023 0000 0023 0000 0023
0000 0023 0000 0023 0000 0023 0000 0023
0000 0023 0000 0023 0000 0023 0000 0023
0000 0023 0000 0023 0000 0023 0000 0023
0000 0023 0000 0023 0000 0023 0000 0023
0000 0023 0000 0023 0000 0023 0000 0023
0000 0023 0000 0023 0000 0023 0000 0023
0000 0023 0000 0023 0000 0023 0000 0023
0000 0023 0000 0023 0000 0023 0000 0023
0000 0023 0000 0023 0000 0023 0000 0023
0000 0023 0000 0023 0000 0023 0000 0023
0000 0023 0000 0023 0000 0023 0000 0023
0000 0023 0000 0023 0000 0023 0000 0023
0000 0023 0000 0023 0000 0023 0000 0023
0000 0023 0000 0023 0000 0023 0000 0023
0000 0023 0000 0023 0000 0023 0000 0023
0000 0023 0000 0023 0000 0023 0000 0023
0000 0023 0000 0023 0000 0023 0000 0023
0000 0023 0000 0023 0000 0023 0000 0023
0000 0023 0000 0023 0000 0023 0000 0023
0000 0023 0000 0023 0000 0023 0000 0023
0000 0023 0000 0023 0000 0023 0000 0023
0000 0023 0000 0023 0000 0023 0000 0023
0000 0023 0000 0023 0000 0023 0000 0023
0000 0023 0000 0023 0000 0023 0000 0023
0000 0023 0000 0023 0000 0023 0000 0023
0000 0023 0000 0023 0000 0023 0000 0023
0000 0023 0000 0023 0000 0023 0000 0023
0000 0023 0000 0023 0000 0023 0000 0023
0000 0023 0000 0023 0000 0023 0000 0023
0000 0023 0000 0023 0000 0023 0000 0023
0000 0023 0000 0023 0000 0023 0000 0023
0000 0023 0000 0023 0000 0023 0000 0023
0000 0023 0000 0023 0000 0023 0000 0023
0000 0023 0000 0023 0000 0023 0000 0023
0000 0023 0000 0023 0000 0023 0000 0023
0000 0023 0000 0023 0000 0023 0000 0023
0000 0023 0000 0023 0000 0023 0000 0023
0000 0023 0000 0023 0000 0023 0000 0023
0000 0023 0000 0023 0000 0023 0000 0023
0000 0023 0000 0023 0000 0023 0000 0023
0000 0023 0000 0023 0000 0023 0000 0023
0000 0023 0000 0023 0000 0023 0000 0023
0000 0023 0000 0023 0000 0023 0000 0023
0000 0023 0000 0023 0000 0023 0000 0023
0000 0023 0000 0023 0000 0023 0000 0023
0000 0023 0000 0023 0000 0023 0000 0023
0000 0023 0000 0023 0000 0023 0000 0023
0000 0023 0000 0023 0000 0023 0000 0023
0000 0023 0000 0023 0000 0023 0000 0023
0000 0023 0000 0023 0000 0023 0000 0023
0000 0023 0000 0023 0000 0023 0000 0023
0000 0023 0000 0023 0000 0023 0000 0023
0000 0023 0000 0023 0000 0023 0000 0023
0000 0023 0000 0023 0000 0023 0000 0023
0000 0023 0000 0023 0000 0023 0000 0023
0000 0023 0000 0023 0000 0023 0000 0023
0000 0023 0000 0023 0000 0023 0000 0023
0000 0023 0000 0023 0000 0023 0000 0023
0000 0023 0000 0023 0000 0023 0000 0023
0000 0023 0000 0023 0000 0023 0000 0023
0000 0023 0000 0023 0000 0023 0000 0023
0000 0023 0000 0023 0000 0023 0000 0023
0000 0023 0000 0023 0000 0023 0000 0023
0000 0023 0000 0023 0000 0023 0000 0023
0000 0023 0000 0023 0000 0023 0000 0023
0000 0023 0000 0023 0000 0023 0000 0023
0000 0023 0000 0023 0000 0023 0000 0023
0000 0023 0000 0023 0000 0023 0000 0023
0000 0023 0000 0023 0000 0023 0000 0023
0000 0023 0000 0023 0000 0023 0000 0023
0000 0023 0000 0023 0000 0023 0000 0023
0000 0023 0000 0023 0000 0023 0000 0023
0000 0023 0000 0023 0000 0023 0000 0023
0000 0023 0000 0023 0000 0023 0000 0023
0000 0023 0000 0023 0000 0023 0000 0023
0000 0023 0000 0023 0000 0023 0000 0023
0000 0023 0000 0023 0000 0023 0000 0023
0000 0023 0000 0023 0000 0023 0000 0023
0000 0023 0000 0023 0000 0023 0000 0023
0000 0023 0000 0023 0000 0023 0000 0023
0000 0023 0000 0023 0000 0023 0000 0023
0000 0023 0000 0023 0000 0023 0000 0023
0000 0023 0000 0023 0000 0023 0000 0023
0000 0023 0000 0023 0000 0023 0000 0023
0000 0023 0000 0023 0000 0023 0000 0023
0000 0023 0000 0023 0000 0023 0000 0023
0000 0023 0000 0023 0000 0023 0000 0023
0000 0023 0000 0023 0000 0023 0000 0023
0000 0023 0000 0023 0000 0023 0000 0023
0000 0023 0000 0023 0000 0023 0000 0023
0000 0023 0000 0023 0000 0023 0000 0023
0000 0023 0000 0023 0000 0023 0000 0023
0000 0023 0000 0023 0000 0023 0000 0023
0000 0023 0000 0023 0000 0023 0000 0023
0000 0023 0000 0023 0000 0023 0000 0023
0000 0023 0000 0023 0000 0023 0000 0023
0000 0023 0000 0023 0000 0023 0000 0023
0000 0023 0000 0023 0000 0023 0000 0023
0000 0023 0000 0023 0000 0023 0000 0023
0000 0023 0000 0023 0000 0023 0000 0023
0000 0023 0000 0023 0000 0023 0000 0023
0000 0023 0000 0023 0000 0023 0000 0023
0000 0023 0000 0023 0000 0023 0000 0023
0000 0023 0000 0023 0000 0023 0000 0023
0000 0023 0000 0023 0000 0023 0000 0023
0000 0023 0000 0023 0000 0023 0000 0023