0000 002d 0000 002d 0000 002d 0000 002d
0000 002d 0000 002d 0000 002d 0000 002d
0000 002d 0000 002d 0000 002d 0000 002d
0000 002d 0000 002d 0000 002d 0000 002d
0000 002d 0000 002d 0000 002d 0000 002d
0000 0000 0000 0000 0000 0000 0000 0000
0000 0000 0000 0000 0000 0000 0000 0000
0000 0000 0000 0000 0000 0000 0000 0000
0000 002d 0000 002d 0000 002d 0000 002d
0000 002d 0000 002d 0000 002d 0000 002d
0000 002d 0000 002d 0000 002d 0000 002d
0000 002d 0000 002d 0000 002d 0000 002d
0000 002d 0000 002d 0000 002d 0000 002d
0000 0000 0000 0000 0000 0000 0000 0000
0000 0000 0000 0000 0000 0000 0000 0000
0000 0000 0000 0000 0000 0000 0000 0000
0000 002d 0000 002d 0000 002d 0000 002d
0000 002d 0000 002d 0000 002d 0000 002d
0000 002d 0000 002d 0000 002d 0000 002d
0000 002d 0000 002d 0000 002d 0000 002d
0000 002d 0000 002d 0000 002d 0000 002d
0000 0000 0000 0000 0000 0000 0000 0000
0000 0000 0000 0000 0000 0000 0000 0000
0000 0000 0000 0000 0000 0000 0000 0000
0000 002d 0000 002d 0000 002d 0000 002d
0000 002d 0000 002d 0000 002d 0000 002d
0000 002d 0000 002d 0000 002d 0000 002d
0000 002d 0000 002d 0000 002d 0000 002d
0000 002d 0000 002d 0000 002d 0000 002d
0000 0000 0000 0000 0000 0000 0000 0000
0000 0000 0000 0000 0000 0000 0000 0000
0000 0000 0000 0000 0000 0000 0000 0000
0000 002d 0000 002d 0000 002d 0000 002d
0000 002d 0000 002d 0000 002d 0000 002d
0000 002d 0000 002d 0000 002d 0000 002d
0000 002d 0000 002d 0000 002d 0000 002d
0000 002d 0000 002d 0000 002d 0000 002d
0000 0000 0000 0000 0000 0000 0000 0000
0000 0000 0000 0000 0000 0000 0000 0000
0000 0000 0000 0000 0000 0000 0000 0000
0000 002d 0000 002d 0000 002d 0000 002d
0000 002d 0000 002d 0000 002d 0000 002d
0000 002d 0000 002d 0000 002d 0000 002d
0000 002d 0000 002d 0000 002d 0000 002d
0000 002d 0000 002d 0000 002d 0000 002d
0000 0000 0000 0000 0000 0000 0000 0000
0000 0000 0000 0000 0000 0000 0000 0000
0000 0000 0000 0000 0000 0000 0000 0000
0000 002d 0000 002d 0000 002d 0000 002d
0000 002d 0000 002d 0000 002d 0000 002d
0000 002d 0000 002d 0000 002d 0000 002d
0000 002d 0000 002d 0000 002d 0000 002d
0000 002d 0000 002d 0000 002d 0000 002d
0000 0000 0000 0000 0000 0000 0000 0000
0000 0000 0000 0000 0000 0000 0000 0000
0000 0000 0000 0000 0000 0000 0000 0000
0000 002d 0000 002d 0000 002d 0000 002d
0000 002d 0000 002d 0000 002d 0000 002d
0000 002d 0000 002d 0000 002d 0000 002d
0000 002d 0000 002d 0000 002d 0000 002d
0000 002d 0000 002d 0000 002d 0000 002d
0000 0000 0000 0000 0000 0000 0000 0000
0000 0000 0000 0000 0000 0000 0000 0000
0000 0000 0000 0000 0000 0000 0000 0000
0000 002d 0000 002d 0000 002d 0000 002d
0000 002d 0000 002d 0000 002d 0000 002d
0000 002d 0000 002d 0000 002d 0000 002d
0000 002d 0000 002d 0000 002d 0000 002d
0000 002d 0000 002d 0000 002d 0000 002d
0000 0000 0000 0000 0000 0000 0000 0000
0000 0000 0000 0000 0000 0000 0000 0000
0000 0000 0000 0000 0000 0000 0000 0000
0000 002d 0000 002d 0000 002d 0000 002d
0000 002d 0000 002d 0000 002d 0000 002d
0000 002d 0000 002d 0000 002d 0000 002d
0000 002d 0000 002d 0000 002d 0000 002d
0000 002d 0000 002d 0000 002d 0000 002d
0000 0000 0000 0000 0000 0000 0000 0000
0000 0000 0000 0000 0000 0000 0000 0000
0000 0000 0000 0000 0000 0000 0000 0000
0000 002d 0000 002d 0000 002d 0000 002d
0000 002d 0000 002d 0000 002d 0000 002d
0000 002d 0000 002d 0000 002d 0000 002d
0000 002d 0000 002d 0000 002d 0000 002d
0000 002d 0000 002d 0000 002d 0000 002d
0000 0000 0000 0000 0000 0000 0000 0000
0000 0000 0000 0000 0000 0000 0000 0000
0000 0000 0000 0000 0000 0000 0000 0000
0000 002d 0000 002d 0000 002d 0000 002d
0000 002d 0000 002d 0000 002d 0000 002d
0000 002d 0000 002d 0000 002d 0000 002d
0000 002d 0000 002d 0000 002d 0000 002d
0000 002d 0000 002d 0000 002d 0000 002d
0000 0000 0000 0000 0000 0000 0000 0000
0000 0000 0000 0000 0000 0000 0000 0000
0000 0000 0000 0000 0000 0000 0000 0000
0000 002d 0000 002d 0000 002d 0000 002d
0000 002d 0000 002d 0000 002d 0000 002d
0000 002d 0000 002d 0000 002d 0000 002d
0000 002d 0000 002d 0000 002d 0000 002d
0000 002d 0000 002d 0000 002d 0000 002d
0000 0000 0000 0000 0000 0000 0000 0000
0000 0000 0000 0000 0000 0000 0000 0000
0000 0000 0000 0000 0000 0000 0000 0000
0000 002d 0000 002d 0000 002d 0000 002d
0000 002d 0000 002d 0000 002d 0000 002d
0000 002d 0000 002d 0000 002d 0000 002d
0000 002d 0000 002d 0000 002d 0000 002d
0000 002d 0000 002d 0000 002d 0000 0000
0000 0000 0000 0000 0000 0000 0000 0000
0000 0000 0000 0000 0000 0000 0000 0000
0000 0000 0000 0000 0000 0000 0000 0000
0000 002d 0000 002d 0000 002d 0000 002d
0000 002d 0000 002d 0000 002d 0000 002d
0000 002d 0000 002d 0000 002d 0000 002d
0000 002d 0000 002d 0000 002d 0000 002d
0000 002d 0000 002d 0000 0000 0000 0000
0000 0000 0000 0000 0000 0000 0000 0000
0000 0000 0000 0000 0000 0000 0000 0000
0000 0000 0000 0000 0000 0000 0000 0000
0000 002d 0000 002d 0000 002d 0000 002d
0000 002d 0000 002d 0000 002d 0000 002d
0000 002d 0000 002d 0000 002d 0000 002d
0000 002d 0000 002d 0000 002d 0000 002d
0000 002d 0000 0000 0000 0000 0000 0000
0000 0000 0000 0000 0000 0000 0000 0000
0000 0000 0000 0000 0000 0000 0000 0000
0000 0000 0000 0000 0000 0000 0000 0000
0000 002d 0000 002d 0000 002d 0000 002d
0000 002d 0000 002d 0000 002d 0000 002d
0000 002d 0000 002d 0000 002d 0000 002d
0000 002d 0000 002d 0000 002d 0000 002d
0000 0000 0000 0000 0000 0000 0000 0000
0000 0000 0000 0000 0000 0000 0000 0000
0000 0000 0000 0000 0000 0000 0000 0000
0000 0000 0000 0000 0000 0000 0000 0000
0000 002d 0000 002d 0000 002d 0000 002d
0000 002d 0000 002d 0000 002d 0000 002d
0000 002d 0000 002d 0000 002d 0000 002d
0000 002d 0000 002d 0000 002d 0000 0000
0000 0000 0000 0000 0000 0000 0000 0000
0000 0000 0000 0000 0000 0000 0000 0000
0000 0000 0000 0000 0000 0000 0000 0000
0000 0000 0000 0000 0000 0000 0000 0000
0000 002d 0000 002d 0000 002d 0000 002d
0000 002d 0000 002d 0000 002d 0000 002d
0000 002d 0000 002d 0000 002d 0000 002d
0000 002d 0000 002d 0000 0000 0000 0000
0000 0000 0000 0000 0000 0000 0000 0000
0000 0000 0000 0000 0000 0000 0000 0000
0000 0000 0000 0000 0000 0000 0000 0000
0000 0000 0000 0000 0000 0000 0000 0000
0000 002d 0000 002d 0000 002d 0000 002d
0000 002d 0000 002d 0000 002d 0000 002d
0000 002d 0000 002d 0000 002d 0000 002d
0000 002d 0000 0000 0000 0000 0000 0000
0000 0000 0000 0000 0000 0000 0000 0000
0000 0000 0000 0000 0000 0000 0000 0000
0000 0000 0000 0000 0000 0000 0000 0000
0000 0000 0000 0000 0000 0000 0000 0000
0000 002d 0000 002d 0000 002d 0000 002d
0000 002d 0000 002d 0000 002d 0000 002d
0000 002d 0000 002d 0000 002d 0000 002d
0000 0000 0000 0000 0000 0000 0000 0000
0000 0000 0000 0000 0000 0000 0000 0000
0000 0000 0000 0000 0000 0000 0000 0000
0000 0000 0000 0000 0000 0000 0000 0000
0000 0000 0000 0000 0000 0000 0000 0000
0000 002d 0000 002d 0000 002d 0000 002d
0000 002d 0000 002d 0000 002d 0000 002d
0000 002d 0000 002d 0000 002d 0000 0000
0000 0000 0000 0000 0000 0000 0000 0000
0000 0000 0000 0000 0000 0000 0000 0000
0000 0000 0000 0000 0000 0000 0000 0000
0000 0000 0000 0000 0000 0000 0000 0000
0000 0000 0000 0000 0000 0000 0000 0000
0000 0000 0000 0000 0000 0000 0000 0000
0000 0000 0000 0000 0000 0000 0000 0000
0000 0000 0000 0000 0000 002d 0000 002d
0000 002d 0000 002d 0000 002d 0000 002d
0000 002d 0000 002d 0000 002d 0000 002d
0000 0000 0000 0000 0000 0000 0000 0000
0000 0000 0000 0000 0000 0000 0000 0000
0000 0000 0000 0000 0000 0000 0000 0000
0000 0000 0000 0000 0000 0000 0000 0000
0000 0000 0000 0000 0000 0000 0000 0000
0000 0000 0000 002d 0000 002d 0000 002d
0000 002d 0000 002d 0000 002d 0000 002d
0000 002d 0000 002d 0000 002d 0000 002d
0000 0000 0000 0000 0000 0000 0000 0000
0000 0000 0000 0000 0000 0000 0000 0000
0000 0000 0000 0000 0000 0000 0000 0000
0000 0000 0000 0000 0000 0000 0000 0000
0000 0000 0000 0000 0000 0000 0000 0000
0000 002d 0000 002d 0000 002d 0000 002d
0000 002d 0000 002d 0000 002d 0000 002d
0000 002d 0000 002d 0000 002d 0000 002d
0000 0000 0000 0000 0000 0000 0000 0000
0000 0000 0000 0000 0000 0000 0000 0000
0000 0000 0000 0000 0000 0000 0000 0000
0000 0000 0000 0000 0000 0000 0000 0000
0000 0000 0000 0000 0000 0000 0000 002d
0000 002d 0000 002d 0000 002d 0000 002d
0000 002d 0000 002d 0000 002d 0000 002d
0000 002d 0000 002d 0000 002d 0000 002d
0000 0000 0000 0000 0000 0000 0000 0000
0000 0000 0000 0000 0000 0000 0000 0000
0000 0000 0000 0000 0000 0000 0000 0000
0000 0000 0000 0000 0000 0000 0000 0000
0000 0000 0000 0000 0000 002d 0000 002d
0000 002d 0000 002d 0000 002d 0000 002d
0000 002d 0000 002d 0000 002d 0000 002d
0000 002d 0000 002d 0000 002d 0000 002d
0000 0000 0000 0000 0000 0000 0000 0000
0000 0000 0000 0000 0000 0000 0000 0000
0000 0000 0000 0000 0000 0000 0000 0000
0000 0000 0000 0000 0000 0000 0000 0000
0000 0000 0000 002d 0000 002d 0000 002d
0000 002d 0000 002d 0000 002d 0000 002d
0000 002d 0000 002d 0000 002d 0000 002d
0000 002d 0000 002d 0000 002d 0000 002d
0000 0000 0000 0000 0000 0000 0000 0000
0000 0000 0000 0000 0000 0000 0000 0000
0000 0000 0000 0000 0000 0000 0000 0000
0000 0000 0000 0000 0000 0000 0000 0000
0000 002d 0000 002d 0000 002d 0000 002d
0000 002d 0000 002d 0000 002d 0000 002d
0000 002d 0000 002d 0000 002d 0000 002d
0000 002d 0000 002d 0000 002d 0000 002d
0000 0000 0000 0000 0000 0000 0000 0000
0000 0000 0000 0000 0000 0000 0000 0000
0000 0000 0000 0000 0000 0000 0000 0000
0000 0000 0000 0000 0000 0000 0000 002d
0000 002d 0000 002d 0000 002d 0000 002d
0000 002d 0000 002d 0000 002d 0000 002d
0000 002d 0000 002d 0000 002d 0000 002d
0000 002d 0000 002d 0000 002d 0000 002d
0000 0000 0000 0000 0000 0000 0000 0000
0000 0000 0000 0000 0000 0000 0000 0000
0000 0000 0000 0000 0000 0000 0000 0000
0000 0000 0000 0000 0000 002d 0000 002d
0000 002d 0000 002d 0000 002d 0000 002d
0000 002d 0000 002d 0000 002d 0000 002d
0000 002d 0000 002d 0000 002d 0000 002d
0000 002d 0000 002d 0000 002d 0000 002d
0000 0000 0000 0000 0000 0000 0000 0000
0000 0000 0000 0000 0000 0000 0000 0000
0000 0000 0000 0000 0000 0000 0000 0000
0000 0000 0000 002d 0000 002d 0000 002d
0000 002d 0000 002d 0000 002d 0000 002d
0000 002d 0000 002d 0000 002d 0000 002d
0000 002d 0000 002d 0000 002d 0000 002d
0000 002d 0000 002d 0000 002d 0000 002d
0000 0000 0000 0000 0000 0000 0000 0000
0000 0000 0000 0000 0000 0000 0000 0000
0000 0000 0000 0000 0000 0000 0000 0000