0000 001a 0000 001a 0000 001a 0000 001a
0000 001a 0000 001a 0000 001a 0000 001a
0000 001a 0000 001a 0000 001a 0000 001a
0000 001a 0000 001a 0000 001a 0000 001a
0000 001a 0000 001a 0000 001a 0000 001a
0000 001a 0000 001a 0000 001a 0000 001a
0000 001a 0000 001a 0000 001a 0000 001a
0000 001a 0000 001a 0000 001a 0000 001a
0000 001a 0000 001a 0000 001a 0000 001a
0000 001a 0000 001a 0000 001a 0000 001a
0000 001a 0000 001a 0000 001a 0000 001a
0000 001a 0000 001a 0000 001a 0000 001a
0000 001a 0000 001a 0000 001a 0000 001a
0000 001a 0000 001a 0000 001a 0000 001a
0000 001a 0000 001a 0000 001a 0000 001a
0000 001a 0000 001a 0000 001a 0000 001a
0000 001a 0000 001a 0000 001a 0000 001a
0000 001a 0000 001a 0000 001a 0000 001a
0000 001a 0000 001a 0000 001a 0000 001a
0000 001a 0000 001a 0000 001a 0000 001a
0000 001a 0000 001a 0000 001a 0000 001a
0000 001a 0000 001a 0000 001a 0000 001a
0000 001a 0000 001a 0000 001a 0000 001a
0000 001a 0000 001a 0000 001a 0000 001a
0000 001a 0000 001a 0000 001a 0000 001a
0000 001a 0000 001a 0000 001a 0000 001a
0000 001a 0000 001a 0000 001a 0000 001a
0000 001a 0000 001a 0000 001a 0000 001a
0000 001a 0000 001a 0000 001a 0000 001a
0000 001a 0000 001a 0000 001a 0000 001a
0000 001a 0000 001a 0000 001a 0000 001a
0000 001a 0000 001a 0000 001a 0000 001a
0000 001a 0000 001a 0000 001a 0000 001a
0000 001a 0000 001a 0000 001a 0000 001a
0000 001a 0000 001a 0000 001a 0000 001a
0000 001a 0000 001a 0000 001a 0000 001a
0000 001a 0000 001a 0000 001a 0000 001a
0000 001a 0000 001a 0000 001a 0000 001a
0000 001a 0000 001a 0000 001a 0000 001a
0000 001a 0000 001a 0000 001a 0000 001a
0000 001a 0000 001a 0000 001a 0000 001a
0000 001a 0000 001a 0000 001a 0000 001a
0000 001a 0000 001a 0000 001a 0000 001a
0000 001a 0000 001a 0000 001a 0000 001a
0000 001a 0000 001a 0000 001a 0000 001a
0000 001a 0000 001a 0000 001a 0000 001a
0000 001a 0000 001a 0000 001a 0000 001a
0000 001a 0000 001a 0000 001a 0000 001a
0000 001a 0000 001a 0000 001a 0000 001a
0000 001a 0000 001a 0000 001a 0000 001a
0000 001a 0000 001a 0000 001a 0000 001a
0000 001a 0000 001a 0000 001a 0000 001a
0000 001a 0000 001a 0000 001a 0000 001a
0000 001a 0000 001a 0000 001a 0000 001a
0000 001a 0000 001a 0000 001a 0000 001a
0000 001a 0000 001a 0000 001a 0000 001a
0000 001a 0000 001a 0000 001a 0000 001a
0000 001a 0000 001a 0000 001a 0000 001a
0000 001a 0000 001a 0000 001a 0000 001a
0000 001a 0000 001a 0000 001a 0000 001a
0000 001a 0000 001a 0000 001a 0000 001a
0000 001a 0000 001a 0000 001a 0000 001a
0000 001a 0000 001a 0000 001a 0000 001a
0000 001a 0000 001a 0000 001a 0000 001a
0000 001a 0000 001a 0000 001a 0000 001a
0000 001a 0000 001a 0000 001a 0000 001a
0000 001a 0000 001a 0000 001a 0000 001a
0000 001a 0000 001a 0000 001a 0000 001a
0000 001a 0000 001a 0000 001a 0000 001a
0000 001a 0000 001a 0000 001a 0000 001a
0000 001a 0000 001a 0000 001a 0000 001a
0000 001a 0000 001a 0000 001a 0000 001a
0000 001a 0000 001a 0000 001a 0000 001a
0000 001a 0000 001a 0000 001a 0000 001a
0000 001a 0000 001a 0000 001a 0000 001a
0000 001a 0000 001a 0000 001a 0000 001a
0000 001a 0000 001a 0000 001a 0000 001a
0000 001a 0000 001a 0000 001a 0000 001a
0000 001a 0000 001a 0000 001a 0000 001a
0000 001a 0000 001a 0000 001a 0000 001a
0000 001a 0000 001a 0000 001a 0000 001a
0000 001a 0000 001a 0000 001a 0000 001a
0000 001a 0000 001a 0000 001a 0000 001a
0000 001a 0000 001a 0000 001a 0000 001a
0000 001a 0000 001a 0000 001a 0000 001a
0000 001a 0000 001a 0000 001a 0000 001a
0000 001a 0000 001a 0000 001a 0000 001a
0000 001a 0000 001a 0000 001a 0000 001a
0000 001a 0000 001a 0000 001a 0000 001a
0000 001a 0000 001a 0000 001a 0000 001a
0000 001a 0000 001a 0000 001a 0000 001a
0000 001a 0000 001a 0000 001a 0000 001a
0000 001a 0000 001a 0000 001a 0000 001a
0000 001a 0000 001a 0000 001a 0000 001a
0000 001a 0000 001a 0000 001a 0000 001a
0000 001a 0000 001a 0000 001a 0000 001a
0000 001a 0000 001a 0000 001a 0000 001a
0000 001a 0000 001a 0000 001a 0000 001a
0000 001a 0000 001a 0000 001a 0000 001a
0000 001a 0000 001a 0000 001a 0000 001a
0000 001a 0000 001a 0000 001a 0000 001a
0000 001a 0000 001a 0000 001a 0000 001a
0000 001a 0000 001a 0000 001a 0000 001a
0000 001a 0000 001a 0000 001a 0000 001a
0000 001a 0000 001a 0000 001a 0000 001a
0000 001a 0000 001a 0000 001a 0000 001a
0000 001a 0000 001a 0000 001a 0000 001a
0000 001a 0000 001a 0000 001a 0000 001a
0000 001a 0000 001a 0000 001a 0000 001a
0000 001a 0000 001a 0000 001a 0000 001a
0000 001a 0000 001a 0000 001a 0000 001a
0000 001a 0000 001a 0000 001a 0000 001a
0000 001a 0000 001a 0000 001a 0000 001a
0000 001a 0000 001a 0000 001a 0000 001a
0000 001a 0000 001a 0000 001a 0000 001a
0000 001a 0000 001a 0000 001a 0000 001a
0000 001a 0000 001a 0000 001a 0000 001a
0000 001a 0000 001a 0000 001a 0000 001a
0000 001a 0000 001a 0000 001a 0000 001a
0000 001a 0000 001a 0000 001a 0000 001a
0000 001a 0000 001a 0000 001a 0000 001a
0000 001a 0000 001a 0000 001a 0000 001a
0000 001a 0000 001a 0000 001a 0000 001a
0000 001a 0000 001a 0000 001a 0000 001a
0000 001a 0000 001a 0000 001a 0000 001a
0000 001a 0000 001a 0000 001a 0000 001a
0000 001a 0000 001a 0000 001a 0000 001a
0000 001a 0000 001a 0000 001a 0000 001a
0000 001a 0000 001a 0000 001a 0000 001a
0000 001a 0000 001a 0000 001a 0000 001a
0000 001a 0000 001a 0000 001a 0000 001a
0000 001a 0000 001a 0000 001a 0000 001a
0000 001a 0000 001a 0000 001a 0000 001a
0000 001a 0000 001a 0000 001a 0000 001a
0000 001a 0000 001a 0000 001a 0000 001a
0000 001a 0000 001a 0000 001a 0000 001a
0000 001a 0000 001a 0000 001a 0000 001a
0000 001a 0000 001a 0000 001a 0000 001a
0000 001a 0000 001a 0000 001a 0000 001a
0000 001a 0000 001a 0000 001a 0000 001a
0000 001a 0000 001a 0000 001a 0000 001a
0000 001a 0000 001a 0000 001a 0000 001a
0000 001a 0000 001a 0000 001a 0000 001a
0000 001a 0000 001a 0000 001a 0000 001a
0000 001a 0000 001a 0000 001a 0000 001a
0000 001a 0000 001a 0000 001a 0000 001a
0000 001a 0000 001a 0000 001a 0000 001a
0000 001a 0000 001a 0000 001a 0000 001a
0000 001a 0000 001a 0000 001a 0000 001a
0000 001a 0000 001a 0000 001a 0000 001a
0000 001a 0000 001a 0000 001a 0000 001a
0000 001a 0000 001a 0000 001a 0000 001a
0000 001a 0000 001a 0000 001a 0000 001a
0000 001a 0000 001a 0000 001a 0000 001a
0000 001a 0000 001a 0000 001a 0000 001a
0000 001a 0000 001a 0000 001a 0000 001a
0000 001a 0000 001a 0000 001a 0000 001a
0000 001a 0000 001a 0000 001a 0000 001a
0000 001a 0000 001a 0000 001a 0000 001a
0000 001a 0000 001a 0000 001a 0000 001a
0000 001a 0000 001a 0000 001a 0000 001a
0000 001a 0000 001a 0000 001a 0000 001a
0000 001a 0000 001a 0000 001a 0000 001a
0000 001a 0000 001a 0000 001a 0000 001a
0000 001a 0000 001a 0000 001a 0000 001a
0000 001a 0000 001a 0000 001a 0000 001a
0000 001a 0000 001a 0000 001a 0000 001a
0000 001a 0000 001a 0000 001a 0000 001a
0000 001a 0000 001a 0000 001a 0000 001a
0000 001a 0000 001a 0000 001a 0000 001a
0000 001a 0000 001a 0000 001a 0000 001a
0000 001a 0000 001a 0000 001a 0000 001a
0000 001a 0000 001a 0000 001a 0000 001a
0000 001a 0000 001a 0000 001a 0000 001a
0000 001a 0000 001a 0000 001a 0000 001a
0000 001a 0000 001a 0000 001a 0000 001a
0000 001a 0000 001a 0000 001a 0000 001a
0000 001a 0000 001a 0000 001a 0000 001a
0000 001a 0000 001a 0000 001a 0000 001a
0000 001a 0000 001a 0000 001a 0000 001a
0000 001a 0000 001a 0000 001a 0000 001a
0000 001a 0000 001a 0000 001a 0000 001a
0000 001a 0000 001a 0000 001a 0000 001a
0000 001a 0000 001a 0000 001a 0000 001a
0000 001a 0000 001a 0000 001a 0000 001a
0000 001a 0000 001a 0000 001a 0000 001a
0000 001a 0000 001a 0000 001a 0000 001a
0000 001a 0000 001a 0000 001a 0000 001a
0000 001a 0000 001a 0000 001a 0000 001a
0000 001a 0000 001a 0000 001a 0000 001a
0000 001a 0000 001a 0000 001a 0000 001a
0000 001a 0000 001a 0000 001a 0000 001a
0000 001a 0000 001a 0000 001a 0000 001a
0000 001a 0000 001a 0000 001a 0000 001a
0000 001a 0000 001a 0000 001a 0000 001a
0000 001a 0000 001a 0000 001a 0000 001a
0000 001a 0000 001a 0000 001a 0000 001a
0000 001a 0000 001a 0000 001a 0000 001a
0000 001a 0000 001a 0000 001a 0000 001a
0000 001a 0000 001a 0000 001a 0000 001a
0000 001a 0000 001a 0000 001a 0000 001a
0000 001a 0000 001a 0000 001a 0000 001a
0000 001a 0000 001a 0000 001a 0000 001a
0000 001a 0000 001a 0000 001a 0000 001a
0000 001a 0000 001a 0000 001a 0000 001a
0000 001a 0000 001a 0000 001a 0000 001a
0000 001a 0000 001a 0000 001a 0000 001a
0000 001a 0000 001a 0000 001a 0000 001a
0000 001a 0000 001a 0000 001a 0000 001a
0000 001a 0000 001a 0000 001a 0000 001a
0000 001a 0000 001a 0000 001a 0000 001a
0000 001a 0000 001a 0000 001a 0000 001a
0000 001a 0000 001a 0000 001a 0000 001a
0000 001a 0000 001a 0000 001a 0000 001a
0000 001a 0000 001a 0000 001a 0000 001a
0000 001a 0000 001a 0000 001a 0000 001a
0000 001a 0000 001a 0000 001a 0000 001a
0000 001a 0000 001a 0000 001a 0000 001a
0000 001a 0000 001a 0000 001a 0000 001a
0000 001a 0000 001a 0000 001a 0000 001a
0000 001a 0000 001a 0000 001a 0000 001a
0000 001a 0000 001a 0000 001a 0000 001a
0000 001a 0000 001a 0000 001a 0000 001a
0000 001a 0000 001a 0000 001a 0000 001a
0000 001a 0000 001a 0000 001a 0000 001a
0000 001a 0000 001a 0000 001a 0000 001a
0000 001a 0000 001a 0000 001a 0000 001a
0000 001a 0000 001a 0000 001a 0000 001a
0000 001a 0000 001a 0000 001a 0000 001a
0000 001a 0000 001a 0000 001a 0000 001a
0000 001a 0000 001a 0000 001a 0000 001a
0000 001a 0000 001a 0000 001a 0000 001a
0000 001a 0000 001a 0000 001a 0000 001a
0000 001a 0000 001a 0000 001a 0000 001a
0000 001a 0000 001a 0000 001a 0000 001a
0000 001a 0000 001a 0000 001a 0000 001a
0000 001a 0000 001a 0000 001a 0000 001a
0000 001a 0000 001a 0000 001a 0000 001a
0000 001a 0000 001a 0000 001a 0000 001a
0000 001a 0000 001a 0000 001a 0000 001a
0000 001a 0000 001a 0000 001a 0000 001a
0000 001a 0000 001a 0000 001a 0000 001a
0000 001a 0000 001a 0000 001a 0000 001a
0000 001a 0000 001a 0000 001a 0000 001a
0000 001a 0000 001a 0000 001a 0000 001a
0000 001a 0000 001a 0000 001a 0000 001a
0000 001a 0000 001a 0000 001a 0000 001a
0000 001a 0000 001a 0000 001a 0000 001a
0000 001a 0000 001a 0000 001a 0000 001a
0000 001a 0000 001a 0000 001a 0000 001a
0000 001a 0000 001a 0000 001a 0000 001a
0000 001a 0000 001a 0000 001a 0000 001a
0000 001a 0000 001a 0000 001a 0000 001a
0000 001a 0000 001a 0000 001a 0000 001a
0000 001a 0000 001a 0000 001a 0000 001a
0000 001a 0000 001a 0000 001a 0000 001a