0000 0018 0000 0018 0000 0018 0000 0018
0000 0018 0000 0018 0000 0018 0000 0018
0000 0018 0000 0018 0000 0018 0000 0018
0000 0018 0000 0018 0000 0018 0000 0018
0000 0018 0000 0018 0000 0018 0000 0018
0000 0018 0000 0018 0000 0018 0000 0018
0000 0018 0000 0018 0000 0018 0000 0018
0000 0018 0000 0018 0000 0018 0000 0018
0000 0018 0000 0018 0000 0018 0000 0018
0000 0018 0000 0018 0000 0018 0000 0018
0000 0018 0000 0018 0000 0018 0000 0018
0000 0018 0000 0018 0000 0018 0000 0018
0000 0018 0000 0018 0000 0018 0000 0018
0000 0018 0000 0018 0000 0018 0000 0018
0000 0018 0000 0018 0000 0018 0000 0018
0000 0018 0000 0018 0000 0018 0000 0018
0000 0018 0000 0018 0000 0018 0000 0018
0000 0018 0000 0018 0000 0018 0000 0018
0000 0018 0000 0018 0000 0018 0000 0018
0000 0018 0000 0018 0000 0018 0000 0018
0000 0018 0000 0018 0000 0018 0000 0018
0000 0018 0000 0018 0000 0018 0000 0018
0000 0018 0000 0018 0000 0018 0000 0018
0000 0018 0000 0018 0000 0018 0000 0018
0000 0018 0000 0018 0000 0018 0000 0018
0000 0018 0000 0018 0000 0018 0000 0018
0000 0018 0000 0018 0000 0018 0000 0018
0000 0018 0000 0018 0000 0018 0000 0018
0000 0018 0000 0018 0000 0018 0000 0018
0000 0018 0000 0018 0000 0018 0000 0018
0000 0018 0000 0018 0000 0018 0000 0018
0000 0018 0000 0018 0000 0018 0000 0018
0000 0018 0000 0018 0000 0018 0000 0018
0000 0018 0000 0018 0000 0018 0000 0018
0000 0018 0000 0018 0000 0018 0000 0018
0000 0018 0000 0018 0000 0018 0000 0018
0000 0018 0000 0018 0000 0018 0000 0018
0000 0018 0000 0018 0000 0018 0000 0018
0000 0018 0000 0018 0000 0018 0000 0018
0000 0018 0000 0018 0000 0018 0000 0018
0000 0018 0000 0018 0000 0018 0000 0018
0000 0018 0000 0018 0000 0018 0000 0018
0000 0018 0000 0018 0000 0018 0000 0018
0000 0018 0000 0018 0000 0018 0000 0018
0000 0018 0000 0018 0000 0018 0000 0018
0000 0018 0000 0018 0000 0018 0000 0018
0000 0018 0000 0018 0000 0018 0000 0018
0000 0018 0000 0018 0000 0018 0000 0018
0000 0018 0000 0018 0000 0018 0000 0018
0000 0018 0000 0018 0000 0018 0000 0018
0000 0018 0000 0018 0000 0018 0000 0018
0000 0018 0000 0018 0000 0018 0000 0018
0000 0018 0000 0018 0000 0018 0000 0018
0000 0018 0000 0018 0000 0018 0000 0018
0000 0018 0000 0018 0000 0018 0000 0018
0000 0018 0000 0018 0000 0018 0000 0018
0000 0018 0000 0018 0000 0018 0000 0018
0000 0018 0000 0018 0000 0018 0000 0018
0000 0018 0000 0018 0000 0018 0000 0018
0000 0018 0000 0018 0000 0018 0000 0018
0000 0018 0000 0018 0000 0018 0000 0018
0000 0018 0000 0018 0000 0018 0000 0018
0000 0018 0000 0018 0000 0018 0000 0018
0000 0018 0000 0018 0000 0018 0000 0018
0000 0018 0000 0018 0000 0018 0000 0018
0000 0018 0000 0018 0000 0018 0000 0018
0000 0018 0000 0018 0000 0018 0000 0018
0000 0018 0000 0018 0000 0018 0000 0018
0000 0018 0000 0018 0000 0018 0000 0018
0000 0018 0000 0018 0000 0018 0000 0018
0000 0018 0000 0018 0000 0018 0000 0018
0000 0018 0000 0018 0000 0018 0000 0018
0000 0018 0000 0018 0000 0018 0000 0018
0000 0018 0000 0018 0000 0018 0000 0018
0000 0018 0000 0018 0000 0018 0000 0018
0000 0018 0000 0018 0000 0018 0000 0018
0000 0018 0000 0018 0000 0018 0000 0018
0000 0018 0000 0018 0000 0018 0000 0018
0000 0018 0000 0018 0000 0018 0000 0018
0000 0018 0000 0018 0000 0018 0000 0018
0000 0018 0000 0018 0000 0018 0000 0018
0000 0018 0000 0018 0000 0018 0000 0018
0000 0018 0000 0018 0000 0018 0000 0018
0000 0018 0000 0018 0000 0018 0000 0018
0000 0018 0000 0018 0000 0018 0000 0018
0000 0018 0000 0018 0000 0018 0000 0018
0000 0018 0000 0018 0000 0018 0000 0018
0000 0018 0000 0018 0000 0018 0000 0018
0000 0018 0000 0018 0000 0018 0000 0018
0000 0018 0000 0018 0000 0018 0000 0018
0000 0018 0000 0018 0000 0018 0000 0018
0000 0018 0000 0018 0000 0018 0000 0018
0000 0018 0000 0018 0000 0018 0000 0018
0000 0018 0000 0018 0000 0018 0000 0018
0000 0018 0000 0018 0000 0018 0000 0018
0000 0018 0000 0018 0000 0018 0000 0018
0000 0018 0000 0018 0000 0018 0000 0018
0000 0018 0000 0018 0000 0018 0000 0018
0000 0018 0000 0018 0000 0018 0000 0018
0000 0018 0000 0018 0000 0018 0000 0018
0000 0018 0000 0018 0000 0018 0000 0018
0000 0018 0000 0018 0000 0018 0000 0018
0000 0018 0000 0018 0000 0018 0000 0018
0000 0018 0000 0018 0000 0018 0000 0018
0000 0018 0000 0018 0000 0018 0000 0018
0000 0018 0000 0018 0000 0018 0000 0018
0000 0018 0000 0018 0000 0018 0000 0018
0000 0018 0000 0018 0000 0018 0000 0018
0000 0018 0000 0018 0000 0018 0000 0018
0000 0018 0000 0018 0000 0018 0000 0018
0000 0018 0000 0018 0000 0018 0000 0018
0000 0018 0000 0018 0000 0018 0000 0018
0000 0018 0000 0018 0000 0018 0000 0018
0000 0018 0000 0018 0000 0018 0000 0018
0000 0018 0000 0018 0000 0018 0000 0018
0000 0018 0000 0018 0000 0018 0000 0018
0000 0018 0000 0018 0000 0018 0000 0018
0000 0018 0000 0018 0000 0018 0000 0018
0000 0018 0000 0018 0000 0018 0000 0018
0000 0018 0000 0018 0000 0018 0000 0018
0000 0018 0000 0018 0000 0018 0000 0018
0000 0018 0000 0018 0000 0018 0000 0018
0000 0018 0000 0018 0000 0018 0000 0018
0000 0018 0000 0018 0000 0018 0000 0018
0000 0018 0000 0018 0000 0018 0000 0018
0000 0018 0000 0018 0000 0018 0000 0018
0000 0018 0000 0018 0000 0018 0000 0018
0000 0018 0000 0018 0000 0018 0000 0018
0000 0018 0000 0018 0000 0018 0000 0018
0000 0018 0000 0018 0000 0018 0000 0018
0000 0018 0000 0018 0000 0018 0000 0018
0000 0018 0000 0018 0000 0018 0000 0018
0000 0018 0000 0018 0000 0018 0000 0018
0000 0018 0000 0018 0000 0018 0000 0018
0000 0018 0000 0018 0000 0018 0000 0018
0000 0018 0000 0018 0000 0018 0000 0018
0000 0018 0000 0018 0000 0018 0000 0018
0000 0018 0000 0018 0000 0018 0000 0018
0000 0018 0000 0018 0000 0018 0000 0018
0000 0018 0000 0018 0000 0018 0000 0018
0000 0018 0000 0018 0000 0018 0000 0018
0000 0018 0000 0018 0000 0018 0000 0018
0000 0018 0000 0018 0000 0018 0000 0018
0000 0018 0000 0018 0000 0018 0000 0018
0000 0018 0000 0018 0000 0018 0000 0018
0000 0018 0000 0018 0000 0018 0000 0018
0000 0018 0000 0018 0000 0018 0000 0018
0000 0018 0000 0018 0000 0018 0000 0018
0000 0018 0000 0018 0000 0018 0000 0018
0000 0018 0000 0018 0000 0018 0000 0018
0000 0018 0000 0018 0000 0018 0000 0018
0000 0018 0000 0018 0000 0018 0000 0018
0000 0018 0000 0018 0000 0018 0000 0018
0000 0018 0000 0018 0000 0018 0000 0018
0000 0018 0000 0018 0000 0018 0000 0018
0000 0018 0000 0018 0000 0018 0000 0018
0000 0018 0000 0018 0000 0018 0000 0018
0000 0018 0000 0018 0000 0018 0000 0018
0000 0018 0000 0018 0000 0018 0000 0018
0000 0018 0000 0018 0000 0018 0000 0018
0000 0018 0000 0018 0000 0018 0000 0018
0000 0018 0000 0018 0000 0018 0000 0018
0000 0018 0000 0018 0000 0018 0000 0018
0000 0018 0000 0018 0000 0018 0000 0018
0000 0018 0000 0018 0000 0018 0000 0018
0000 0018 0000 0018 0000 0018 0000 0018
0000 0018 0000 0018 0000 0018 0000 0018
0000 0018 0000 0018 0000 0018 0000 0018
0000 0018 0000 0018 0000 0018 0000 0018
0000 0018 0000 0018 0000 0018 0000 0018
0000 0018 0000 0018 0000 0018 0000 0018
0000 0018 0000 0018 0000 0018 0000 0018
0000 0018 0000 0018 0000 0018 0000 0018
0000 0018 0000 0018 0000 0018 0000 0018
0000 0018 0000 0018 0000 0018 0000 0018
0000 0018 0000 0018 0000 0018 0000 0018
0000 0018 0000 0018 0000 0018 0000 0018
0000 0018 0000 0018 0000 0018 0000 0018
0000 0018 0000 0018 0000 0018 0000 0018
0000 0018 0000 0018 0000 0018 0000 0018
0000 0018 0000 0018 0000 0018 0000 0018
0000 0018 0000 0018 0000 0018 0000 0018
0000 0018 0000 0018 0000 0018 0000 0018
0000 0018 0000 0018 0000 0018 0000 0018
0000 0018 0000 0018 0000 0018 0000 0018
0000 0018 0000 0018 0000 0018 0000 0018
0000 0018 0000 0018 0000 0018 0000 0018
0000 0018 0000 0018 0000 0018 0000 0018
0000 0018 0000 0018 0000 0018 0000 0018
0000 0018 0000 0018 0000 0018 0000 0018
0000 0018 0000 0018 0000 0018 0000 0018
0000 0018 0000 0018 0000 0018 0000 0018
0000 0018 0000 0018 0000 0018 0000 0018
0000 0018 0000 0018 0000 0018 0000 0018
0000 0018 0000 0018 0000 0018 0000 0018
0000 0018 0000 0018 0000 0018 0000 0018
0000 0018 0000 0018 0000 0018 0000 0018
0000 0018 0000 0018 0000 0018 0000 0018
0000 0018 0000 0018 0000 0018 0000 0018
0000 0018 0000 0018 0000 0018 0000 0018
0000 0018 0000 0018 0000 0018 0000 0018
0000 0018 0000 0018 0000 0018 0000 0018
0000 0018 0000 0018 0000 0018 0000 0018
0000 0018 0000 0018 0000 0018 0000 0018
0000 0018 0000 0018 0000 0018 0000 0018
0000 0018 0000 0018 0000 0018 0000 0018
0000 0018 0000 0018 0000 0018 0000 0018
0000 0018 0000 0018 0000 0018 0000 0018
0000 0018 0000 0018 0000 0018 0000 0018
0000 0018 0000 0018 0000 0018 0000 0018
0000 0018 0000 0018 0000 0018 0000 0018
0000 0018 0000 0018 0000 0018 0000 0018
0000 0018 0000 0018 0000 0018 0000 0018
0000 0018 0000 0018 0000 0018 0000 0018
0000 0018 0000 0018 0000 0018 0000 0018
0000 0018 0000 0018 0000 0018 0000 0018
0000 0018 0000 0018 0000 0018 0000 0018
0000 0018 0000 0018 0000 0018 0000 0018
0000 0018 0000 0018 0000 0018 0000 0018
0000 0018 0000 0018 0000 0018 0000 0018
0000 0018 0000 0018 0000 0018 0000 0018
0000 0018 0000 0018 0000 0018 0000 0018
0000 0018 0000 0018 0000 0018 0000 0018
0000 0018 0000 0018 0000 0018 0000 0018
0000 0018 0000 0018 0000 0018 0000 0018
0000 0018 0000 0018 0000 0018 0000 0018
0000 0018 0000 0018 0000 0018 0000 0018
0000 0018 0000 0018 0000 0018 0000 0018
0000 0018 0000 0018 0000 0018 0000 0018
0000 0018 0000 0018 0000 0018 0000 0018
0000 0018 0000 0018 0000 0018 0000 0018
0000 0018 0000 0018 0000 0018 0000 0018
0000 0018 0000 0018 0000 0018 0000 0018
0000 0018 0000 0018 0000 0018 0000 0018
0000 0018 0000 0018 0000 0018 0000 0018
0000 0018 0000 0018 0000 0018 0000 0018
0000 0018 0000 0018 0000 0018 0000 0018
0000 0018 0000 0018 0000 0018 0000 0018
0000 0018 0000 0018 0000 0018 0000 0018
0000 0018 0000 0018 0000 0018 0000 0018
0000 0018 0000 0018 0000 0018 0000 0018
0000 0018 0000 0018 0000 0018 0000 0018
0000 0018 0000 0018 0000 0018 0000 0018
0000 0018 0000 0018 0000 0018 0000 0018
0000 0018 0000 0018 0000 0018 0000 0018
0000 0018 0000 0018 0000 0018 0000 0018
0000 0018 0000 0018 0000 0018 0000 0018
0000 0018 0000 0018 0000 0018 0000 0018
0000 0018 0000 0018 0000 0018 0000 0018
0000 0018 0000 0018 0000 0018 0000 0018
0000 0018 0000 0018 0000 0018 0000 0018
0000 0018 0000 0018 0000 0018 0000 0018
0000 0018 0000 0018 0000 0018 0000 0018
0000 0018 0000 0018 0000 0018 0000 0018
0000 0018 0000 0018 0000 0018 0000 0018
0000 0018 0000 0018 0000 0018 0000 0018