0000 0025 0000 0025 0000 0025 0000 0025
0000 0025 0000 0025 0000 0025 0000 0025
0000 0025 0000 0025 0000 0025 0000 0025
0000 0025 0000 0025 0000 0025 0000 0025
0000 0025 0000 0025 0000 0025 0000 0025
0000 0025 0000 0025 0000 0025 0000 0025
0000 0025 0000 0025 0000 0025 0000 0025
0000 0025 0000 0025 0000 0025 0000 0025
0000 0025 0000 0025 0000 0025 0000 0025
0000 0025 0000 0025 0000 0025 0000 0025
0000 0025 0000 0025 0000 0025 0000 0025
0000 0025 0000 0025 0000 0025 0000 0025
0000 0025 0000 0025 0000 0025 0000 0025
0000 0025 0000 0025 0000 0025 0000 0025
0000 0025 0000 0025 0000 0025 0000 0025
0000 0025 0000 0025 0000 0025 0000 0025
0000 0025 0000 0025 0000 0025 0000 0025
0000 0025 0000 0025 0000 0025 0000 0025
0000 0025 0000 0025 0000 0025 0000 0025
0000 0025 0000 0025 0000 0025 0000 0025
0000 0025 0000 0025 0000 0025 0000 0025
0000 0025 0000 0025 0000 0025 0000 0025
0000 0025 0000 0025 0000 0025 0000 0025
0000 0025 0000 0025 0000 0025 0000 0025
0000 0025 0000 0025 0000 0025 0000 0025
0000 0025 0000 0025 0000 0025 0000 0025
0000 0025 0000 0025 0000 0025 0000 0025
0000 0025 0000 0025 0000 0025 0000 0025
0000 0025 0000 0025 0000 0025 0000 0025
0000 0025 0000 0025 0000 0025 0000 0025
0000 0025 0000 0025 0000 0025 0000 0025
0000 0025 0000 0025 0000 0025 0000 0025
0000 0025 0000 0025 0000 0025 0000 0025
0000 0025 0000 0025 0000 0025 0000 0025
0000 0025 0000 0025 0000 0025 0000 0025
0000 0025 0000 0025 0000 0025 0000 0025
0000 0025 0000 0025 0000 0025 0000 0025
0000 0025 0000 0025 0000 0025 0000 0025
0000 0025 0000 0025 0000 0025 0000 0025
0000 0025 0000 0025 0000 0025 0000 0025
0000 0025 0000 0025 0000 0025 0000 0025
0000 0025 0000 0025 0000 0025 0000 0025
0000 0025 0000 0025 0000 0025 0000 0025
0000 0025 0000 0025 0000 0025 0000 0025
0000 0025 0000 0025 0000 0025 0000 0025
0000 0025 0000 0025 0000 0025 0000 0025
0000 0025 0000 0025 0000 0025 0000 0025
0000 0025 0000 0025 0000 0025 0000 0025
0000 0025 0000 0025 0000 0025 0000 0025
0000 0025 0000 0025 0000 0025 0000 0025
0000 0025 0000 0025 0000 0025 0000 0025
0000 0025 0000 0025 0000 0025 0000 0025
0000 0025 0000 0025 0000 0025 0000 0025
0000 0025 0000 0025 0000 0025 0000 0025
0000 0025 0000 0025 0000 0025 0000 0025
0000 0025 0000 0025 0000 0025 0000 0025
0000 0025 0000 0025 0000 0025 0000 0025
0000 0025 0000 0025 0000 0025 0000 0025
0000 0025 0000 0025 0000 0025 0000 0025
0000 0025 0000 0025 0000 0025 0000 0025
0000 0025 0000 0025 0000 0025 0000 0025
0000 0025 0000 0025 0000 0025 0000 0025
0000 0025 0000 0025 0000 0025 0000 0025
0000 0025 0000 0025 0000 0025 0000 0025
0000 0025 0000 0025 0000 0025 0000 0025
0000 0025 0000 0025 0000 0025 0000 0025
0000 0025 0000 0025 0000 0025 0000 0025
0000 0025 0000 0025 0000 0025 0000 0025
0000 0025 0000 0025 0000 0025 0000 0025
0000 0025 0000 0025 0000 0025 0000 0025
0000 0025 0000 0025 0000 0025 0000 0025
0000 0025 0000 0025 0000 0025 0000 0025
0000 0025 0000 0025 0000 0025 0000 0025
0000 0025 0000 0025 0000 0025 0000 0025
0000 0025 0000 0025 0000 0025 0000 0025
0000 0025 0000 0025 0000 0025 0000 0025
0000 0025 0000 0025 0000 0025 0000 0025
0000 0025 0000 0025 0000 0025 0000 0025
0000 0025 0000 0025 0000 0025 0000 0025
0000 0025 0000 0025 0000 0025 0000 0025
0000 0025 0000 0025 0000 0025 0000 0025
0000 0025 0000 0025 0000 0025 0000 0025
0000 0025 0000 0025 0000 0025 0000 0025
0000 0025 0000 0025 0000 0025 0000 0025
0000 0025 0000 0025 0000 0025 0000 0025
0000 0025 0000 0025 0000 0025 0000 0025
0000 0025 0000 0025 0000 0025 0000 0025
0000 0025 0000 0025 0000 0025 0000 0025
0000 0025 0000 0025 0000 0025 0000 0025
0000 0025 0000 0025 0000 0025 0000 0025
0000 0025 0000 0025 0000 0025 0000 0025
0000 0025 0000 0025 0000 0025 0000 0025
0000 0025 0000 0025 0000 0025 0000 0025
0000 0025 0000 0025 0000 0025 0000 0025
0000 0025 0000 0025 0000 0025 0000 0025
0000 0025 0000 0025 0000 0025 0000 0025
0000 0025 0000 0025 0000 0025 0000 0025
0000 0025 0000 0025 0000 0025 0000 0025
0000 0025 0000 0025 0000 0025 0000 0025
0000 0025 0000 0025 0000 0025 0000 0025
0000 0025 0000 0025 0000 0025 0000 0025
0000 0025 0000 0025 0000 0025 0000 0025
0000 0025 0000 0025 0000 0025 0000 0025
0000 0025 0000 0025 0000 0025 0000 0025
0000 0025 0000 0025 0000 0025 0000 0025
0000 0025 0000 0025 0000 0025 0000 0025
0000 0025 0000 0025 0000 0025 0000 0025
0000 0025 0000 0025 0000 0025 0000 0025
0000 0025 0000 0025 0000 0025 0000 0025
0000 0025 0000 0025 0000 0025 0000 0025
0000 0025 0000 0025 0000 0025 0000 0025
0000 0025 0000 0025 0000 0025 0000 0025
0000 0025 0000 0025 0000 0025 0000 0025
0000 0025 0000 0025 0000 0025 0000 0025
0000 0025 0000 0025 0000 0025 0000 0025
0000 0025 0000 0025 0000 0025 0000 0025
0000 0025 0000 0025 0000 0025 0000 0025
0000 0025 0000 0025 0000 0025 0000 0025
0000 0025 0000 0025 0000 0025 0000 0025
0000 0025 0000 0025 0000 0025 0000 0025
0000 0025 0000 0025 0000 0025 0000 0025
0000 0025 0000 0025 0000 0025 0000 0025
0000 0025 0000 0025 0000 0025 0000 0025
0000 0025 0000 0025 0000 0025 0000 0025
0000 0025 0000 0025 0000 0025 0000 0025
0000 0025 0000 0025 0000 0025 0000 0025
0000 0025 0000 0025 0000 0025 0000 0025
0000 0025 0000 0025 0000 0025 0000 0025
0000 0025 0000 0025 0000 0025 0000 0025
0000 0025 0000 0025 0000 0025 0000 0025
0000 0025 0000 0025 0000 0025 0000 0025
0000 0025 0000 0025 0000 0025 0000 0025
0000 0025 0000 0025 0000 0025 0000 0025
0000 0025 0000 0025 0000 0025 0000 0025
0000 0025 0000 0025 0000 0025 0000 0025
0000 0025 0000 0025 0000 0025 0000 0025
0000 0025 0000 0025 0000 0025 0000 0025
0000 0025 0000 0025 0000 0025 0000 0025
0000 0025 0000 0025 0000 0025 0000 0025
0000 0025 0000 0025 0000 0025 0000 0025
0000 0025 0000 0025 0000 0025 0000 0025
0000 0025 0000 0025 0000 0025 0000 0025
0000 0025 0000 0025 0000 0025 0000 0025
0000 0025 0000 0025 0000 0025 0000 0025
0000 0025 0000 0025 0000 0025 0000 0025
0000 0025 0000 0025 0000 0025 0000 0025
0000 0025 0000 0025 0000 0025 0000 0025
0000 0025 0000 0025 0000 0025 0000 0025
0000 0025 0000 0025 0000 0025 0000 0025
0000 0025 0000 0025 0000 0025 0000 0025
0000 0025 0000 0025 0000 0025 0000 0025
0000 0025 0000 0025 0000 0025 0000 0025
0000 0025 0000 0025 0000 0025 0000 0025
0000 0025 0000 0025 0000 0025 0000 0025
0000 0025 0000 0025 0000 0025 0000 0025
0000 0025 0000 0025 0000 0025 0000 0025
0000 0025 0000 0025 0000 0025 0000 0025
0000 0025 0000 0025 0000 0025 0000 0025
0000 0025 0000 0025 0000 0025 0000 0025
0000 0025 0000 0025 0000 0025 0000 0025
0000 0025 0000 0025 0000 0025 0000 0025
0000 0025 0000 0025 0000 0025 0000 0025
0000 0025 0000 0025 0000 0025 0000 0025
0000 0025 0000 0025 0000 0025 0000 0025
0000 0025 0000 0025 0000 0025 0000 0025
0000 0025 0000 0025 0000 0025 0000 0025
0000 0025 0000 0025 0000 0025 0000 0025
0000 0025 0000 0025 0000 0025 0000 0025
0000 0025 0000 0025 0000 0025 0000 0025
0000 0025 0000 0025 0000 0025 0000 0025
0000 0025 0000 0025 0000 0025 0000 0025
0000 0025 0000 0025 0000 0025 0000 0025
0000 0025 0000 0025 0000 0025 0000 0025
0000 0025 0000 0025 0000 0025 0000 0025
0000 0025 0000 0025 0000 0025 0000 0025
0000 0025 0000 0025 0000 0025 0000 0025
0000 0025 0000 0025 0000 0025 0000 0025
0000 0025 0000 0025 0000 0025 0000 0025
0000 0025 0000 0025 0000 0025 0000 0025
0000 0025 0000 0025 0000 0025 0000 0025
0000 0025 0000 0025 0000 0025 0000 0025
0000 0025 0000 0025 0000 0025 0000 0025
0000 0025 0000 0025 0000 0025 0000 0025
0000 0025 0000 0025 0000 0025 0000 0025
0000 0025 0000 0025 0000 0025 0000 0025
0000 0025 0000 0025 0000 0025 0000 0025
0000 0025 0000 0025 0000 0025 0000 0025
0000 0025 0000 0025 0000 0025 0000 0025
0000 0025 0000 0025 0000 0025 0000 0025
0000 0025 0000 0025 0000 0025 0000 0025
0000 0025 0000 0025 0000 0025 0000 0025
0000 0025 0000 0025 0000 0025 0000 0025
0000 0025 0000 0025 0000 0025 0000 0025
0000 0025 0000 0025 0000 0025 0000 0025
0000 0025 0000 0025 0000 0025 0000 0025
0000 0025 0000 0025 0000 0025 0000 0025
0000 0025 0000 0025 0000 0025 0000 0025
0000 0025 0000 0025 0000 0025 0000 0025
0000 0025 0000 0025 0000 0025 0000 0025
0000 0025 0000 0025 0000 0025 0000 0025
0000 0025 0000 0025 0000 0025 0000 0025
0000 0025 0000 0025 0000 0025 0000 0025
0000 0025 0000 0025 0000 0025 0000 0025
0000 0025 0000 0025 0000 0025 0000 0025
0000 0025 0000 0025 0000 0025 0000 0025
0000 0025 0000 0025 0000 0025 0000 0025
0000 0025 0000 0025 0000 0025 0000 0025
0000 0025 0000 0025 0000 0025 0000 0025
0000 0025 0000 0025 0000 0025 0000 0025
0000 0025 0000 0025 0000 0025 0000 0025
0000 0025 0000 0025 0000 0025 0000 0025
0000 0025 0000 0025 0000 0025 0000 0025
0000 0025 0000 0025 0000 0025 0000 0025
0000 0025 0000 0025 0000 0025 0000 0025
0000 0025 0000 0025 0000 0025 0000 0025
0000 0025 0000 0025 0000 0025 0000 0025
0000 0025 0000 0025 0000 0025 0000 0025
0000 0025 0000 0025 0000 0025 0000 0025
0000 0025 0000 0025 0000 0025 0000 0025
0000 0025 0000 0025 0000 0025 0000 0025
0000 0025 0000 0025 0000 0025 0000 0025
0000 0025 0000 0025 0000 0025 0000 0025
0000 0025 0000 0025 0000 0025 0000 0025
0000 0025 0000 0025 0000 0025 0000 0025
0000 0025 0000 0025 0000 0025 0000 0025
0000 0025 0000 0025 0000 0025 0000 0025
0000 0025 0000 0025 0000 0025 0000 0025
0000 0025 0000 0025 0000 0025 0000 0025
0000 0025 0000 0025 0000 0025 0000 0025
0000 0025 0000 0025 0000 0025 0000 0025
0000 0025 0000 0025 0000 0025 0000 0025
0000 0025 0000 0025 0000 0025 0000 0025
0000 0025 0000 0025 0000 0025 0000 0025
0000 0025 0000 0025 0000 0025 0000 0025
0000 0025 0000 0025 0000 0025 0000 0025
0000 0025 0000 0025 0000 0025 0000 0025
0000 0025 0000 0025 0000 0025 0000 0025
0000 0025 0000 0025 0000 0025 0000 0025
0000 0025 0000 0025 0000 0025 0000 0025
0000 0025 0000 0025 0000 0025 0000 0025
0000 0025 0000 0025 0000 0025 0000 0025
0000 0025 0000 0025 0000 0025 0000 0025
0000 0025 0000 0025 0000 0025 0000 0025
0000 0025 0000 0025 0000 0025 0000 0025
0000 0025 0000 0025 0000 0025 0000 0025
0000 0025 0000 0025 0000 0025 0000 0025
0000 0025 0000 0025 0000 0025 0000 0025
0000 0025 0000 0025 0000 0025 0000 0025
0000 0025 0000 0025 0000 0025 0000 0025
0000 0025 0000 0025 0000 0025 0000 0025
0000 0025 0000 0025 0000 0025 0000 0025
0000 0025 0000 0025 0000 0025 0000 0025
0000 0025 0000 0025 0000 0025 0000 0025
0000 0025 0000 0025 0000 0025 0000 0025
0000 0025 0000 0025 0000 0025 0000 0025
0000 0025 0000 0025 0000 0025 0000 0025