0000 001b 0000 001b 0000 001b 0000 001b
0000 001b 0000 001b 0000 001b 0000 001b
0000 001b 0000 001b 0000 001b 0000 001b
0000 001b 0000 001b 0000 001b 0000 001b
0000 001b 0000 001b 0000 001b 0000 001b
0000 001b 0000 001b 0000 001b 0000 001b
0000 001b 0000 001b 0000 001b 0000 001b
0000 001b 0000 001b 0000 001b 0000 001b
0000 001b 0000 001b 0000 001b 0000 001b
0000 001b 0000 001b 0000 001b 0000 001b
0000 001b 0000 001b 0000 001b 0000 001b
0000 001b 0000 001b 0000 001b 0000 001b
0000 001b 0000 001b 0000 001b 0000 001b
0000 001b 0000 001b 0000 001b 0000 001b
0000 001b 0000 001b 0000 001b 0000 001b
0000 001b 0000 001b 0000 001b 0000 001b
0000 001b 0000 001b 0000 001b 0000 001b
0000 001b 0000 001b 0000 001b 0000 001b
0000 001b 0000 001b 0000 001b 0000 001b
0000 001b 0000 001b 0000 001b 0000 001b
0000 001b 0000 001b 0000 001b 0000 001b
0000 001b 0000 001b 0000 001b 0000 001b
0000 001b 0000 001b 0000 001b 0000 001b
0000 001b 0000 001b 0000 001b 0000 001b
0000 001b 0000 001b 0000 001b 0000 001b
0000 001b 0000 001b 0000 001b 0000 001b
0000 001b 0000 001b 0000 001b 0000 001b
0000 001b 0000 001b 0000 001b 0000 001b
0000 001b 0000 001b 0000 001b 0000 001b
0000 001b 0000 001b 0000 001b 0000 001b
0000 001b 0000 001b 0000 001b 0000 001b
0000 001b 0000 001b 0000 001b 0000 001b
0000 001b 0000 001b 0000 001b 0000 001b
0000 001b 0000 001b 0000 001b 0000 001b
0000 001b 0000 001b 0000 001b 0000 001b
0000 001b 0000 001b 0000 001b 0000 001b
0000 001b 0000 001b 0000 001b 0000 001b
0000 001b 0000 001b 0000 001b 0000 001b
0000 001b 0000 001b 0000 001b 0000 001b
0000 001b 0000 001b 0000 001b 0000 001b
0000 001b 0000 001b 0000 001b 0000 001b
0000 001b 0000 001b 0000 001b 0000 001b
0000 001b 0000 001b 0000 001b 0000 001b
0000 001b 0000 001b 0000 001b 0000 001b
0000 001b 0000 001b 0000 001b 0000 001b
0000 001b 0000 001b 0000 001b 0000 001b
0000 001b 0000 001b 0000 001b 0000 001b
0000 001b 0000 001b 0000 001b 0000 001b
0000 001b 0000 001b 0000 001b 0000 001b
0000 001b 0000 001b 0000 001b 0000 001b
0000 001b 0000 001b 0000 001b 0000 001b
0000 001b 0000 001b 0000 001b 0000 001b
0000 001b 0000 001b 0000 001b 0000 001b
0000 001b 0000 001b 0000 001b 0000 001b
0000 001b 0000 001b 0000 001b 0000 001b
0000 001b 0000 001b 0000 001b 0000 001b
0000 001b 0000 001b 0000 001b 0000 001b
0000 001b 0000 001b 0000 001b 0000 001b
0000 001b 0000 001b 0000 001b 0000 001b
0000 001b 0000 001b 0000 001b 0000 001b
0000 001b 0000 001b 0000 001b 0000 001b
0000 001b 0000 001b 0000 001b 0000 001b
0000 001b 0000 001b 0000 001b 0000 001b
0000 001b 0000 001b 0000 001b 0000 001b
0000 001b 0000 001b 0000 001b 0000 001b
0000 001b 0000 001b 0000 001b 0000 001b
0000 001b 0000 001b 0000 001b 0000 001b
0000 001b 0000 001b 0000 001b 0000 001b
0000 001b 0000 001b 0000 001b 0000 001b
0000 001b 0000 001b 0000 001b 0000 001b
0000 001b 0000 001b 0000 001b 0000 001b
0000 001b 0000 001b 0000 001b 0000 001b
0000 001b 0000 001b 0000 001b 0000 001b
0000 001b 0000 001b 0000 001b 0000 001b
0000 001b 0000 001b 0000 001b 0000 001b
0000 001b 0000 001b 0000 001b 0000 001b
0000 001b 0000 001b 0000 001b 0000 001b
0000 001b 0000 001b 0000 001b 0000 001b
0000 001b 0000 001b 0000 001b 0000 001b
0000 001b 0000 001b 0000 001b 0000 001b
0000 001b 0000 001b 0000 001b 0000 001b
0000 001b 0000 001b 0000 001b 0000 001b
0000 001b 0000 001b 0000 001b 0000 001b
0000 001b 0000 001b 0000 001b 0000 001b
0000 001b 0000 001b 0000 001b 0000 001b
0000 001b 0000 001b 0000 001b 0000 001b
0000 001b 0000 001b 0000 001b 0000 001b
0000 001b 0000 001b 0000 001b 0000 001b
0000 001b 0000 001b 0000 001b 0000 001b
0000 001b 0000 001b 0000 001b 0000 001b
0000 001b 0000 001b 0000 001b 0000 001b
0000 001b 0000 001b 0000 001b 0000 001b
0000 001b 0000 001b 0000 001b 0000 001b
0000 001b 0000 001b 0000 001b 0000 001b
0000 001b 0000 001b 0000 001b 0000 001b
0000 001b 0000 001b 0000 001b 0000 001b
0000 001b 0000 001b 0000 001b 0000 001b
0000 001b 0000 001b 0000 001b 0000 001b
0000 001b 0000 001b 0000 001b 0000 001b
0000 001b 0000 001b 0000 001b 0000 001b
0000 001b 0000 001b 0000 001b 0000 001b
0000 001b 0000 001b 0000 001b 0000 001b
0000 001b 0000 001b 0000 001b 0000 001b
0000 001b 0000 001b 0000 001b 0000 001b
0000 001b 0000 001b 0000 001b 0000 001b
0000 001b 0000 001b 0000 001b 0000 001b
0000 001b 0000 001b 0000 001b 0000 001b
0000 001b 0000 001b 0000 001b 0000 001b
0000 001b 0000 001b 0000 001b 0000 001b
0000 001b 0000 001b 0000 001b 0000 001b
0000 001b 0000 001b 0000 001b 0000 001b
0000 001b 0000 001b 0000 001b 0000 001b
0000 001b 0000 001b 0000 001b 0000 001b
0000 001b 0000 001b 0000 001b 0000 001b
0000 001b 0000 001b 0000 001b 0000 001b
0000 001b 0000 001b 0000 001b 0000 001b
0000 001b 0000 001b 0000 001b 0000 001b
0000 001b 0000 001b 0000 001b 0000 001b
0000 001b 0000 001b 0000 001b 0000 001b
0000 001b 0000 001b 0000 001b 0000 001b
0000 001b 0000 001b 0000 001b 0000 001b
0000 001b 0000 001b 0000 001b 0000 001b
0000 001b 0000 001b 0000 001b 0000 001b
0000 001b 0000 001b 0000 001b 0000 001b
0000 001b 0000 001b 0000 001b 0000 001b
0000 001b 0000 001b 0000 001b 0000 001b
0000 001b 0000 001b 0000 001b 0000 001b
0000 001b 0000 001b 0000 001b 0000 001b
0000 001b 0000 001b 0000 001b 0000 001b
0000 001b 0000 001b 0000 001b 0000 001b
0000 001b 0000 001b 0000 001b 0000 001b
0000 001b 0000 001b 0000 001b 0000 001b
0000 001b 0000 001b 0000 001b 0000 001b
0000 001b 0000 001b 0000 001b 0000 001b
0000 001b 0000 001b 0000 001b 0000 001b
0000 001b 0000 001b 0000 001b 0000 001b
0000 001b 0000 001b 0000 001b 0000 001b
0000 001b 0000 001b 0000 001b 0000 001b
0000 001b 0000 001b 0000 001b 0000 001b
0000 001b 0000 001b 0000 001b 0000 001b
0000 001b 0000 001b 0000 001b 0000 001b
0000 001b 0000 001b 0000 001b 0000 001b
0000 001b 0000 001b 0000 001b 0000 001b
0000 001b 0000 001b 0000 001b 0000 001b
0000 001b 0000 001b 0000 001b 0000 001b
0000 001b 0000 001b 0000 001b 0000 001b
0000 001b 0000 001b 0000 001b 0000 001b
0000 001b 0000 001b 0000 001b 0000 001b
0000 001b 0000 001b 0000 001b 0000 001b
0000 001b 0000 001b 0000 001b 0000 001b
0000 001b 0000 001b 0000 001b 0000 001b
0000 001b 0000 001b 0000 001b 0000 001b
0000 001b 0000 001b 0000 001b 0000 001b
0000 001b 0000 001b 0000 001b 0000 001b
0000 001b 0000 001b 0000 001b 0000 001b
0000 001b 0000 001b 0000 001b 0000 001b
0000 001b 0000 001b 0000 001b 0000 001b
0000 001b 0000 001b 0000 001b 0000 001b
0000 001b 0000 001b 0000 001b 0000 001b
0000 001b 0000 001b 0000 001b 0000 001b
0000 001b 0000 001b 0000 001b 0000 001b
0000 001b 0000 001b 0000 001b 0000 001b
0000 001b 0000 001b 0000 001b 0000 001b
0000 001b 0000 001b 0000 001b 0000 001b
0000 001b 0000 001b 0000 001b 0000 001b
0000 001b 0000 001b 0000 001b 0000 001b
0000 001b 0000 001b 0000 001b 0000 001b
0000 001b 0000 001b 0000 001b 0000 001b
0000 001b 0000 001b 0000 001b 0000 001b
0000 001b 0000 001b 0000 001b 0000 001b
0000 001b 0000 001b 0000 001b 0000 001b
0000 001b 0000 001b 0000 001b 0000 001b
0000 001b 0000 001b 0000 001b 0000 001b
0000 001b 0000 001b 0000 001b 0000 001b
0000 001b 0000 001b 0000 001b 0000 001b
0000 001b 0000 001b 0000 001b 0000 001b
0000 001b 0000 001b 0000 001b 0000 001b
0000 001b 0000 001b 0000 001b 0000 001b
0000 001b 0000 001b 0000 001b 0000 001b
0000 001b 0000 001b 0000 001b 0000 001b
0000 001b 0000 001b 0000 001b 0000 001b
0000 001b 0000 001b 0000 001b 0000 001b
0000 001b 0000 001b 0000 001b 0000 001b
0000 001b 0000 001b 0000 001b 0000 001b
0000 001b 0000 001b 0000 001b 0000 001b
0000 001b 0000 001b 0000 001b 0000 001b
0000 001b 0000 001b 0000 001b 0000 001b
0000 001b 0000 001b 0000 001b 0000 001b
0000 001b 0000 001b 0000 001b 0000 001b
0000 001b 0000 001b 0000 001b 0000 001b
0000 001b 0000 001b 0000 001b 0000 001b
0000 001b 0000 001b 0000 001b 0000 001b
0000 001b 0000 001b 0000 001b 0000 001b
0000 001b 0000 001b 0000 001b 0000 001b
0000 001b 0000 001b 0000 001b 0000 001b
0000 001b 0000 001b 0000 001b 0000 001b
0000 001b 0000 001b 0000 001b 0000 001b
0000 001b 0000 001b 0000 001b 0000 001b
0000 001b 0000 001b 0000 001b 0000 001b
0000 001b 0000 001b 0000 001b 0000 001b
0000 001b 0000 001b 0000 001b 0000 001b
0000 001b 0000 001b 0000 001b 0000 001b
0000 001b 0000 001b 0000 001b 0000 001b
0000 001b 0000 001b 0000 001b 0000 001b
0000 001b 0000 001b 0000 001b 0000 001b
0000 001b 0000 001b 0000 001b 0000 001b
0000 001b 0000 001b 0000 001b 0000 001b
0000 001b 0000 001b 0000 001b 0000 001b
0000 001b 0000 001b 0000 001b 0000 001b
0000 001b 0000 001b 0000 001b 0000 001b
0000 001b 0000 001b 0000 001b 0000 001b
0000 001b 0000 001b 0000 001b 0000 001b
0000 001b 0000 001b 0000 001b 0000 001b
0000 001b 0000 001b 0000 001b 0000 001b
0000 001b 0000 001b 0000 001b 0000 001b
0000 001b 0000 001b 0000 001b 0000 001b
0000 001b 0000 001b 0000 001b 0000 001b
0000 001b 0000 001b 0000 001b 0000 001b
0000 001b 0000 001b 0000 001b 0000 001b
0000 001b 0000 001b 0000 001b 0000 001b
0000 001b 0000 001b 0000 001b 0000 001b
0000 001b 0000 001b 0000 001b 0000 001b
0000 001b 0000 001b 0000 001b 0000 001b
0000 001b 0000 001b 0000 001b 0000 001b
0000 001b 0000 001b 0000 001b 0000 001b
0000 001b 0000 001b 0000 001b 0000 001b
0000 001b 0000 001b 0000 001b 0000 001b
0000 001b 0000 001b 0000 001b 0000 001b
0000 001b 0000 001b 0000 001b 0000 001b
0000 001b 0000 001b 0000 001b 0000 001b
0000 001b 0000 001b 0000 001b 0000 001b
0000 001b 0000 001b 0000 001b 0000 001b
0000 001b 0000 001b 0000 001b 0000 001b
0000 001b 0000 001b 0000 001b 0000 001b
0000 001b 0000 001b 0000 001b 0000 001b
0000 001b 0000 001b 0000 001b 0000 001b
0000 001b 0000 001b 0000 001b 0000 001b
0000 001b 0000 001b 0000 001b 0000 001b
0000 001b 0000 001b 0000 001b 0000 001b
0000 001b 0000 001b 0000 001b 0000 001b
0000 001b 0000 001b 0000 001b 0000 001b
0000 001b 0000 001b 0000 001b 0000 001b
0000 001b 0000 001b 0000 001b 0000 001b
0000 001b 0000 001b 0000 001b 0000 001b
0000 001b 0000 001b 0000 001b 0000 001b
0000 001b 0000 001b 0000 001b 0000 001b
0000 001b 0000 001b 0000 001b 0000 001b
0000 001b 0000 001b 0000 001b 0000 001b
0000 001b 0000 001b 0000 001b 0000 001b
0000 001b 0000 001b 0000 001b 0000 001b
0000 001b 0000 001b 0000 001b 0000 001b
0000 001b 0000 001b 0000 001b 0000 001b
0000 001b 0000 001b 0000 001b 0000 001b
0000 001b 0000 001b 0000 001b 0000 001b
0000 001b 0000 001b 0000 001b 0000 001b
0000 001b 0000 001b 0000 001b 0000 001b