0000 0019 0000 0019 0000 0019 0000 0019
0000 0019 0000 0019 0000 0019 0000 0019
0000 0019 0000 0019 0000 0019 0000 0019
0000 0019 0000 0019 0000 0019 0000 0019
0000 0019 0000 0019 0000 0019 0000 0019
0000 0019 0000 0019 0000 0019 0000 0019
0000 0019 0000 0019 0000 0019 0000 0019
0000 0019 0000 0019 0000 0019 0000 0019
0000 0019 0000 0019 0000 0019 0000 0019
0000 0019 0000 0019 0000 0019 0000 0019
0000 0019 0000 0019 0000 0019 0000 0019
0000 0019 0000 0019 0000 0019 0000 0019
0000 0019 0000 0019 0000 0019 0000 0019
0000 0019 0000 0019 0000 0019 0000 0019
0000 0019 0000 0019 0000 0019 0000 0019
0000 0019 0000 0019 0000 0019 0000 0019
0000 0019 0000 0019 0000 0019 0000 0019
0000 0019 0000 0019 0000 0019 0000 0019
0000 0019 0000 0019 0000 0019 0000 0019
0000 0019 0000 0019 0000 0019 0000 0019
0000 0019 0000 0019 0000 0019 0000 0019
0000 0019 0000 0019 0000 0019 0000 0019
0000 0019 0000 0019 0000 0019 0000 0019
0000 0019 0000 0019 0000 0019 0000 0019
0000 0019 0000 0019 0000 0019 0000 0019
0000 0019 0000 0019 0000 0019 0000 0019
0000 0019 0000 0019 0000 0019 0000 0019
0000 0019 0000 0019 0000 0019 0000 0019
0000 0019 0000 0019 0000 0019 0000 0019
0000 0019 0000 0019 0000 0019 0000 0019
0000 0019 0000 0019 0000 0019 0000 0019
0000 0019 0000 0019 0000 0019 0000 0019
0000 0019 0000 0019 0000 0019 0000 0019
0000 0019 0000 0019 0000 0019 0000 0019
0000 0019 0000 0019 0000 0019 0000 0019
0000 0019 0000 0019 0000 0019 0000 0019
0000 0019 0000 0019 0000 0019 0000 0019
0000 0019 0000 0019 0000 0019 0000 0019
0000 0019 0000 0019 0000 0019 0000 0019
0000 0019 0000 0019 0000 0019 0000 0019
0000 0019 0000 0019 0000 0019 0000 0019
0000 0019 0000 0019 0000 0019 0000 0019
0000 0019 0000 0019 0000 0019 0000 0019
0000 0019 0000 0019 0000 0019 0000 0019
0000 0019 0000 0019 0000 0019 0000 0019
0000 0019 0000 0019 0000 0019 0000 0019
0000 0019 0000 0019 0000 0019 0000 0019
0000 0019 0000 0019 0000 0019 0000 0019
0000 0019 0000 0019 0000 0019 0000 0019
0000 0019 0000 0019 0000 0019 0000 0019
0000 0019 0000 0019 0000 0019 0000 0019
0000 0019 0000 0019 0000 0019 0000 0019
0000 0019 0000 0019 0000 0019 0000 0019
0000 0019 0000 0019 0000 0019 0000 0019
0000 0019 0000 0019 0000 0019 0000 0019
0000 0019 0000 0019 0000 0019 0000 0019
0000 0019 0000 0019 0000 0019 0000 0019
0000 0019 0000 0019 0000 0019 0000 0019
0000 0019 0000 0019 0000 0019 0000 0019
0000 0019 0000 0019 0000 0019 0000 0019
0000 0019 0000 0019 0000 0019 0000 0019
0000 0019 0000 0019 0000 0019 0000 0019
0000 0019 0000 0019 0000 0019 0000 0019
0000 0019 0000 0019 0000 0019 0000 0019
0000 0019 0000 0019 0000 0019 0000 0019
0000 0019 0000 0019 0000 0019 0000 0019
0000 0019 0000 0019 0000 0019 0000 0019
0000 0019 0000 0019 0000 0019 0000 0019
0000 0019 0000 0019 0000 0019 0000 0019
0000 0019 0000 0019 0000 0019 0000 0019
0000 0019 0000 0019 0000 0019 0000 0019
0000 0019 0000 0019 0000 0019 0000 0019
0000 0019 0000 0019 0000 0019 0000 0019
0000 0019 0000 0019 0000 0019 0000 0019
0000 0019 0000 0019 0000 0019 0000 0019
0000 0019 0000 0019 0000 0019 0000 0019
0000 0019 0000 0019 0000 0019 0000 0019
0000 0019 0000 0019 0000 0019 0000 0019
0000 0019 0000 0019 0000 0019 0000 0019
0000 0019 0000 0019 0000 0019 0000 0019
0000 0019 0000 0019 0000 0019 0000 0019
0000 0019 0000 0019 0000 0019 0000 0019
0000 0019 0000 0019 0000 0019 0000 0019
0000 0019 0000 0019 0000 0019 0000 0019
0000 0019 0000 0019 0000 0019 0000 0019
0000 0019 0000 0019 0000 0019 0000 0019
0000 0019 0000 0019 0000 0019 0000 0019
0000 0019 0000 0019 0000 0019 0000 0019
0000 0019 0000 0019 0000 0019 0000 0019
0000 0019 0000 0019 0000 0019 0000 0019
0000 0019 0000 0019 0000 0019 0000 0019
0000 0019 0000 0019 0000 0019 0000 0019
0000 0019 0000 0019 0000 0019 0000 0019
0000 0019 0000 0019 0000 0019 0000 0019
0000 0019 0000 0019 0000 0019 0000 0019
0000 0019 0000 0019 0000 0019 0000 0019
0000 0019 0000 0019 0000 0019 0000 0019
0000 0019 0000 0019 0000 0019 0000 0019
0000 0019 0000 0019 0000 0019 0000 0019
0000 0019 0000 0019 0000 0019 0000 0019
0000 0019 0000 0019 0000 0019 0000 0019
0000 0019 0000 0019 0000 0019 0000 0019
0000 0019 0000 0019 0000 0019 0000 0019
0000 0019 0000 0019 0000 0019 0000 0019
0000 0019 0000 0019 0000 0019 0000 0019
0000 0019 0000 0019 0000 0019 0000 0019
0000 0019 0000 0019 0000 0019 0000 0019
0000 0019 0000 0019 0000 0019 0000 0019
0000 0019 0000 0019 0000 0019 0000 0019
0000 0019 0000 0019 0000 0019 0000 0019
0000 0019 0000 0019 0000 0019 0000 0019
0000 0019 0000 0019 0000 0019 0000 0019
0000 0019 0000 0019 0000 0019 0000 0019
0000 0019 0000 0019 0000 0019 0000 0019
0000 0019 0000 0019 0000 0019 0000 0019
0000 0019 0000 0019 0000 0019 0000 0019
0000 0019 0000 0019 0000 0019 0000 0019
0000 0019 0000 0019 0000 0019 0000 0019
0000 0019 0000 0019 0000 0019 0000 0019
0000 0019 0000 0019 0000 0019 0000 0019
0000 0019 0000 0019 0000 0019 0000 0019
0000 0019 0000 0019 0000 0019 0000 0019
0000 0019 0000 0019 0000 0019 0000 0019
0000 0019 0000 0019 0000 0019 0000 0019
0000 0019 0000 0019 0000 0019 0000 0019
0000 0019 0000 0019 0000 0019 0000 0019
0000 0019 0000 0019 0000 0019 0000 0019
0000 0019 0000 0019 0000 0019 0000 0019
0000 0019 0000 0019 0000 0019 0000 0019
0000 0019 0000 0019 0000 0019 0000 0019
0000 0019 0000 0019 0000 0019 0000 0019
0000 0019 0000 0019 0000 0019 0000 0019
0000 0019 0000 0019 0000 0019 0000 0019
0000 0019 0000 0019 0000 0019 0000 0019
0000 0019 0000 0019 0000 0019 0000 0019
0000 0019 0000 0019 0000 0019 0000 0019
0000 0019 0000 0019 0000 0019 0000 0019
0000 0019 0000 0019 0000 0019 0000 0019
0000 0019 0000 0019 0000 0019 0000 0019
0000 0019 0000 0019 0000 0019 0000 0019
0000 0019 0000 0019 0000 0019 0000 0019
0000 0019 0000 0019 0000 0019 0000 0019
0000 0019 0000 0019 0000 0019 0000 0019
0000 0019 0000 0019 0000 0019 0000 0019
0000 0019 0000 0019 0000 0019 0000 0019
0000 0019 0000 0019 0000 0019 0000 0019
0000 0019 0000 0019 0000 0019 0000 0019
0000 0019 0000 0019 0000 0019 0000 0019
0000 0019 0000 0019 0000 0019 0000 0019
0000 0019 0000 0019 0000 0019 0000 0019
0000 0019 0000 0019 0000 0019 0000 0019
0000 0019 0000 0019 0000 0019 0000 0019
0000 0019 0000 0019 0000 0019 0000 0019
0000 0019 0000 0019 0000 0019 0000 0019
0000 0019 0000 0019 0000 0019 0000 0019
0000 0019 0000 0019 0000 0019 0000 0019
0000 0019 0000 0019 0000 0019 0000 0019
0000 0019 0000 0019 0000 0019 0000 0019
0000 0019 0000 0019 0000 0019 0000 0019
0000 0019 0000 0019 0000 0019 0000 0019
0000 0019 0000 0019 0000 0019 0000 0019
0000 0019 0000 0019 0000 0019 0000 0019
0000 0019 0000 0019 0000 0019 0000 0019
0000 0019 0000 0019 0000 0019 0000 0019
0000 0019 0000 0019 0000 0019 0000 0019
0000 0019 0000 0019 0000 0019 0000 0019
0000 0019 0000 0019 0000 0019 0000 0019
0000 0019 0000 0019 0000 0019 0000 0019
0000 0019 0000 0019 0000 0019 0000 0019
0000 0019 0000 0019 0000 0019 0000 0019
0000 0019 0000 0019 0000 0019 0000 0019
0000 0019 0000 0019 0000 0019 0000 0019
0000 0019 0000 0019 0000 0019 0000 0019
0000 0019 0000 0019 0000 0019 0000 0019
0000 0019 0000 0019 0000 0019 0000 0019
0000 0019 0000 0019 0000 0019 0000 0019
0000 0019 0000 0019 0000 0019 0000 0019
0000 0019 0000 0019 0000 0019 0000 0019
0000 0019 0000 0019 0000 0019 0000 0019
0000 0019 0000 0019 0000 0019 0000 0019
0000 0019 0000 0019 0000 0019 0000 0019
0000 0019 0000 0019 0000 0019 0000 0019
0000 0019 0000 0019 0000 0019 0000 0019
0000 0019 0000 0019 0000 0019 0000 0019
0000 0019 0000 0019 0000 0019 0000 0019
0000 0019 0000 0019 0000 0019 0000 0019
0000 0019 0000 0019 0000 0019 0000 0019
0000 0019 0000 0019 0000 0019 0000 0019
0000 0019 0000 0019 0000 0019 0000 0019
0000 0019 0000 0019 0000 0019 0000 0019
0000 0019 0000 0019 0000 0019 0000 0019
0000 0019 0000 0019 0000 0019 0000 0019
0000 0019 0000 0019 0000 0019 0000 0019
0000 0019 0000 0019 0000 0019 0000 0019
0000 0019 0000 0019 0000 0019 0000 0019
0000 0019 0000 0019 0000 0019 0000 0019
0000 0019 0000 0019 0000 0019 0000 0019
0000 0019 0000 0019 0000 0019 0000 0019
0000 0019 0000 0019 0000 0019 0000 0019
0000 0019 0000 0019 0000 0019 0000 0019
0000 0019 0000 0019 0000 0019 0000 0019
0000 0019 0000 0019 0000 0019 0000 0019
0000 0019 0000 0019 0000 0019 0000 0019
0000 0019 0000 0019 0000 0019 0000 0019
0000 0019 0000 0019 0000 0019 0000 0019
0000 0019 0000 0019 0000 0019 0000 0019
0000 0019 0000 0019 0000 0019 0000 0019
0000 0019 0000 0019 0000 0019 0000 0019
0000 0019 0000 0019 0000 0019 0000 0019
0000 0019 0000 0019 0000 0019 0000 0019
0000 0019 0000 0019 0000 0019 0000 0019
0000 0019 0000 0019 0000 0019 0000 0019
0000 0019 0000 0019 0000 0019 0000 0019
0000 0019 0000 0019 0000 0019 0000 0019
0000 0019 0000 0019 0000 0019 0000 0019
0000 0019 0000 0019 0000 0019 0000 0019
0000 0019 0000 0019 0000 0019 0000 0019
0000 0019 0000 0019 0000 0019 0000 0019
0000 0019 0000 0019 0000 0019 0000 0019
0000 0019 0000 0019 0000 0019 0000 0019
0000 0019 0000 0019 0000 0019 0000 0019
0000 0019 0000 0019 0000 0019 0000 0019
0000 0019 0000 0019 0000 0019 0000 0019
0000 0019 0000 0019 0000 0019 0000 0019
0000 0019 0000 0019 0000 0019 0000 0019
0000 0019 0000 0019 0000 0019 0000 0019
0000 0019 0000 0019 0000 0019 0000 0019
0000 0019 0000 0019 0000 0019 0000 0019
0000 0019 0000 0019 0000 0019 0000 0019
0000 0019 0000 0019 0000 0019 0000 0019
0000 0019 0000 0019 0000 0019 0000 0019
0000 0019 0000 0019 0000 0019 0000 0019
0000 0019 0000 0019 0000 0019 0000 0019
0000 0019 0000 0019 0000 0019 0000 0019
0000 0019 0000 0019 0000 0019 0000 0019
0000 0019 0000 0019 0000 0019 0000 0019
0000 0019 0000 0019 0000 0019 0000 0019
0000 0019 0000 0019 0000 0019 0000 0019
0000 0019 0000 0019 0000 0019 0000 0019
0000 0019 0000 0019 0000 0019 0000 0019
0000 0019 0000 0019 0000 0019 0000 0019
0000 0019 0000 0019 0000 0019 0000 0019
0000 0019 0000 0019 0000 0019 0000 0019
0000 0019 0000 0019 0000 0019 0000 0019
0000 0019 0000 0019 0000 0019 0000 0019
0000 0019 0000 0019 0000 0019 0000 0019
0000 0019 0000 0019 0000 0019 0000 0019
0000 0019 0000 0019 0000 0019 0000 0019
0000 0019 0000 0019 0000 0019 0000 0019
0000 0019 0000 0019 0000 0019 0000 0019
0000 0019 0000 0019 0000 0019 0000 0019
0000 0019 0000 0019 0000 0019 0000 0019
0000 0019 0000 0019 0000 0019 0000 0019
0000 0019 0000 0019 0000 0019 0000 0019
0000 0019 0000 0019 0000 0019 0000 0019
0000 0019 0000 0019 0000 0019 0000 0019