0000 0031 0000 0031 0000 0031 0000 0031
0000 0031 0000 0031 0000 0031 0000 0031
0000 0031 0000 0031 0000 0031 0000 0031
0000 0031 0000 0031 0000 0031 0000 0031
0000 0031 0000 0031 0000 0031 0000 0031
0000 0000 0000 0000 0000 0000 0000 0000
0000 0000 0000 0000 0000 0000 0000 0000
0000 0000 0000 0000 0000 0000 0000 0000
0000 0031 0000 0031 0000 0031 0000 0031
0000 0031 0000 0031 0000 0031 0000 0031
0000 0031 0000 0031 0000 0031 0000 0031
0000 0031 0000 0031 0000 0031 0000 0031
0000 0031 0000 0031 0000 0031 0000 0031
0000 0000 0000 0000 0000 0000 0000 0000
0000 0000 0000 0000 0000 0000 0000 0000
0000 0000 0000 0000 0000 0000 0000 0000
0000 0031 0000 0031 0000 0031 0000 0031
0000 0031 0000 0031 0000 0031 0000 0031
0000 0031 0000 0031 0000 0031 0000 0031
0000 0031 0000 0031 0000 0031 0000 0031
0000 0031 0000 0031 0000 0031 0000 0031
0000 0000 0000 0000 0000 0000 0000 0000
0000 0000 0000 0000 0000 0000 0000 0000
0000 0000 0000 0000 0000 0000 0000 0000
0000 0031 0000 0031 0000 0031 0000 0031
0000 0031 0000 0031 0000 0031 0000 0031
0000 0031 0000 0031 0000 0031 0000 0031
0000 0031 0000 0031 0000 0031 0000 0031
0000 0031 0000 0031 0000 0031 0000 0031
0000 0000 0000 0000 0000 0000 0000 0000
0000 0000 0000 0000 0000 0000 0000 0000
0000 0000 0000 0000 0000 0000 0000 0000
0000 0031 0000 0031 0000 0031 0000 0031
0000 0031 0000 0031 0000 0031 0000 0031
0000 0031 0000 0031 0000 0031 0000 0031
0000 0031 0000 0031 0000 0031 0000 0031
0000 0031 0000 0031 0000 0031 0000 0031
0000 0000 0000 0000 0000 0000 0000 0000
0000 0000 0000 0000 0000 0000 0000 0000
0000 0000 0000 0000 0000 0000 0000 0000
0000 0031 0000 0031 0000 0031 0000 0031
0000 0031 0000 0031 0000 0031 0000 0031
0000 0031 0000 0031 0000 0031 0000 0031
0000 0031 0000 0031 0000 0031 0000 0031
0000 0031 0000 0031 0000 0031 0000 0031
0000 0000 0000 0000 0000 0000 0000 0000
0000 0000 0000 0000 0000 0000 0000 0000
0000 0000 0000 0000 0000 0000 0000 0000
0000 0031 0000 0031 0000 0031 0000 0031
0000 0031 0000 0031 0000 0031 0000 0031
0000 0031 0000 0031 0000 0031 0000 0031
0000 0031 0000 0031 0000 0031 0000 0031
0000 0031 0000 0031 0000 0031 0000 0031
0000 0000 0000 0000 0000 0000 0000 0000
0000 0000 0000 0000 0000 0000 0000 0000
0000 0000 0000 0000 0000 0000 0000 0000
0000 0031 0000 0031 0000 0031 0000 0031
0000 0031 0000 0031 0000 0031 0000 0031
0000 0031 0000 0031 0000 0031 0000 0031
0000 0031 0000 0031 0000 0031 0000 0031
0000 0031 0000 0031 0000 0031 0000 0031
0000 0000 0000 0000 0000 0000 0000 0000
0000 0000 0000 0000 0000 0000 0000 0000
0000 0000 0000 0000 0000 0000 0000 0000
0000 0031 0000 0031 0000 0031 0000 0031
0000 0031 0000 0031 0000 0031 0000 0031
0000 0031 0000 0031 0000 0031 0000 0031
0000 0031 0000 0031 0000 0031 0000 0031
0000 0031 0000 0031 0000 0031 0000 0031
0000 0000 0000 0000 0000 0000 0000 0000
0000 0000 0000 0000 0000 0000 0000 0000
0000 0000 0000 0000 0000 0000 0000 0000
0000 0031 0000 0031 0000 0031 0000 0031
0000 0031 0000 0031 0000 0031 0000 0031
0000 0031 0000 0031 0000 0031 0000 0031
0000 0031 0000 0031 0000 0031 0000 0031
0000 0031 0000 0031 0000 0031 0000 0031
0000 0000 0000 0000 0000 0000 0000 0000
0000 0000 0000 0000 0000 0000 0000 0000
0000 0000 0000 0000 0000 0000 0000 0000
0000 0031 0000 0031 0000 0031 0000 0031
0000 0031 0000 0031 0000 0031 0000 0031
0000 0031 0000 0031 0000 0031 0000 0031
0000 0031 0000 0031 0000 0031 0000 0031
0000 0031 0000 0031 0000 0031 0000 0031
0000 0000 0000 0000 0000 0000 0000 0000
0000 0000 0000 0000 0000 0000 0000 0000
0000 0000 0000 0000 0000 0000 0000 0000
0000 0031 0000 0031 0000 0031 0000 0031
0000 0031 0000 0031 0000 0031 0000 0031
0000 0031 0000 0031 0000 0031 0000 0031
0000 0031 0000 0031 0000 0031 0000 0031
0000 0031 0000 0031 0000 0031 0000 0031
0000 0000 0000 0000 0000 0000 0000 0000
0000 0000 0000 0000 0000 0000 0000 0000
0000 0000 0000 0000 0000 0000 0000 0000
0000 0031 0000 0031 0000 0031 0000 0031
0000 0031 0000 0031 0000 0031 0000 0031
0000 0031 0000 0031 0000 0031 0000 0031
0000 0031 0000 0031 0000 0031 0000 0031
0000 0031 0000 0031 0000 0031 0000 0031
0000 0000 0000 0000 0000 0000 0000 0000
0000 0000 0000 0000 0000 0000 0000 0000
0000 0000 0000 0000 0000 0000 0000 0000
0000 0031 0000 0031 0000 0031 0000 0031
0000 0031 0000 0031 0000 0031 0000 0031
0000 0031 0000 0031 0000 0031 0000 0031
0000 0031 0000 0031 0000 0031 0000 0031
0000 0031 0000 0031 0000 0031 0000 0000
0000 0000 0000 0000 0000 0000 0000 0000
0000 0000 0000 0000 0000 0000 0000 0000
0000 0000 0000 0000 0000 0000 0000 0000
0000 0031 0000 0031 0000 0031 0000 0031
0000 0031 0000 0031 0000 0031 0000 0031
0000 0031 0000 0031 0000 0031 0000 0031
0000 0031 0000 0031 0000 0031 0000 0031
0000 0031 0000 0031 0000 0000 0000 0000
0000 0000 0000 0000 0000 0000 0000 0000
0000 0000 0000 0000 0000 0000 0000 0000
0000 0000 0000 0000 0000 0000 0000 0000
0000 0031 0000 0031 0000 0031 0000 0031
0000 0031 0000 0031 0000 0031 0000 0031
0000 0031 0000 0031 0000 0031 0000 0031
0000 0031 0000 0031 0000 0031 0000 0031
0000 0031 0000 0000 0000 0000 0000 0000
0000 0000 0000 0000 0000 0000 0000 0000
0000 0000 0000 0000 0000 0000 0000 0000
0000 0000 0000 0000 0000 0000 0000 0000
0000 0031 0000 0031 0000 0031 0000 0031
0000 0031 0000 0031 0000 0031 0000 0031
0000 0031 0000 0031 0000 0031 0000 0031
0000 0031 0000 0031 0000 0031 0000 0031
0000 0000 0000 0000 0000 0000 0000 0000
0000 0000 0000 0000 0000 0000 0000 0000
0000 0000 0000 0000 0000 0000 0000 0000
0000 0000 0000 0000 0000 0000 0000 0000
0000 0031 0000 0031 0000 0031 0000 0031
0000 0031 0000 0031 0000 0031 0000 0031
0000 0031 0000 0031 0000 0031 0000 0031
0000 0031 0000 0031 0000 0031 0000 0000
0000 0000 0000 0000 0000 0000 0000 0000
0000 0000 0000 0000 0000 0000 0000 0000
0000 0000 0000 0000 0000 0000 0000 0000
0000 0000 0000 0000 0000 0000 0000 0000
0000 0031 0000 0031 0000 0031 0000 0031
0000 0031 0000 0031 0000 0031 0000 0031
0000 0031 0000 0031 0000 0031 0000 0031
0000 0031 0000 0031 0000 0000 0000 0000
0000 0000 0000 0000 0000 0000 0000 0000
0000 0000 0000 0000 0000 0000 0000 0000
0000 0000 0000 0000 0000 0000 0000 0000
0000 0000 0000 0000 0000 0000 0000 0000
0000 0031 0000 0031 0000 0031 0000 0031
0000 0031 0000 0031 0000 0031 0000 0031
0000 0031 0000 0031 0000 0031 0000 0031
0000 0031 0000 0000 0000 0000 0000 0000
0000 0000 0000 0000 0000 0000 0000 0000
0000 0000 0000 0000 0000 0000 0000 0000
0000 0000 0000 0000 0000 0000 0000 0000
0000 0000 0000 0000 0000 0000 0000 0000
0000 0031 0000 0031 0000 0031 0000 0031
0000 0031 0000 0031 0000 0031 0000 0031
0000 0031 0000 0031 0000 0031 0000 0031
0000 0000 0000 0000 0000 0000 0000 0000
0000 0000 0000 0000 0000 0000 0000 0000
0000 0000 0000 0000 0000 0000 0000 0000
0000 0000 0000 0000 0000 0000 0000 0000
0000 0000 0000 0000 0000 0000 0000 0000
0000 0031 0000 0031 0000 0031 0000 0031
0000 0031 0000 0031 0000 0031 0000 0031
0000 0031 0000 0031 0000 0031 0000 0000
0000 0000 0000 0000 0000 0000 0000 0000
0000 0000 0000 0000 0000 0000 0000 0000
0000 0000 0000 0000 0000 0000 0000 0000
0000 0000 0000 0000 0000 0000 0000 0000
0000 0000 0000 0000 0000 0000 0000 0000
0000 0000 0000 0000 0000 0000 0000 0000
0000 0000 0000 0000 0000 0000 0000 0000
0000 0000 0000 0000 0000 0031 0000 0031
0000 0031 0000 0031 0000 0031 0000 0031
0000 0031 0000 0031 0000 0031 0000 0031
0000 0000 0000 0000 0000 0000 0000 0000
0000 0000 0000 0000 0000 0000 0000 0000
0000 0000 0000 0000 0000 0000 0000 0000
0000 0000 0000 0000 0000 0000 0000 0000
0000 0000 0000 0000 0000 0000 0000 0000
0000 0000 0000 0031 0000 0031 0000 0031
0000 0031 0000 0031 0000 0031 0000 0031
0000 0031 0000 0031 0000 0031 0000 0031
0000 0000 0000 0000 0000 0000 0000 0000
0000 0000 0000 0000 0000 0000 0000 0000
0000 0000 0000 0000 0000 0000 0000 0000
0000 0000 0000 0000 0000 0000 0000 0000
0000 0000 0000 0000 0000 0000 0000 0000
0000 0031 0000 0031 0000 0031 0000 0031
0000 0031 0000 0031 0000 0031 0000 0031
0000 0031 0000 0031 0000 0031 0000 0031
0000 0000 0000 0000 0000 0000 0000 0000
0000 0000 0000 0000 0000 0000 0000 0000
0000 0000 0000 0000 0000 0000 0000 0000
0000 0000 0000 0000 0000 0000 0000 0000
0000 0000 0000 0000 0000 0000 0000 0031
0000 0031 0000 0031 0000 0031 0000 0031
0000 0031 0000 0031 0000 0031 0000 0031
0000 0031 0000 0031 0000 0031 0000 0031
0000 0000 0000 0000 0000 0000 0000 0000
0000 0000 0000 0000 0000 0000 0000 0000
0000 0000 0000 0000 0000 0000 0000 0000
0000 0000 0000 0000 0000 0000 0000 0000
0000 0000 0000 0000 0000 0031 0000 0031
0000 0031 0000 0031 0000 0031 0000 0031
0000 0031 0000 0031 0000 0031 0000 0031
0000 0031 0000 0031 0000 0031 0000 0031
0000 0000 0000 0000 0000 0000 0000 0000
0000 0000 0000 0000 0000 0000 0000 0000
0000 0000 0000 0000 0000 0000 0000 0000
0000 0000 0000 0000 0000 0000 0000 0000
0000 0000 0000 0031 0000 0031 0000 0031
0000 0031 0000 0031 0000 0031 0000 0031
0000 0031 0000 0031 0000 0031 0000 0031
0000 0031 0000 0031 0000 0031 0000 0031
0000 0000 0000 0000 0000 0000 0000 0000
0000 0000 0000 0000 0000 0000 0000 0000
0000 0000 0000 0000 0000 0000 0000 0000
0000 0000 0000 0000 0000 0000 0000 0000
0000 0031 0000 0031 0000 0031 0000 0031
0000 0031 0000 0031 0000 0031 0000 0031
0000 0031 0000 0031 0000 0031 0000 0031
0000 0031 0000 0031 0000 0031 0000 0031
0000 0000 0000 0000 0000 0000 0000 0000
0000 0000 0000 0000 0000 0000 0000 0000
0000 0000 0000 0000 0000 0000 0000 0000
0000 0000 0000 0000 0000 0000 0000 0031
0000 0031 0000 0031 0000 0031 0000 0031
0000 0031 0000 0031 0000 0031 0000 0031
0000 0031 0000 0031 0000 0031 0000 0031
0000 0031 0000 0031 0000 0031 0000 0031
0000 0000 0000 0000 0000 0000 0000 0000
0000 0000 0000 0000 0000 0000 0000 0000
0000 0000 0000 0000 0000 0000 0000 0000
0000 0000 0000 0000 0000 0031 0000 0031
0000 0031 0000 0031 0000 0031 0000 0031
0000 0031 0000 0031 0000 0031 0000 0031
0000 0031 0000 0031 0000 0031 0000 0031
0000 0031 0000 0031 0000 0031 0000 0031
0000 0000 0000 0000 0000 0000 0000 0000
0000 0000 0000 0000 0000 0000 0000 0000
0000 0000 0000 0000 0000 0000 0000 0000
0000 0000 0000 0031 0000 0031 0000 0031
0000 0031 0000 0031 0000 0031 0000 0031
0000 0031 0000 0031 0000 0031 0000 0031
0000 0031 0000 0031 0000 0031 0000 0031
0000 0031 0000 0031 0000 0031 0000 0031
0000 0000 0000 0000 0000 0000 0000 0000
0000 0000 0000 0000 0000 0000 0000 0000
0000 0000 0000 0000 0000 0000 0000 0000