0000 0028 0000 0028 0000 0028 0000 0028
0000 0028 0000 0028 0000 0028 0000 0028
0000 0028 0000 0028 0000 0028 0000 0028
0000 0028 0000 0028 0000 0028 0000 0028
0000 0028 0000 0028 0000 0028 0000 0028
0000 0028 0000 0028 0000 0028 0000 0028
0000 0028 0000 0028 0000 0028 0000 0028
0000 0028 0000 0028 0000 0028 0000 0028
0000 0028 0000 0028 0000 0028 0000 0028
0000 0028 0000 0028 0000 0028 0000 0028
0000 0028 0000 0028 0000 0028 0000 0028
0000 0028 0000 0028 0000 0028 0000 0028
0000 0028 0000 0028 0000 0028 0000 0028
0000 0028 0000 0028 0000 0028 0000 0028
0000 0028 0000 0028 0000 0028 0000 0028
0000 0028 0000 0028 0000 0028 0000 0028
0000 0028 0000 0028 0000 0028 0000 0028
0000 0028 0000 0028 0000 0028 0000 0028
0000 0028 0000 0028 0000 0028 0000 0028
0000 0028 0000 0028 0000 0028 0000 0028
0000 0028 0000 0028 0000 0028 0000 0028
0000 0028 0000 0028 0000 0028 0000 0028
0000 0028 0000 0028 0000 0028 0000 0028
0000 0028 0000 0028 0000 0028 0000 0028
0000 0028 0000 0028 0000 0028 0000 0028
0000 0028 0000 0028 0000 0028 0000 0028
0000 0028 0000 0028 0000 0028 0000 0028
0000 0028 0000 0028 0000 0028 0000 0028
0000 0028 0000 0028 0000 0028 0000 0028
0000 0028 0000 0028 0000 0028 0000 0028
0000 0028 0000 0028 0000 0028 0000 0028
0000 0028 0000 0028 0000 0028 0000 0028
0000 0028 0000 0028 0000 0028 0000 0028
0000 0028 0000 0028 0000 0028 0000 0028
0000 0028 0000 0028 0000 0028 0000 0028
0000 0028 0000 0028 0000 0028 0000 0028
0000 0028 0000 0028 0000 0028 0000 0028
0000 0028 0000 0028 0000 0028 0000 0028
0000 0028 0000 0028 0000 0028 0000 0028
0000 0028 0000 0028 0000 0028 0000 0028
0000 0028 0000 0028 0000 0028 0000 0028
0000 0028 0000 0028 0000 0028 0000 0028
0000 0028 0000 0028 0000 0028 0000 0028
0000 0028 0000 0028 0000 0028 0000 0028
0000 0028 0000 0028 0000 0028 0000 0028
0000 0028 0000 0028 0000 0028 0000 0028
0000 0028 0000 0028 0000 0028 0000 0028
0000 0028 0000 0028 0000 0028 0000 0028
0000 0028 0000 0028 0000 0028 0000 0028
0000 0028 0000 0028 0000 0028 0000 0028
0000 0028 0000 0028 0000 0028 0000 0028
0000 0028 0000 0028 0000 0028 0000 0028
0000 0028 0000 0028 0000 0028 0000 0028
0000 0028 0000 0028 0000 0028 0000 0028
0000 0028 0000 0028 0000 0028 0000 0028
0000 0028 0000 0028 0000 0028 0000 0028
0000 0028 0000 0028 0000 0028 0000 0028
0000 0028 0000 0028 0000 0028 0000 0028
0000 0028 0000 0028 0000 0028 0000 0028
0000 0028 0000 0028 0000 0028 0000 0028
0000 0028 0000 0028 0000 0028 0000 0028
0000 0028 0000 0028 0000 0028 0000 0028
0000 0028 0000 0028 0000 0028 0000 0028
0000 0028 0000 0028 0000 0028 0000 0028
0000 0028 0000 0028 0000 0028 0000 0028
0000 0028 0000 0028 0000 0028 0000 0028
0000 0028 0000 0028 0000 0028 0000 0028
0000 0028 0000 0028 0000 0028 0000 0028
0000 0028 0000 0028 0000 0028 0000 0028
0000 0028 0000 0028 0000 0028 0000 0028
0000 0028 0000 0028 0000 0028 0000 0028
0000 0028 0000 0028 0000 0028 0000 0028
0000 0028 0000 0028 0000 0028 0000 0028
0000 0028 0000 0028 0000 0028 0000 0028
0000 0028 0000 0028 0000 0028 0000 0028
0000 0028 0000 0028 0000 0028 0000 0028
0000 0028 0000 0028 0000 0028 0000 0028
0000 0028 0000 0028 0000 0028 0000 0028
0000 0028 0000 0028 0000 0028 0000 0028
0000 0028 0000 0028 0000 0028 0000 0028
0000 0028 0000 0028 0000 0028 0000 0028
0000 0028 0000 0028 0000 0028 0000 0028
0000 0028 0000 0028 0000 0028 0000 0028
0000 0028 0000 0028 0000 0028 0000 0028
0000 0028 0000 0028 0000 0028 0000 0028
0000 0028 0000 0028 0000 0028 0000 0028
0000 0028 0000 0028 0000 0028 0000 0028
0000 0028 0000 0028 0000 0028 0000 0028
0000 0028 0000 0028 0000 0028 0000 0028
0000 0028 0000 0028 0000 0028 0000 0028
0000 0028 0000 0028 0000 0028 0000 0028
0000 0028 0000 0028 0000 0028 0000 0028
0000 0028 0000 0028 0000 0028 0000 0028
0000 0028 0000 0028 0000 0028 0000 0028
0000 0028 0000 0028 0000 0028 0000 0028
0000 0028 0000 0028 0000 0028 0000 0028
0000 0028 0000 0028 0000 0028 0000 0028
0000 0028 0000 0028 0000 0028 0000 0028
0000 0028 0000 0028 0000 0028 0000 0028
0000 0028 0000 0028 0000 0028 0000 0028
0000 0028 0000 0028 0000 0028 0000 0028
0000 0028 0000 0028 0000 0028 0000 0028
0000 0028 0000 0028 0000 0028 0000 0028
0000 0028 0000 0028 0000 0028 0000 0028
0000 0028 0000 0028 0000 0028 0000 0028
0000 0028 0000 0028 0000 0028 0000 0028
0000 0028 0000 0028 0000 0028 0000 0028
0000 0028 0000 0028 0000 0028 0000 0028
0000 0028 0000 0028 0000 0028 0000 0028
0000 0028 0000 0028 0000 0028 0000 0028
0000 0028 0000 0028 0000 0028 0000 0028
0000 0028 0000 0028 0000 0028 0000 0028
0000 0028 0000 0028 0000 0028 0000 0028
0000 0028 0000 0028 0000 0028 0000 0028
0000 0028 0000 0028 0000 0028 0000 0028
0000 0028 0000 0028 0000 0028 0000 0028
0000 0028 0000 0028 0000 0028 0000 0028
0000 0028 0000 0028 0000 0028 0000 0028
0000 0028 0000 0028 0000 0028 0000 0028
0000 0028 0000 0028 0000 0028 0000 0028
0000 0028 0000 0028 0000 0028 0000 0028
0000 0028 0000 0028 0000 0028 0000 0028
0000 0028 0000 0028 0000 0028 0000 0028
0000 0028 0000 0028 0000 0028 0000 0028
0000 0028 0000 0028 0000 0028 0000 0028
0000 0028 0000 0028 0000 0028 0000 0028
0000 0028 0000 0028 0000 0028 0000 0028
0000 0028 0000 0028 0000 0028 0000 0028
0000 0028 0000 0028 0000 0028 0000 0028
0000 0028 0000 0028 0000 0028 0000 0028
0000 0028 0000 0028 0000 0028 0000 0028
0000 0028 0000 0028 0000 0028 0000 0028
0000 0028 0000 0028 0000 0028 0000 0028
0000 0028 0000 0028 0000 0028 0000 0028
0000 0028 0000 0028 0000 0028 0000 0028
0000 0028 0000 0028 0000 0028 0000 0028
0000 0028 0000 0028 0000 0028 0000 0028
0000 0028 0000 0028 0000 0028 0000 0028
0000 0028 0000 0028 0000 0028 0000 0028
0000 0028 0000 0028 0000 0028 0000 0028
0000 0028 0000 0028 0000 0028 0000 0028
0000 0028 0000 0028 0000 0028 0000 0028
0000 0028 0000 0028 0000 0028 0000 0028
0000 0028 0000 0028 0000 0028 0000 0028
0000 0028 0000 0028 0000 0028 0000 0028
0000 0028 0000 0028 0000 0028 0000 0028
0000 0028 0000 0028 0000 0028 0000 0028
0000 0028 0000 0028 0000 0028 0000 0028
0000 0028 0000 0028 0000 0028 0000 0028
0000 0028 0000 0028 0000 0028 0000 0028
0000 0028 0000 0028 0000 0028 0000 0028
0000 0028 0000 0028 0000 0028 0000 0028
0000 0028 0000 0028 0000 0028 0000 0028
0000 0028 0000 0028 0000 0028 0000 0028
0000 0028 0000 0028 0000 0028 0000 0028
0000 0028 0000 0028 0000 0028 0000 0028
0000 0028 0000 0028 0000 0028 0000 0028
0000 0028 0000 0028 0000 0028 0000 0028
0000 0028 0000 0028 0000 0028 0000 0028
0000 0028 0000 0028 0000 0028 0000 0028
0000 0028 0000 0028 0000 0028 0000 0028
0000 0028 0000 0028 0000 0028 0000 0028
0000 0028 0000 0028 0000 0028 0000 0028
0000 0028 0000 0028 0000 0028 0000 0028
0000 0028 0000 0028 0000 0028 0000 0028
0000 0028 0000 0028 0000 0028 0000 0028
0000 0028 0000 0028 0000 0028 0000 0028
0000 0028 0000 0028 0000 0028 0000 0028
0000 0028 0000 0028 0000 0028 0000 0028
0000 0028 0000 0028 0000 0028 0000 0028
0000 0028 0000 0028 0000 0028 0000 0028
0000 0028 0000 0028 0000 0028 0000 0028
0000 0028 0000 0028 0000 0028 0000 0028
0000 0028 0000 0028 0000 0028 0000 0028
0000 0028 0000 0028 0000 0028 0000 0028
0000 0028 0000 0028 0000 0028 0000 0028
0000 0028 0000 0028 0000 0028 0000 0028
0000 0028 0000 0028 0000 0028 0000 0028
0000 0028 0000 0028 0000 0028 0000 0028
0000 0028 0000 0028 0000 0028 0000 0028
0000 0028 0000 0028 0000 0028 0000 0028
0000 0028 0000 0028 0000 0028 0000 0028
0000 0028 0000 0028 0000 0028 0000 0028
0000 0028 0000 0028 0000 0028 0000 0028
0000 0028 0000 0028 0000 0028 0000 0028
0000 0028 0000 0028 0000 0028 0000 0028
0000 0028 0000 0028 0000 0028 0000 0028
0000 0028 0000 0028 0000 0028 0000 0028
0000 0028 0000 0028 0000 0028 0000 0028
0000 0028 0000 0028 0000 0028 0000 0028
0000 0028 0000 0028 0000 0028 0000 0028
0000 0028 0000 0028 0000 0028 0000 0028
0000 0028 0000 0028 0000 0028 0000 0028
0000 0028 0000 0028 0000 0028 0000 0028
0000 0028 0000 0028 0000 0028 0000 0028
0000 0028 0000 0028 0000 0028 0000 0028
0000 0028 0000 0028 0000 0028 0000 0028
0000 0028 0000 0028 0000 0028 0000 0028
0000 0028 0000 0028 0000 0028 0000 0028
0000 0028 0000 0028 0000 0028 0000 0028
0000 0028 0000 0028 0000 0028 0000 0028
0000 0028 0000 0028 0000 0028 0000 0028
0000 0028 0000 0028 0000 0028 0000 0028
0000 0028 0000 0028 0000 0028 0000 0028
0000 0028 0000 0028 0000 0028 0000 0028
0000 0028 0000 0028 0000 0028 0000 0028
0000 0028 0000 0028 0000 0028 0000 0028
0000 0028 0000 0028 0000 0028 0000 0028
0000 0028 0000 0028 0000 0028 0000 0028
0000 0028 0000 0028 0000 0028 0000 0028
0000 0028 0000 0028 0000 0028 0000 0028
0000 0028 0000 0028 0000 0028 0000 0028
0000 0028 0000 0028 0000 0028 0000 0028
0000 0028 0000 0028 0000 0028 0000 0028
0000 0028 0000 0028 0000 0028 0000 0028
0000 0028 0000 0028 0000 0028 0000 0028
0000 0028 0000 0028 0000 0028 0000 0028
0000 0028 0000 0028 0000 0028 0000 0028
0000 0028 0000 0028 0000 0028 0000 0028
0000 0028 0000 0028 0000 0028 0000 0028
0000 0028 0000 0028 0000 0028 0000 0028
0000 0028 0000 0028 0000 0028 0000 0028
0000 0028 0000 0028 0000 0028 0000 0028
0000 0028 0000 0028 0000 0028 0000 0028
0000 0028 0000 0028 0000 0028 0000 0028
0000 0028 0000 0028 0000 0028 0000 0028
0000 0028 0000 0028 0000 0028 0000 0028
0000 0028 0000 0028 0000 0028 0000 0028
0000 0028 0000 0028 0000 0028 0000 0028
0000 0028 0000 0028 0000 0028 0000 0028
0000 0028 0000 0028 0000 0028 0000 0028
0000 0028 0000 0028 0000 0028 0000 0028
0000 0028 0000 0028 0000 0028 0000 0028
0000 0028 0000 0028 0000 0028 0000 0028
0000 0028 0000 0028 0000 0028 0000 0028
0000 0028 0000 0028 0000 0028 0000 0028
0000 0028 0000 0028 0000 0028 0000 0028
0000 0028 0000 0028 0000 0028 0000 0028
0000 0028 0000 0028 0000 0028 0000 0028
0000 0028 0000 0028 0000 0028 0000 0028
0000 0028 0000 0028 0000 0028 0000 0028
0000 0028 0000 0028 0000 0028 0000 0028
0000 0028 0000 0028 0000 0028 0000 0028
0000 0028 0000 0028 0000 0028 0000 0028
0000 0028 0000 0028 0000 0028 0000 0028
0000 0028 0000 0028 0000 0028 0000 0028
0000 0028 0000 0028 0000 0028 0000 0028
0000 0028 0000 0028 0000 0028 0000 0028
0000 0028 0000 0028 0000 0028 0000 0028
0000 0028 0000 0028 0000 0028 0000 0028
0000 0028 0000 0028 0000 0028 0000 0028
0000 0028 0000 0028 0000 0028 0000 0028
0000 0028 0000 0028 0000 0028 0000 0028
0000 0028 0000 0028 0000 0028 0000 0028
0000 0028 0000 0028 0000 0028 0000 0028
0000 0028 0000 0028 0000 0028 0000 0028