0000 002b 0000 002b 0000 002b 0000 002b
0000 002b 0000 002b 0000 002b 0000 002b
0000 002b 0000 002b 0000 002b 0000 002b
0000 002b 0000 002b 0000 002b 0000 002b
0000 002b 0000 002b 0000 002b 0000 002b
0000 0000 0000 0000 0000 0000 0000 0000
0000 0000 0000 0000 0000 0000 0000 0000
0000 0000 0000 0000 0000 0000 0000 0000
0000 002b 0000 002b 0000 002b 0000 002b
0000 002b 0000 002b 0000 002b 0000 002b
0000 002b 0000 002b 0000 002b 0000 002b
0000 002b 0000 002b 0000 002b 0000 002b
0000 002b 0000 002b 0000 002b 0000 002b
0000 0000 0000 0000 0000 0000 0000 0000
0000 0000 0000 0000 0000 0000 0000 0000
0000 0000 0000 0000 0000 0000 0000 0000
0000 002b 0000 002b 0000 002b 0000 002b
0000 002b 0000 002b 0000 002b 0000 002b
0000 002b 0000 002b 0000 002b 0000 002b
0000 002b 0000 002b 0000 002b 0000 002b
0000 002b 0000 002b 0000 002b 0000 002b
0000 0000 0000 0000 0000 0000 0000 0000
0000 0000 0000 0000 0000 0000 0000 0000
0000 0000 0000 0000 0000 0000 0000 0000
0000 002b 0000 002b 0000 002b 0000 002b
0000 002b 0000 002b 0000 002b 0000 002b
0000 002b 0000 002b 0000 002b 0000 002b
0000 002b 0000 002b 0000 002b 0000 002b
0000 002b 0000 002b 0000 002b 0000 002b
0000 0000 0000 0000 0000 0000 0000 0000
0000 0000 0000 0000 0000 0000 0000 0000
0000 0000 0000 0000 0000 0000 0000 0000
0000 002b 0000 002b 0000 002b 0000 002b
0000 002b 0000 002b 0000 002b 0000 002b
0000 002b 0000 002b 0000 002b 0000 002b
0000 002b 0000 002b 0000 002b 0000 002b
0000 002b 0000 002b 0000 002b 0000 002b
0000 0000 0000 0000 0000 0000 0000 0000
0000 0000 0000 0000 0000 0000 0000 0000
0000 0000 0000 0000 0000 0000 0000 0000
0000 002b 0000 002b 0000 002b 0000 002b
0000 002b 0000 002b 0000 002b 0000 002b
0000 002b 0000 002b 0000 002b 0000 002b
0000 002b 0000 002b 0000 002b 0000 002b
0000 002b 0000 002b 0000 002b 0000 002b
0000 0000 0000 0000 0000 0000 0000 0000
0000 0000 0000 0000 0000 0000 0000 0000
0000 0000 0000 0000 0000 0000 0000 0000
0000 002b 0000 002b 0000 002b 0000 002b
0000 002b 0000 002b 0000 002b 0000 002b
0000 002b 0000 002b 0000 002b 0000 002b
0000 002b 0000 002b 0000 002b 0000 002b
0000 002b 0000 002b 0000 002b 0000 002b
0000 0000 0000 0000 0000 0000 0000 0000
0000 0000 0000 0000 0000 0000 0000 0000
0000 0000 0000 0000 0000 0000 0000 0000
0000 002b 0000 002b 0000 002b 0000 002b
0000 002b 0000 002b 0000 002b 0000 002b
0000 002b 0000 002b 0000 002b 0000 002b
0000 002b 0000 002b 0000 002b 0000 002b
0000 002b 0000 002b 0000 002b 0000 002b
0000 0000 0000 0000 0000 0000 0000 0000
0000 0000 0000 0000 0000 0000 0000 0000
0000 0000 0000 0000 0000 0000 0000 0000
0000 002b 0000 002b 0000 002b 0000 002b
0000 002b 0000 002b 0000 002b 0000 002b
0000 002b 0000 002b 0000 002b 0000 002b
0000 002b 0000 002b 0000 002b 0000 002b
0000 002b 0000 002b 0000 002b 0000 002b
0000 0000 0000 0000 0000 0000 0000 0000
0000 0000 0000 0000 0000 0000 0000 0000
0000 0000 0000 0000 0000 0000 0000 0000
0000 002b 0000 002b 0000 002b 0000 002b
0000 002b 0000 002b 0000 002b 0000 002b
0000 002b 0000 002b 0000 002b 0000 002b
0000 002b 0000 002b 0000 002b 0000 002b
0000 002b 0000 002b 0000 002b 0000 002b
0000 0000 0000 0000 0000 0000 0000 0000
0000 0000 0000 0000 0000 0000 0000 0000
0000 0000 0000 0000 0000 0000 0000 0000
0000 002b 0000 002b 0000 002b 0000 002b
0000 002b 0000 002b 0000 002b 0000 002b
0000 002b 0000 002b 0000 002b 0000 002b
0000 002b 0000 002b 0000 002b 0000 002b
0000 002b 0000 002b 0000 002b 0000 002b
0000 0000 0000 0000 0000 0000 0000 0000
0000 0000 0000 0000 0000 0000 0000 0000
0000 0000 0000 0000 0000 0000 0000 0000
0000 002b 0000 002b 0000 002b 0000 002b
0000 002b 0000 002b 0000 002b 0000 002b
0000 002b 0000 002b 0000 002b 0000 002b
0000 002b 0000 002b 0000 002b 0000 002b
0000 002b 0000 002b 0000 002b 0000 002b
0000 0000 0000 0000 0000 0000 0000 0000
0000 0000 0000 0000 0000 0000 0000 0000
0000 0000 0000 0000 0000 0000 0000 0000
0000 002b 0000 002b 0000 002b 0000 002b
0000 002b 0000 002b 0000 002b 0000 002b
0000 002b 0000 002b 0000 002b 0000 002b
0000 002b 0000 002b 0000 002b 0000 002b
0000 002b 0000 002b 0000 002b 0000 002b
0000 0000 0000 0000 0000 0000 0000 0000
0000 0000 0000 0000 0000 0000 0000 0000
0000 0000 0000 0000 0000 0000 0000 0000
0000 002b 0000 002b 0000 002b 0000 002b
0000 002b 0000 002b 0000 002b 0000 002b
0000 002b 0000 002b 0000 002b 0000 002b
0000 002b 0000 002b 0000 002b 0000 002b
0000 002b 0000 002b 0000 002b 0000 0000
0000 0000 0000 0000 0000 0000 0000 0000
0000 0000 0000 0000 0000 0000 0000 0000
0000 0000 0000 0000 0000 0000 0000 0000
0000 002b 0000 002b 0000 002b 0000 002b
0000 002b 0000 002b 0000 002b 0000 002b
0000 002b 0000 002b 0000 002b 0000 002b
0000 002b 0000 002b 0000 002b 0000 002b
0000 002b 0000 002b 0000 0000 0000 0000
0000 0000 0000 0000 0000 0000 0000 0000
0000 0000 0000 0000 0000 0000 0000 0000
0000 0000 0000 0000 0000 0000 0000 0000
0000 002b 0000 002b 0000 002b 0000 002b
0000 002b 0000 002b 0000 002b 0000 002b
0000 002b 0000 002b 0000 002b 0000 002b
0000 002b 0000 002b 0000 002b 0000 002b
0000 002b 0000 0000 0000 0000 0000 0000
0000 0000 0000 0000 0000 0000 0000 0000
0000 0000 0000 0000 0000 0000 0000 0000
0000 0000 0000 0000 0000 0000 0000 0000
0000 002b 0000 002b 0000 002b 0000 002b
0000 002b 0000 002b 0000 002b 0000 002b
0000 002b 0000 002b 0000 002b 0000 002b
0000 002b 0000 002b 0000 002b 0000 002b
0000 0000 0000 0000 0000 0000 0000 0000
0000 0000 0000 0000 0000 0000 0000 0000
0000 0000 0000 0000 0000 0000 0000 0000
0000 0000 0000 0000 0000 0000 0000 0000
0000 002b 0000 002b 0000 002b 0000 002b
0000 002b 0000 002b 0000 002b 0000 002b
0000 002b 0000 002b 0000 002b 0000 002b
0000 002b 0000 002b 0000 002b 0000 0000
0000 0000 0000 0000 0000 0000 0000 0000
0000 0000 0000 0000 0000 0000 0000 0000
0000 0000 0000 0000 0000 0000 0000 0000
0000 0000 0000 0000 0000 0000 0000 0000
0000 002b 0000 002b 0000 002b 0000 002b
0000 002b 0000 002b 0000 002b 0000 002b
0000 002b 0000 002b 0000 002b 0000 002b
0000 002b 0000 002b 0000 0000 0000 0000
0000 0000 0000 0000 0000 0000 0000 0000
0000 0000 0000 0000 0000 0000 0000 0000
0000 0000 0000 0000 0000 0000 0000 0000
0000 0000 0000 0000 0000 0000 0000 0000
0000 002b 0000 002b 0000 002b 0000 002b
0000 002b 0000 002b 0000 002b 0000 002b
0000 002b 0000 002b 0000 002b 0000 002b
0000 002b 0000 0000 0000 0000 0000 0000
0000 0000 0000 0000 0000 0000 0000 0000
0000 0000 0000 0000 0000 0000 0000 0000
0000 0000 0000 0000 0000 0000 0000 0000
0000 0000 0000 0000 0000 0000 0000 0000
0000 002b 0000 002b 0000 002b 0000 002b
0000 002b 0000 002b 0000 002b 0000 002b
0000 002b 0000 002b 0000 002b 0000 002b
0000 0000 0000 0000 0000 0000 0000 0000
0000 0000 0000 0000 0000 0000 0000 0000
0000 0000 0000 0000 0000 0000 0000 0000
0000 0000 0000 0000 0000 0000 0000 0000
0000 0000 0000 0000 0000 0000 0000 0000
0000 002b 0000 002b 0000 002b 0000 002b
0000 002b 0000 002b 0000 002b 0000 002b
0000 002b 0000 002b 0000 002b 0000 0000
0000 0000 0000 0000 0000 0000 0000 0000
0000 0000 0000 0000 0000 0000 0000 0000
0000 0000 0000 0000 0000 0000 0000 0000
0000 0000 0000 0000 0000 0000 0000 0000
0000 0000 0000 0000 0000 0000 0000 0000
0000 0000 0000 0000 0000 0000 0000 0000
0000 0000 0000 0000 0000 0000 0000 0000
0000 0000 0000 0000 0000 002b 0000 002b
0000 002b 0000 002b 0000 002b 0000 002b
0000 002b 0000 002b 0000 002b 0000 002b
0000 0000 0000 0000 0000 0000 0000 0000
0000 0000 0000 0000 0000 0000 0000 0000
0000 0000 0000 0000 0000 0000 0000 0000
0000 0000 0000 0000 0000 0000 0000 0000
0000 0000 0000 0000 0000 0000 0000 0000
0000 0000 0000 002b 0000 002b 0000 002b
0000 002b 0000 002b 0000 002b 0000 002b
0000 002b 0000 002b 0000 002b 0000 002b
0000 0000 0000 0000 0000 0000 0000 0000
0000 0000 0000 0000 0000 0000 0000 0000
0000 0000 0000 0000 0000 0000 0000 0000
0000 0000 0000 0000 0000 0000 0000 0000
0000 0000 0000 0000 0000 0000 0000 0000
0000 002b 0000 002b 0000 002b 0000 002b
0000 002b 0000 002b 0000 002b 0000 002b
0000 002b 0000 002b 0000 002b 0000 002b
0000 0000 0000 0000 0000 0000 0000 0000
0000 0000 0000 0000 0000 0000 0000 0000
0000 0000 0000 0000 0000 0000 0000 0000
0000 0000 0000 0000 0000 0000 0000 0000
0000 0000 0000 0000 0000 0000 0000 002b
0000 002b 0000 002b 0000 002b 0000 002b
0000 002b 0000 002b 0000 002b 0000 002b
0000 002b 0000 002b 0000 002b 0000 002b
0000 0000 0000 0000 0000 0000 0000 0000
0000 0000 0000 0000 0000 0000 0000 0000
0000 0000 0000 0000 0000 0000 0000 0000
0000 0000 0000 0000 0000 0000 0000 0000
0000 0000 0000 0000 0000 002b 0000 002b
0000 002b 0000 002b 0000 002b 0000 002b
0000 002b 0000 002b 0000 002b 0000 002b
0000 002b 0000 002b 0000 002b 0000 002b
0000 0000 0000 0000 0000 0000 0000 0000
0000 0000 0000 0000 0000 0000 0000 0000
0000 0000 0000 0000 0000 0000 0000 0000
0000 0000 0000 0000 0000 0000 0000 0000
0000 0000 0000 002b 0000 002b 0000 002b
0000 002b 0000 002b 0000 002b 0000 002b
0000 002b 0000 002b 0000 002b 0000 002b
0000 002b 0000 002b 0000 002b 0000 002b
0000 0000 0000 0000 0000 0000 0000 0000
0000 0000 0000 0000 0000 0000 0000 0000
0000 0000 0000 0000 0000 0000 0000 0000
0000 0000 0000 0000 0000 0000 0000 0000
0000 002b 0000 002b 0000 002b 0000 002b
0000 002b 0000 002b 0000 002b 0000 002b
0000 002b 0000 002b 0000 002b 0000 002b
0000 002b 0000 002b 0000 002b 0000 002b
0000 0000 0000 0000 0000 0000 0000 0000
0000 0000 0000 0000 0000 0000 0000 0000
0000 0000 0000 0000 0000 0000 0000 0000
0000 0000 0000 0000 0000 0000 0000 002b
0000 002b 0000 002b 0000 002b 0000 002b
0000 002b 0000 002b 0000 002b 0000 002b
0000 002b 0000 002b 0000 002b 0000 002b
0000 002b 0000 002b 0000 002b 0000 002b
0000 0000 0000 0000 0000 0000 0000 0000
0000 0000 0000 0000 0000 0000 0000 0000
0000 0000 0000 0000 0000 0000 0000 0000
0000 0000 0000 0000 0000 002b 0000 002b
0000 002b 0000 002b 0000 002b 0000 002b
0000 002b 0000 002b 0000 002b 0000 002b
0000 002b 0000 002b 0000 002b 0000 002b
0000 002b 0000 002b 0000 002b 0000 002b
0000 0000 0000 0000 0000 0000 0000 0000
0000 0000 0000 0000 0000 0000 0000 0000
0000 0000 0000 0000 0000 0000 0000 0000
0000 0000 0000 002b 0000 002b 0000 002b
0000 002b 0000 002b 0000 002b 0000 002b
0000 002b 0000 002b 0000 002b 0000 002b
0000 002b 0000 002b 0000 002b 0000 002b
0000 002b 0000 002b 0000 002b 0000 002b
0000 0000 0000 0000 0000 0000 0000 0000
0000 0000 0000 0000 0000 0000 0000 0000
0000 0000 0000 0000 0000 0000 0000 0000