0000 002e 0000 002e 0000 002e 0000 002e
0000 002e 0000 002e 0000 002e 0000 002e
0000 002e 0000 002e 0000 002e 0000 002e
0000 002e 0000 002e 0000 002e 0000 002e
0000 002e 0000 002e 0000 002e 0000 002e
0000 0000 0000 0000 0000 0000 0000 0000
0000 0000 0000 0000 0000 0000 0000 0000
0000 0000 0000 0000 0000 0000 0000 0000
0000 002e 0000 002e 0000 002e 0000 002e
0000 002e 0000 002e 0000 002e 0000 002e
0000 002e 0000 002e 0000 002e 0000 002e
0000 002e 0000 002e 0000 002e 0000 002e
0000 002e 0000 002e 0000 002e 0000 002e
0000 0000 0000 0000 0000 0000 0000 0000
0000 0000 0000 0000 0000 0000 0000 0000
0000 0000 0000 0000 0000 0000 0000 0000
0000 002e 0000 002e 0000 002e 0000 002e
0000 002e 0000 002e 0000 002e 0000 002e
0000 002e 0000 002e 0000 002e 0000 002e
0000 002e 0000 002e 0000 002e 0000 002e
0000 002e 0000 002e 0000 002e 0000 002e
0000 0000 0000 0000 0000 0000 0000 0000
0000 0000 0000 0000 0000 0000 0000 0000
0000 0000 0000 0000 0000 0000 0000 0000
0000 002e 0000 002e 0000 002e 0000 002e
0000 002e 0000 002e 0000 002e 0000 002e
0000 002e 0000 002e 0000 002e 0000 002e
0000 002e 0000 002e 0000 002e 0000 002e
0000 002e 0000 002e 0000 002e 0000 002e
0000 0000 0000 0000 0000 0000 0000 0000
0000 0000 0000 0000 0000 0000 0000 0000
0000 0000 0000 0000 0000 0000 0000 0000
0000 002e 0000 002e 0000 002e 0000 002e
0000 002e 0000 002e 0000 002e 0000 002e
0000 002e 0000 002e 0000 002e 0000 002e
0000 002e 0000 002e 0000 002e 0000 002e
0000 002e 0000 002e 0000 002e 0000 002e
0000 0000 0000 0000 0000 0000 0000 0000
0000 0000 0000 0000 0000 0000 0000 0000
0000 0000 0000 0000 0000 0000 0000 0000
0000 002e 0000 002e 0000 002e 0000 002e
0000 002e 0000 002e 0000 002e 0000 002e
0000 002e 0000 002e 0000 002e 0000 002e
0000 002e 0000 002e 0000 002e 0000 002e
0000 002e 0000 002e 0000 002e 0000 002e
0000 0000 0000 0000 0000 0000 0000 0000
0000 0000 0000 0000 0000 0000 0000 0000
0000 0000 0000 0000 0000 0000 0000 0000
0000 002e 0000 002e 0000 002e 0000 002e
0000 002e 0000 002e 0000 002e 0000 002e
0000 002e 0000 002e 0000 002e 0000 002e
0000 002e 0000 002e 0000 002e 0000 002e
0000 002e 0000 002e 0000 002e 0000 002e
0000 0000 0000 0000 0000 0000 0000 0000
0000 0000 0000 0000 0000 0000 0000 0000
0000 0000 0000 0000 0000 0000 0000 0000
0000 002e 0000 002e 0000 002e 0000 002e
0000 002e 0000 002e 0000 002e 0000 002e
0000 002e 0000 002e 0000 002e 0000 002e
0000 002e 0000 002e 0000 002e 0000 002e
0000 002e 0000 002e 0000 002e 0000 002e
0000 0000 0000 0000 0000 0000 0000 0000
0000 0000 0000 0000 0000 0000 0000 0000
0000 0000 0000 0000 0000 0000 0000 0000
0000 002e 0000 002e 0000 002e 0000 002e
0000 002e 0000 002e 0000 002e 0000 002e
0000 002e 0000 002e 0000 002e 0000 002e
0000 002e 0000 002e 0000 002e 0000 002e
0000 002e 0000 002e 0000 002e 0000 002e
0000 0000 0000 0000 0000 0000 0000 0000
0000 0000 0000 0000 0000 0000 0000 0000
0000 0000 0000 0000 0000 0000 0000 0000
0000 002e 0000 002e 0000 002e 0000 002e
0000 002e 0000 002e 0000 002e 0000 002e
0000 002e 0000 002e 0000 002e 0000 002e
0000 002e 0000 002e 0000 002e 0000 002e
0000 002e 0000 002e 0000 002e 0000 002e
0000 0000 0000 0000 0000 0000 0000 0000
0000 0000 0000 0000 0000 0000 0000 0000
0000 0000 0000 0000 0000 0000 0000 0000
0000 002e 0000 002e 0000 002e 0000 002e
0000 002e 0000 002e 0000 002e 0000 002e
0000 002e 0000 002e 0000 002e 0000 002e
0000 002e 0000 002e 0000 002e 0000 002e
0000 002e 0000 002e 0000 002e 0000 002e
0000 0000 0000 0000 0000 0000 0000 0000
0000 0000 0000 0000 0000 0000 0000 0000
0000 0000 0000 0000 0000 0000 0000 0000
0000 002e 0000 002e 0000 002e 0000 002e
0000 002e 0000 002e 0000 002e 0000 002e
0000 002e 0000 002e 0000 002e 0000 002e
0000 002e 0000 002e 0000 002e 0000 002e
0000 002e 0000 002e 0000 002e 0000 002e
0000 0000 0000 0000 0000 0000 0000 0000
0000 0000 0000 0000 0000 0000 0000 0000
0000 0000 0000 0000 0000 0000 0000 0000
0000 002e 0000 002e 0000 002e 0000 002e
0000 002e 0000 002e 0000 002e 0000 002e
0000 002e 0000 002e 0000 002e 0000 002e
0000 002e 0000 002e 0000 002e 0000 002e
0000 002e 0000 002e 0000 002e 0000 002e
0000 0000 0000 0000 0000 0000 0000 0000
0000 0000 0000 0000 0000 0000 0000 0000
0000 0000 0000 0000 0000 0000 0000 0000
0000 002e 0000 002e 0000 002e 0000 002e
0000 002e 0000 002e 0000 002e 0000 002e
0000 002e 0000 002e 0000 002e 0000 002e
0000 002e 0000 002e 0000 002e 0000 002e
0000 002e 0000 002e 0000 002e 0000 0000
0000 0000 0000 0000 0000 0000 0000 0000
0000 0000 0000 0000 0000 0000 0000 0000
0000 0000 0000 0000 0000 0000 0000 0000
0000 002e 0000 002e 0000 002e 0000 002e
0000 002e 0000 002e 0000 002e 0000 002e
0000 002e 0000 002e 0000 002e 0000 002e
0000 002e 0000 002e 0000 002e 0000 002e
0000 002e 0000 002e 0000 0000 0000 0000
0000 0000 0000 0000 0000 0000 0000 0000
0000 0000 0000 0000 0000 0000 0000 0000
0000 0000 0000 0000 0000 0000 0000 0000
0000 002e 0000 002e 0000 002e 0000 002e
0000 002e 0000 002e 0000 002e 0000 002e
0000 002e 0000 002e 0000 002e 0000 002e
0000 002e 0000 002e 0000 002e 0000 002e
0000 002e 0000 0000 0000 0000 0000 0000
0000 0000 0000 0000 0000 0000 0000 0000
0000 0000 0000 0000 0000 0000 0000 0000
0000 0000 0000 0000 0000 0000 0000 0000
0000 002e 0000 002e 0000 002e 0000 002e
0000 002e 0000 002e 0000 002e 0000 002e
0000 002e 0000 002e 0000 002e 0000 002e
0000 002e 0000 002e 0000 002e 0000 002e
0000 0000 0000 0000 0000 0000 0000 0000
0000 0000 0000 0000 0000 0000 0000 0000
0000 0000 0000 0000 0000 0000 0000 0000
0000 0000 0000 0000 0000 0000 0000 0000
0000 002e 0000 002e 0000 002e 0000 002e
0000 002e 0000 002e 0000 002e 0000 002e
0000 002e 0000 002e 0000 002e 0000 002e
0000 002e 0000 002e 0000 002e 0000 0000
0000 0000 0000 0000 0000 0000 0000 0000
0000 0000 0000 0000 0000 0000 0000 0000
0000 0000 0000 0000 0000 0000 0000 0000
0000 0000 0000 0000 0000 0000 0000 0000
0000 002e 0000 002e 0000 002e 0000 002e
0000 002e 0000 002e 0000 002e 0000 002e
0000 002e 0000 002e 0000 002e 0000 002e
0000 002e 0000 002e 0000 0000 0000 0000
0000 0000 0000 0000 0000 0000 0000 0000
0000 0000 0000 0000 0000 0000 0000 0000
0000 0000 0000 0000 0000 0000 0000 0000
0000 0000 0000 0000 0000 0000 0000 0000
0000 002e 0000 002e 0000 002e 0000 002e
0000 002e 0000 002e 0000 002e 0000 002e
0000 002e 0000 002e 0000 002e 0000 002e
0000 002e 0000 0000 0000 0000 0000 0000
0000 0000 0000 0000 0000 0000 0000 0000
0000 0000 0000 0000 0000 0000 0000 0000
0000 0000 0000 0000 0000 0000 0000 0000
0000 0000 0000 0000 0000 0000 0000 0000
0000 002e 0000 002e 0000 002e 0000 002e
0000 002e 0000 002e 0000 002e 0000 002e
0000 002e 0000 002e 0000 002e 0000 002e
0000 0000 0000 0000 0000 0000 0000 0000
0000 0000 0000 0000 0000 0000 0000 0000
0000 0000 0000 0000 0000 0000 0000 0000
0000 0000 0000 0000 0000 0000 0000 0000
0000 0000 0000 0000 0000 0000 0000 0000
0000 002e 0000 002e 0000 002e 0000 002e
0000 002e 0000 002e 0000 002e 0000 002e
0000 002e 0000 002e 0000 002e 0000 0000
0000 0000 0000 0000 0000 0000 0000 0000
0000 0000 0000 0000 0000 0000 0000 0000
0000 0000 0000 0000 0000 0000 0000 0000
0000 0000 0000 0000 0000 0000 0000 0000
0000 0000 0000 0000 0000 0000 0000 0000
0000 0000 0000 0000 0000 0000 0000 0000
0000 0000 0000 0000 0000 0000 0000 0000
0000 0000 0000 0000 0000 002e 0000 002e
0000 002e 0000 002e 0000 002e 0000 002e
0000 002e 0000 002e 0000 002e 0000 002e
0000 0000 0000 0000 0000 0000 0000 0000
0000 0000 0000 0000 0000 0000 0000 0000
0000 0000 0000 0000 0000 0000 0000 0000
0000 0000 0000 0000 0000 0000 0000 0000
0000 0000 0000 0000 0000 0000 0000 0000
0000 0000 0000 002e 0000 002e 0000 002e
0000 002e 0000 002e 0000 002e 0000 002e
0000 002e 0000 002e 0000 002e 0000 002e
0000 0000 0000 0000 0000 0000 0000 0000
0000 0000 0000 0000 0000 0000 0000 0000
0000 0000 0000 0000 0000 0000 0000 0000
0000 0000 0000 0000 0000 0000 0000 0000
0000 0000 0000 0000 0000 0000 0000 0000
0000 002e 0000 002e 0000 002e 0000 002e
0000 002e 0000 002e 0000 002e 0000 002e
0000 002e 0000 002e 0000 002e 0000 002e
0000 0000 0000 0000 0000 0000 0000 0000
0000 0000 0000 0000 0000 0000 0000 0000
0000 0000 0000 0000 0000 0000 0000 0000
0000 0000 0000 0000 0000 0000 0000 0000
0000 0000 0000 0000 0000 0000 0000 002e
0000 002e 0000 002e 0000 002e 0000 002e
0000 002e 0000 002e 0000 002e 0000 002e
0000 002e 0000 002e 0000 002e 0000 002e
0000 0000 0000 0000 0000 0000 0000 0000
0000 0000 0000 0000 0000 0000 0000 0000
0000 0000 0000 0000 0000 0000 0000 0000
0000 0000 0000 0000 0000 0000 0000 0000
0000 0000 0000 0000 0000 002e 0000 002e
0000 002e 0000 002e 0000 002e 0000 002e
0000 002e 0000 002e 0000 002e 0000 002e
0000 002e 0000 002e 0000 002e 0000 002e
0000 0000 0000 0000 0000 0000 0000 0000
0000 0000 0000 0000 0000 0000 0000 0000
0000 0000 0000 0000 0000 0000 0000 0000
0000 0000 0000 0000 0000 0000 0000 0000
0000 0000 0000 002e 0000 002e 0000 002e
0000 002e 0000 002e 0000 002e 0000 002e
0000 002e 0000 002e 0000 002e 0000 002e
0000 002e 0000 002e 0000 002e 0000 002e
0000 0000 0000 0000 0000 0000 0000 0000
0000 0000 0000 0000 0000 0000 0000 0000
0000 0000 0000 0000 0000 0000 0000 0000
0000 0000 0000 0000 0000 0000 0000 0000
0000 002e 0000 002e 0000 002e 0000 002e
0000 002e 0000 002e 0000 002e 0000 002e
0000 002e 0000 002e 0000 002e 0000 002e
0000 002e 0000 002e 0000 002e 0000 002e
0000 0000 0000 0000 0000 0000 0000 0000
0000 0000 0000 0000 0000 0000 0000 0000
0000 0000 0000 0000 0000 0000 0000 0000
0000 0000 0000 0000 0000 0000 0000 002e
0000 002e 0000 002e 0000 002e 0000 002e
0000 002e 0000 002e 0000 002e 0000 002e
0000 002e 0000 002e 0000 002e 0000 002e
0000 002e 0000 002e 0000 002e 0000 002e
0000 0000 0000 0000 0000 0000 0000 0000
0000 0000 0000 0000 0000 0000 0000 0000
0000 0000 0000 0000 0000 0000 0000 0000
0000 0000 0000 0000 0000 002e 0000 002e
0000 002e 0000 002e 0000 002e 0000 002e
0000 002e 0000 002e 0000 002e 0000 002e
0000 002e 0000 002e 0000 002e 0000 002e
0000 002e 0000 002e 0000 002e 0000 002e
0000 0000 0000 0000 0000 0000 0000 0000
0000 0000 0000 0000 0000 0000 0000 0000
0000 0000 0000 0000 0000 0000 0000 0000
0000 0000 0000 002e 0000 002e 0000 002e
0000 002e 0000 002e 0000 002e 0000 002e
0000 002e 0000 002e 0000 002e 0000 002e
0000 002e 0000 002e 0000 002e 0000 002e
0000 002e 0000 002e 0000 002e 0000 002e
0000 0000 0000 0000 0000 0000 0000 0000
0000 0000 0000 0000 0000 0000 0000 0000
0000 0000 0000 0000 0000 0000 0000 0000