0000 0029 0000 0029 0000 0029 0000 0029
0000 0029 0000 0029 0000 0029 0000 0029
0000 0029 0000 0029 0000 0029 0000 0029
0000 0029 0000 0029 0000 0029 0000 0029
0000 0029 0000 0029 0000 0029 0000 0029
0000 0029 0000 0029 0000 0029 0000 0029
0000 0029 0000 0029 0000 0029 0000 0029
0000 0029 0000 0029 0000 0029 0000 0029
0000 0029 0000 0029 0000 0029 0000 0029
0000 0029 0000 0029 0000 0029 0000 0029
0000 0029 0000 0029 0000 0029 0000 0029
0000 0029 0000 0029 0000 0029 0000 0029
0000 0029 0000 0029 0000 0029 0000 0029
0000 0029 0000 0029 0000 0029 0000 0029
0000 0029 0000 0029 0000 0029 0000 0029
0000 0029 0000 0029 0000 0029 0000 0029
0000 0029 0000 0029 0000 0029 0000 0029
0000 0029 0000 0029 0000 0029 0000 0029
0000 0029 0000 0029 0000 0029 0000 0029
0000 0029 0000 0029 0000 0029 0000 0029
0000 0029 0000 0029 0000 0029 0000 0029
0000 0029 0000 0029 0000 0029 0000 0029
0000 0029 0000 0029 0000 0029 0000 0029
0000 0029 0000 0029 0000 0029 0000 0029
0000 0029 0000 0029 0000 0029 0000 0029
0000 0029 0000 0029 0000 0029 0000 0029
0000 0029 0000 0029 0000 0029 0000 0029
0000 0029 0000 0029 0000 0029 0000 0029
0000 0029 0000 0029 0000 0029 0000 0029
0000 0029 0000 0029 0000 0029 0000 0029
0000 0029 0000 0029 0000 0029 0000 0029
0000 0029 0000 0029 0000 0029 0000 0029
0000 0029 0000 0029 0000 0029 0000 0029
0000 0029 0000 0029 0000 0029 0000 0029
0000 0029 0000 0029 0000 0029 0000 0029
0000 0029 0000 0029 0000 0029 0000 0029
0000 0029 0000 0029 0000 0029 0000 0029
0000 0029 0000 0029 0000 0029 0000 0029
0000 0029 0000 0029 0000 0029 0000 0029
0000 0029 0000 0029 0000 0029 0000 0029
0000 0029 0000 0029 0000 0029 0000 0029
0000 0029 0000 0029 0000 0029 0000 0029
0000 0029 0000 0029 0000 0029 0000 0029
0000 0029 0000 0029 0000 0029 0000 0029
0000 0029 0000 0029 0000 0029 0000 0029
0000 0029 0000 0029 0000 0029 0000 0029
0000 0029 0000 0029 0000 0029 0000 0029
0000 0029 0000 0029 0000 0029 0000 0029
0000 0029 0000 0029 0000 0029 0000 0029
0000 0029 0000 0029 0000 0029 0000 0029
0000 0029 0000 0029 0000 0029 0000 0029
0000 0029 0000 0029 0000 0029 0000 0029
0000 0029 0000 0029 0000 0029 0000 0029
0000 0029 0000 0029 0000 0029 0000 0029
0000 0029 0000 0029 0000 0029 0000 0029
0000 0029 0000 0029 0000 0029 0000 0029
0000 0029 0000 0029 0000 0029 0000 0029
0000 0029 0000 0029 0000 0029 0000 0029
0000 0029 0000 0029 0000 0029 0000 0029
0000 0029 0000 0029 0000 0029 0000 0029
0000 0029 0000 0029 0000 0029 0000 0029
0000 0029 0000 0029 0000 0029 0000 0029
0000 0029 0000 0029 0000 0029 0000 0029
0000 0029 0000 0029 0000 0029 0000 0029
0000 0029 0000 0029 0000 0029 0000 0029
0000 0029 0000 0029 0000 0029 0000 0029
0000 0029 0000 0029 0000 0029 0000 0029
0000 0029 0000 0029 0000 0029 0000 0029
0000 0029 0000 0029 0000 0029 0000 0029
0000 0029 0000 0029 0000 0029 0000 0029
0000 0029 0000 0029 0000 0029 0000 0029
0000 0029 0000 0029 0000 0029 0000 0029
0000 0029 0000 0029 0000 0029 0000 0029
0000 0029 0000 0029 0000 0029 0000 0029
0000 0029 0000 0029 0000 0029 0000 0029
0000 0029 0000 0029 0000 0029 0000 0029
0000 0029 0000 0029 0000 0029 0000 0029
0000 0029 0000 0029 0000 0029 0000 0029
0000 0029 0000 0029 0000 0029 0000 0029
0000 0029 0000 0029 0000 0029 0000 0029
0000 0029 0000 0029 0000 0029 0000 0029
0000 0029 0000 0029 0000 0029 0000 0029
0000 0029 0000 0029 0000 0029 0000 0029
0000 0029 0000 0029 0000 0029 0000 0029
0000 0029 0000 0029 0000 0029 0000 0029
0000 0029 0000 0029 0000 0029 0000 0029
0000 0029 0000 0029 0000 0029 0000 0029
0000 0029 0000 0029 0000 0029 0000 0029
0000 0029 0000 0029 0000 0029 0000 0029
0000 0029 0000 0029 0000 0029 0000 0029
0000 0029 0000 0029 0000 0029 0000 0029
0000 0029 0000 0029 0000 0029 0000 0029
0000 0029 0000 0029 0000 0029 0000 0029
0000 0029 0000 0029 0000 0029 0000 0029
0000 0029 0000 0029 0000 0029 0000 0029
0000 0029 0000 0029 0000 0029 0000 0029
0000 0029 0000 0029 0000 0029 0000 0029
0000 0029 0000 0029 0000 0029 0000 0029
0000 0029 0000 0029 0000 0029 0000 0029
0000 0029 0000 0029 0000 0029 0000 0029
0000 0029 0000 0029 0000 0029 0000 0029
0000 0029 0000 0029 0000 0029 0000 0029
0000 0029 0000 0029 0000 0029 0000 0029
0000 0029 0000 0029 0000 0029 0000 0029
0000 0029 0000 0029 0000 0029 0000 0029
0000 0029 0000 0029 0000 0029 0000 0029
0000 0029 0000 0029 0000 0029 0000 0029
0000 0029 0000 0029 0000 0029 0000 0029
0000 0029 0000 0029 0000 0029 0000 0029
0000 0029 0000 0029 0000 0029 0000 0029
0000 0029 0000 0029 0000 0029 0000 0029
0000 0029 0000 0029 0000 0029 0000 0029
0000 0029 0000 0029 0000 0029 0000 0029
0000 0029 0000 0029 0000 0029 0000 0029
0000 0029 0000 0029 0000 0029 0000 0029
0000 0029 0000 0029 0000 0029 0000 0029
0000 0029 0000 0029 0000 0029 0000 0029
0000 0029 0000 0029 0000 0029 0000 0029
0000 0029 0000 0029 0000 0029 0000 0029
0000 0029 0000 0029 0000 0029 0000 0029
0000 0029 0000 0029 0000 0029 0000 0029
0000 0029 0000 0029 0000 0029 0000 0029
0000 0029 0000 0029 0000 0029 0000 0029
0000 0029 0000 0029 0000 0029 0000 0029
0000 0029 0000 0029 0000 0029 0000 0029
0000 0029 0000 0029 0000 0029 0000 0029
0000 0029 0000 0029 0000 0029 0000 0029
0000 0029 0000 0029 0000 0029 0000 0029
0000 0029 0000 0029 0000 0029 0000 0029
0000 0029 0000 0029 0000 0029 0000 0029
0000 0029 0000 0029 0000 0029 0000 0029
0000 0029 0000 0029 0000 0029 0000 0029
0000 0029 0000 0029 0000 0029 0000 0029
0000 0029 0000 0029 0000 0029 0000 0029
0000 0029 0000 0029 0000 0029 0000 0029
0000 0029 0000 0029 0000 0029 0000 0029
0000 0029 0000 0029 0000 0029 0000 0029
0000 0029 0000 0029 0000 0029 0000 0029
0000 0029 0000 0029 0000 0029 0000 0029
0000 0029 0000 0029 0000 0029 0000 0029
0000 0029 0000 0029 0000 0029 0000 0029
0000 0029 0000 0029 0000 0029 0000 0029
0000 0029 0000 0029 0000 0029 0000 0029
0000 0029 0000 0029 0000 0029 0000 0029
0000 0029 0000 0029 0000 0029 0000 0029
0000 0029 0000 0029 0000 0029 0000 0029
0000 0029 0000 0029 0000 0029 0000 0029
0000 0029 0000 0029 0000 0029 0000 0029
0000 0029 0000 0029 0000 0029 0000 0029
0000 0029 0000 0029 0000 0029 0000 0029
0000 0029 0000 0029 0000 0029 0000 0029
0000 0029 0000 0029 0000 0029 0000 0029
0000 0029 0000 0029 0000 0029 0000 0029
0000 0029 0000 0029 0000 0029 0000 0029
0000 0029 0000 0029 0000 0029 0000 0029
0000 0029 0000 0029 0000 0029 0000 0029
0000 0029 0000 0029 0000 0029 0000 0029
0000 0029 0000 0029 0000 0029 0000 0029
0000 0029 0000 0029 0000 0029 0000 0029
0000 0029 0000 0029 0000 0029 0000 0029
0000 0029 0000 0029 0000 0029 0000 0029
0000 0029 0000 0029 0000 0029 0000 0029
0000 0029 0000 0029 0000 0029 0000 0029
0000 0029 0000 0029 0000 0029 0000 0029
0000 0029 0000 0029 0000 0029 0000 0029
0000 0029 0000 0029 0000 0029 0000 0029
0000 0029 0000 0029 0000 0029 0000 0029
0000 0029 0000 0029 0000 0029 0000 0029
0000 0029 0000 0029 0000 0029 0000 0029
0000 0029 0000 0029 0000 0029 0000 0029
0000 0029 0000 0029 0000 0029 0000 0029
0000 0029 0000 0029 0000 0029 0000 0029
0000 0029 0000 0029 0000 0029 0000 0029
0000 0029 0000 0029 0000 0029 0000 0029
0000 0029 0000 0029 0000 0029 0000 0029
0000 0029 0000 0029 0000 0029 0000 0029
0000 0029 0000 0029 0000 0029 0000 0029
0000 0029 0000 0029 0000 0029 0000 0029
0000 0029 0000 0029 0000 0029 0000 0029
0000 0029 0000 0029 0000 0029 0000 0029
0000 0029 0000 0029 0000 0029 0000 0029
0000 0029 0000 0029 0000 0029 0000 0029
0000 0029 0000 0029 0000 0029 0000 0029
0000 0029 0000 0029 0000 0029 0000 0029
0000 0029 0000 0029 0000 0029 0000 0029
0000 0029 0000 0029 0000 0029 0000 0029
0000 0029 0000 0029 0000 0029 0000 0029
0000 0029 0000 0029 0000 0029 0000 0029
0000 0029 0000 0029 0000 0029 0000 0029
0000 0029 0000 0029 0000 0029 0000 0029
0000 0029 0000 0029 0000 0029 0000 0029
0000 0029 0000 0029 0000 0029 0000 0029
0000 0029 0000 0029 0000 0029 0000 0029
0000 0029 0000 0029 0000 0029 0000 0029
0000 0029 0000 0029 0000 0029 0000 0029
0000 0029 0000 0029 0000 0029 0000 0029
0000 0029 0000 0029 0000 0029 0000 0029
0000 0029 0000 0029 0000 0029 0000 0029
0000 0029 0000 0029 0000 0029 0000 0029
0000 0029 0000 0029 0000 0029 0000 0029
0000 0029 0000 0029 0000 0029 0000 0029
0000 0029 0000 0029 0000 0029 0000 0029
0000 0029 0000 0029 0000 0029 0000 0029
0000 0029 0000 0029 0000 0029 0000 0029
0000 0029 0000 0029 0000 0029 0000 0029
0000 0029 0000 0029 0000 0029 0000 0029
0000 0029 0000 0029 0000 0029 0000 0029
0000 0029 0000 0029 0000 0029 0000 0029
0000 0029 0000 0029 0000 0029 0000 0029
0000 0029 0000 0029 0000 0029 0000 0029
0000 0029 0000 0029 0000 0029 0000 0029
0000 0029 0000 0029 0000 0029 0000 0029
0000 0029 0000 0029 0000 0029 0000 0029
0000 0029 0000 0029 0000 0029 0000 0029
0000 0029 0000 0029 0000 0029 0000 0029
0000 0029 0000 0029 0000 0029 0000 0029
0000 0029 0000 0029 0000 0029 0000 0029
0000 0029 0000 0029 0000 0029 0000 0029
0000 0029 0000 0029 0000 0029 0000 0029
0000 0029 0000 0029 0000 0029 0000 0029
0000 0029 0000 0029 0000 0029 0000 0029
0000 0029 0000 0029 0000 0029 0000 0029
0000 0029 0000 0029 0000 0029 0000 0029
0000 0029 0000 0029 0000 0029 0000 0029
0000 0029 0000 0029 0000 0029 0000 0029
0000 0029 0000 0029 0000 0029 0000 0029
0000 0029 0000 0029 0000 0029 0000 0029
0000 0029 0000 0029 0000 0029 0000 0029
0000 0029 0000 0029 0000 0029 0000 0029
0000 0029 0000 0029 0000 0029 0000 0029
0000 0029 0000 0029 0000 0029 0000 0029
0000 0029 0000 0029 0000 0029 0000 0029
0000 0029 0000 0029 0000 0029 0000 0029
0000 0029 0000 0029 0000 0029 0000 0029
0000 0029 0000 0029 0000 0029 0000 0029
0000 0029 0000 0029 0000 0029 0000 0029
0000 0029 0000 0029 0000 0029 0000 0029
0000 0029 0000 0029 0000 0029 0000 0029
0000 0029 0000 0029 0000 0029 0000 0029
0000 0029 0000 0029 0000 0029 0000 0029
0000 0029 0000 0029 0000 0029 0000 0029
0000 0029 0000 0029 0000 0029 0000 0029
0000 0029 0000 0029 0000 0029 0000 0029
0000 0029 0000 0029 0000 0029 0000 0029
0000 0029 0000 0029 0000 0029 0000 0029
0000 0029 0000 0029 0000 0029 0000 0029
0000 0029 0000 0029 0000 0029 0000 0029
0000 0029 0000 0029 0000 0029 0000 0029
0000 0029 0000 0029 0000 0029 0000 0029
0000 0029 0000 0029 0000 0029 0000 0029
0000 0029 0000 0029 0000 0029 0000 0029
0000 0029 0000 0029 0000 0029 0000 0029
0000 0029 0000 0029 0000 0029 0000 0029
0000 0029 0000 0029 0000 0029 0000 0029
0000 0029 0000 0029 0000 0029 0000 0029
0000 0029 0000 0029 0000 0029 0000 0029