0000 0024 0000 0024 0000 0024 0000 0024
0000 0024 0000 0024 0000 0024 0000 0024
0000 0024 0000 0024 0000 0024 0000 0024
0000 0024 0000 0024 0000 0024 0000 0024
0000 0024 0000 0024 0000 0024 0000 0024
0000 0024 0000 0024 0000 0024 0000 0024
0000 0024 0000 0024 0000 0024 0000 0024
0000 0024 0000 0024 0000 0024 0000 0024
0000 0024 0000 0024 0000 0024 0000 0024
0000 0024 0000 0024 0000 0024 0000 0024
0000 0024 0000 0024 0000 0024 0000 0024
0000 0024 0000 0024 0000 0024 0000 0024
0000 0024 0000 0024 0000 0024 0000 0024
0000 0024 0000 0024 0000 0024 0000 0024
0000 0024 0000 0024 0000 0024 0000 0024
0000 0024 0000 0024 0000 0024 0000 0024
0000 0024 0000 0024 0000 0024 0000 0024
0000 0024 0000 0024 0000 0024 0000 0024
0000 0024 0000 0024 0000 0024 0000 0024
0000 0024 0000 0024 0000 0024 0000 0024
0000 0024 0000 0024 0000 0024 0000 0024
0000 0024 0000 0024 0000 0024 0000 0024
0000 0024 0000 0024 0000 0024 0000 0024
0000 0024 0000 0024 0000 0024 0000 0024
0000 0024 0000 0024 0000 0024 0000 0024
0000 0024 0000 0024 0000 0024 0000 0024
0000 0024 0000 0024 0000 0024 0000 0024
0000 0024 0000 0024 0000 0024 0000 0024
0000 0024 0000 0024 0000 0024 0000 0024
0000 0024 0000 0024 0000 0024 0000 0024
0000 0024 0000 0024 0000 0024 0000 0024
0000 0024 0000 0024 0000 0024 0000 0024
0000 0024 0000 0024 0000 0024 0000 0024
0000 0024 0000 0024 0000 0024 0000 0024
0000 0024 0000 0024 0000 0024 0000 0024
0000 0024 0000 0024 0000 0024 0000 0024
0000 0024 0000 0024 0000 0024 0000 0024
0000 0024 0000 0024 0000 0024 0000 0024
0000 0024 0000 0024 0000 0024 0000 0024
0000 0024 0000 0024 0000 0024 0000 0024
0000 0024 0000 0024 0000 0024 0000 0024
0000 0024 0000 0024 0000 0024 0000 0024
0000 0024 0000 0024 0000 0024 0000 0024
0000 0024 0000 0024 0000 0024 0000 0024
0000 0024 0000 0024 0000 0024 0000 0024
0000 0024 0000 0024 0000 0024 0000 0024
0000 0024 0000 0024 0000 0024 0000 0024
0000 0024 0000 0024 0000 0024 0000 0024
0000 0024 0000 0024 0000 0024 0000 0024
0000 0024 0000 0024 0000 0024 0000 0024
0000 0024 0000 0024 0000 0024 0000 0024
0000 0024 0000 0024 0000 0024 0000 0024
0000 0024 0000 0024 0000 0024 0000 0024
0000 0024 0000 0024 0000 0024 0000 0024
0000 0024 0000 0024 0000 0024 0000 0024
0000 0024 0000 0024 0000 0024 0000 0024
0000 0024 0000 0024 0000 0024 0000 0024
0000 0024 0000 0024 0000 0024 0000 0024
0000 0024 0000 0024 0000 0024 0000 0024
0000 0024 0000 0024 0000 0024 0000 0024
0000 0024 0000 0024 0000 0024 0000 0024
0000 0024 0000 0024 0000 0024 0000 0024
0000 0024 0000 0024 0000 0024 0000 0024
0000 0024 0000 0024 0000 0024 0000 0024
0000 0024 0000 0024 0000 0024 0000 0024
0000 0024 0000 0024 0000 0024 0000 0024
0000 0024 0000 0024 0000 0024 0000 0024
0000 0024 0000 0024 0000 0024 0000 0024
0000 0024 0000 0024 0000 0024 0000 0024
0000 0024 0000 0024 0000 0024 0000 0024
0000 0024 0000 0024 0000 0024 0000 0024
0000 0024 0000 0024 0000 0024 0000 0024
0000 0024 0000 0024 0000 0024 0000 0024
0000 0024 0000 0024 0000 0024 0000 0024
0000 0024 0000 0024 0000 0024 0000 0024
0000 0024 0000 0024 0000 0024 0000 0024
0000 0024 0000 0024 0000 0024 0000 0024
0000 0024 0000 0024 0000 0024 0000 0024
0000 0024 0000 0024 0000 0024 0000 0024
0000 0024 0000 0024 0000 0024 0000 0024
0000 0024 0000 0024 0000 0024 0000 0024
0000 0024 0000 0024 0000 0024 0000 0024
0000 0024 0000 0024 0000 0024 0000 0024
0000 0024 0000 0024 0000 0024 0000 0024
0000 0024 0000 0024 0000 0024 0000 0024
0000 0024 0000 0024 0000 0024 0000 0024
0000 0024 0000 0024 0000 0024 0000 0024
0000 0024 0000 0024 0000 0024 0000 0024
0000 0024 0000 0024 0000 0024 0000 0024
0000 0024 0000 0024 0000 0024 0000 0024
0000 0024 0000 0024 0000 0024 0000 0024
0000 0024 0000 0024 0000 0024 0000 0024
0000 0024 0000 0024 0000 0024 0000 0024
0000 0024 0000 0024 0000 0024 0000 0024
0000 0024 0000 0024 0000 0024 0000 0024
0000 0024 0000 0024 0000 0024 0000 0024
0000 0024 0000 0024 0000 0024 0000 0024
0000 0024 0000 0024 0000 0024 0000 0024
0000 0024 0000 0024 0000 0024 0000 0024
0000 0024 0000 0024 0000 0024 0000 0024
0000 0024 0000 0024 0000 0024 0000 0024
0000 0024 0000 0024 0000 0024 0000 0024
0000 0024 0000 0024 0000 0024 0000 0024
0000 0024 0000 0024 0000 0024 0000 0024
0000 0024 0000 0024 0000 0024 0000 0024
0000 0024 0000 0024 0000 0024 0000 0024
0000 0024 0000 0024 0000 0024 0000 0024
0000 0024 0000 0024 0000 0024 0000 0024
0000 0024 0000 0024 0000 0024 0000 0024
0000 0024 0000 0024 0000 0024 0000 0024
0000 0024 0000 0024 0000 0024 0000 0024
0000 0024 0000 0024 0000 0024 0000 0024
0000 0024 0000 0024 0000 0024 0000 0024
0000 0024 0000 0024 0000 0024 0000 0024
0000 0024 0000 0024 0000 0024 0000 0024
0000 0024 0000 0024 0000 0024 0000 0024
0000 0024 0000 0024 0000 0024 0000 0024
0000 0024 0000 0024 0000 0024 0000 0024
0000 0024 0000 0024 0000 0024 0000 0024
0000 0024 0000 0024 0000 0024 0000 0024
0000 0024 0000 0024 0000 0024 0000 0024
0000 0024 0000 0024 0000 0024 0000 0024
0000 0024 0000 0024 0000 0024 0000 0024
0000 0024 0000 0024 0000 0024 0000 0024
0000 0024 0000 0024 0000 0024 0000 0024
0000 0024 0000 0024 0000 0024 0000 0024
0000 0024 0000 0024 0000 0024 0000 0024
0000 0024 0000 0024 0000 0024 0000 0024
0000 0024 0000 0024 0000 0024 0000 0024
0000 0024 0000 0024 0000 0024 0000 0024
0000 0024 0000 0024 0000 0024 0000 0024
0000 0024 0000 0024 0000 0024 0000 0024
0000 0024 0000 0024 0000 0024 0000 0024
0000 0024 0000 0024 0000 0024 0000 0024
0000 0024 0000 0024 0000 0024 0000 0024
0000 0024 0000 0024 0000 0024 0000 0024
0000 0024 0000 0024 0000 0024 0000 0024
0000 0024 0000 0024 0000 0024 0000 0024
0000 0024 0000 0024 0000 0024 0000 0024
0000 0024 0000 0024 0000 0024 0000 0024
0000 0024 0000 0024 0000 0024 0000 0024
0000 0024 0000 0024 0000 0024 0000 0024
0000 0024 0000 0024 0000 0024 0000 0024
0000 0024 0000 0024 0000 0024 0000 0024
0000 0024 0000 0024 0000 0024 0000 0024
0000 0024 0000 0024 0000 0024 0000 0024
0000 0024 0000 0024 0000 0024 0000 0024
0000 0024 0000 0024 0000 0024 0000 0024
0000 0024 0000 0024 0000 0024 0000 0024
0000 0024 0000 0024 0000 0024 0000 0024
0000 0024 0000 0024 0000 0024 0000 0024
0000 0024 0000 0024 0000 0024 0000 0024
0000 0024 0000 0024 0000 0024 0000 0024
0000 0024 0000 0024 0000 0024 0000 0024
0000 0024 0000 0024 0000 0024 0000 0024
0000 0024 0000 0024 0000 0024 0000 0024
0000 0024 0000 0024 0000 0024 0000 0024
0000 0024 0000 0024 0000 0024 0000 0024
0000 0024 0000 0024 0000 0024 0000 0024
0000 0024 0000 0024 0000 0024 0000 0024
0000 0024 0000 0024 0000 0024 0000 0024
0000 0024 0000 0024 0000 0024 0000 0024
0000 0024 0000 0024 0000 0024 0000 0024
0000 0024 0000 0024 0000 0024 0000 0024
0000 0024 0000 0024 0000 0024 0000 0024
0000 0024 0000 0024 0000 0024 0000 0024
0000 0024 0000 0024 0000 0024 0000 0024
0000 0024 0000 0024 0000 0024 0000 0024
0000 0024 0000 0024 0000 0024 0000 0024
0000 0024 0000 0024 0000 0024 0000 0024
0000 0024 0000 0024 0000 0024 0000 0024
0000 0024 0000 0024 0000 0024 0000 0024
0000 0024 0000 0024 0000 0024 0000 0024
0000 0024 0000 0024 0000 0024 0000 0024
0000 0024 0000 0024 0000 0024 0000 0024
0000 0024 0000 0024 0000 0024 0000 0024
0000 0024 0000 0024 0000 0024 0000 0024
0000 0024 0000 0024 0000 0024 0000 0024
0000 0024 0000 0024 0000 0024 0000 0024
0000 0024 0000 0024 0000 0024 0000 0024
0000 0024 0000 0024 0000 0024 0000 0024
0000 0024 0000 0024 0000 0024 0000 0024
0000 0024 0000 0024 0000 0024 0000 0024
0000 0024 0000 0024 0000 0024 0000 0024
0000 0024 0000 0024 0000 0024 0000 0024
0000 0024 0000 0024 0000 0024 0000 0024
0000 0024 0000 0024 0000 0024 0000 0024
0000 0024 0000 0024 0000 0024 0000 0024
0000 0024 0000 0024 0000 0024 0000 0024
0000 0024 0000 0024 0000 0024 0000 0024
0000 0024 0000 0024 0000 0024 0000 0024
0000 0024 0000 0024 0000 0024 0000 0024
0000 0024 0000 0024 0000 0024 0000 0024
0000 0024 0000 0024 0000 0024 0000 0024
0000 0024 0000 0024 0000 0024 0000 0024
0000 0024 0000 0024 0000 0024 0000 0024
0000 0024 0000 0024 0000 0024 0000 0024
0000 0024 0000 0024 0000 0024 0000 0024
0000 0024 0000 0024 0000 0024 0000 0024
0000 0024 0000 0024 0000 0024 0000 0024
0000 0024 0000 0024 0000 0024 0000 0024
0000 0024 0000 0024 0000 0024 0000 0024
0000 0024 0000 0024 0000 0024 0000 0024
0000 0024 0000 0024 0000 0024 0000 0024
0000 0024 0000 0024 0000 0024 0000 0024
0000 0024 0000 0024 0000 0024 0000 0024
0000 0024 0000 0024 0000 0024 0000 0024
0000 0024 0000 0024 0000 0024 0000 0024
0000 0024 0000 0024 0000 0024 0000 0024
0000 0024 0000 0024 0000 0024 0000 0024
0000 0024 0000 0024 0000 0024 0000 0024
0000 0024 0000 0024 0000 0024 0000 0024
0000 0024 0000 0024 0000 0024 0000 0024
0000 0024 0000 0024 0000 0024 0000 0024
0000 0024 0000 0024 0000 0024 0000 0024
0000 0024 0000 0024 0000 0024 0000 0024
0000 0024 0000 0024 0000 0024 0000 0024
0000 0024 0000 0024 0000 0024 0000 0024
0000 0024 0000 0024 0000 0024 0000 0024
0000 0024 0000 0024 0000 0024 0000 0024
0000 0024 0000 0024 0000 0024 0000 0024
0000 0024 0000 0024 0000 0024 0000 0024
0000 0024 0000 0024 0000 0024 0000 0024
0000 0024 0000 0024 0000 0024 0000 0024
0000 0024 0000 0024 0000 0024 0000 0024
0000 0024 0000 0024 0000 0024 0000 0024
0000 0024 0000 0024 0000 0024 0000 0024
0000 0024 0000 0024 0000 0024 0000 0024
0000 0024 0000 0024 0000 0024 0000 0024
0000 0024 0000 0024 0000 0024 0000 0024
0000 0024 0000 0024 0000 0024 0000 0024
0000 0024 0000 0024 0000 0024 0000 0024
0000 0024 0000 0024 0000 0024 0000 0024
0000 0024 0000 0024 0000 0024 0000 0024
0000 0024 0000 0024 0000 0024 0000 0024
0000 0024 0000 0024 0000 0024 0000 0024
0000 0024 0000 0024 0000 0024 0000 0024
0000 0024 0000 0024 0000 0024 0000 0024
0000 0024 0000 0024 0000 0024 0000 0024
0000 0024 0000 0024 0000 0024 0000 0024
0000 0024 0000 0024 0000 0024 0000 0024
0000 0024 0000 0024 0000 0024 0000 0024
0000 0024 0000 0024 0000 0024 0000 0024
0000 0024 0000 0024 0000 0024 0000 0024
0000 0024 0000 0024 0000 0024 0000 0024
0000 0024 0000 0024 0000 0024 0000 0024
0000 0024 0000 0024 0000 0024 0000 0024
0000 0024 0000 0024 0000 0024 0000 0024
0000 0024 0000 0024 0000 0024 0000 0024
0000 0024 0000 0024 0000 0024 0000 0024
0000 0024 0000 0024 0000 0024 0000 0024
0000 0024 0000 0024 0000 0024 0000 0024
0000 0024 0000 0024 0000 0024 0000 0024
0000 0024 0000 0024 0000 0024 0000 0024
0000 0024 0000 0024 0000 0024 0000 0024
0000 0024 0000 0024 0000 0024 0000 0024