0000 0022 0000 0022 0000 0022 0000 0022
0000 0022 0000 0022 0000 0022 0000 0022
0000 0022 0000 0022 0000 0022 0000 0022
0000 0022 0000 0022 0000 0022 0000 0022
0000 0022 0000 0022 0000 0022 0000 0022
0000 0000 0000 0000 0000 0000 0000 0000
0000 0000 0000 0000 0000 0000 0000 0000
0000 0000 0000 0000 0000 0000 0000 0000
0000 0022 0000 0022 0000 0022 0000 0022
0000 0022 0000 0022 0000 0022 0000 0022
0000 0022 0000 0022 0000 0022 0000 0022
0000 0022 0000 0022 0000 0022 0000 0022
0000 0022 0000 0022 0000 0022 0000 0022
0000 0000 0000 0000 0000 0000 0000 0000
0000 0000 0000 0000 0000 0000 0000 0000
0000 0000 0000 0000 0000 0000 0000 0000
0000 0022 0000 0022 0000 0022 0000 0022
0000 0022 0000 0022 0000 0022 0000 0022
0000 0022 0000 0022 0000 0022 0000 0022
0000 0022 0000 0022 0000 0022 0000 0022
0000 0022 0000 0022 0000 0022 0000 0022
0000 0000 0000 0000 0000 0000 0000 0000
0000 0000 0000 0000 0000 0000 0000 0000
0000 0000 0000 0000 0000 0000 0000 0000
0000 0022 0000 0022 0000 0022 0000 0022
0000 0022 0000 0022 0000 0022 0000 0022
0000 0022 0000 0022 0000 0022 0000 0022
0000 0022 0000 0022 0000 0022 0000 0022
0000 0022 0000 0022 0000 0022 0000 0022
0000 0000 0000 0000 0000 0000 0000 0000
0000 0000 0000 0000 0000 0000 0000 0000
0000 0000 0000 0000 0000 0000 0000 0000
0000 0022 0000 0022 0000 0022 0000 0022
0000 0022 0000 0022 0000 0022 0000 0022
0000 0022 0000 0022 0000 0022 0000 0022
0000 0022 0000 0022 0000 0022 0000 0022
0000 0022 0000 0022 0000 0022 0000 0022
0000 0000 0000 0000 0000 0000 0000 0000
0000 0000 0000 0000 0000 0000 0000 0000
0000 0000 0000 0000 0000 0000 0000 0000
0000 0022 0000 0022 0000 0022 0000 0022
0000 0022 0000 0022 0000 0022 0000 0022
0000 0022 0000 0022 0000 0022 0000 0022
0000 0022 0000 0022 0000 0022 0000 0022
0000 0022 0000 0022 0000 0022 0000 0022
0000 0000 0000 0000 0000 0000 0000 0000
0000 0000 0000 0000 0000 0000 0000 0000
0000 0000 0000 0000 0000 0000 0000 0000
0000 0022 0000 0022 0000 0022 0000 0022
0000 0022 0000 0022 0000 0022 0000 0022
0000 0022 0000 0022 0000 0022 0000 0022
0000 0022 0000 0022 0000 0022 0000 0022
0000 0022 0000 0022 0000 0022 0000 0022
0000 0000 0000 0000 0000 0000 0000 0000
0000 0000 0000 0000 0000 0000 0000 0000
0000 0000 0000 0000 0000 0000 0000 0000
0000 0022 0000 0022 0000 0022 0000 0022
0000 0022 0000 0022 0000 0022 0000 0022
0000 0022 0000 0022 0000 0022 0000 0022
0000 0022 0000 0022 0000 0022 0000 0022
0000 0022 0000 0022 0000 0022 0000 0022
0000 0000 0000 0000 0000 0000 0000 0000
0000 0000 0000 0000 0000 0000 0000 0000
0000 0000 0000 0000 0000 0000 0000 0000
0000 0022 0000 0022 0000 0022 0000 0022
0000 0022 0000 0022 0000 0022 0000 0022
0000 0022 0000 0022 0000 0022 0000 0022
0000 0022 0000 0022 0000 0022 0000 0022
0000 0022 0000 0022 0000 0022 0000 0022
0000 0000 0000 0000 0000 0000 0000 0000
0000 0000 0000 0000 0000 0000 0000 0000
0000 0000 0000 0000 0000 0000 0000 0000
0000 0022 0000 0022 0000 0022 0000 0022
0000 0022 0000 0022 0000 0022 0000 0022
0000 0022 0000 0022 0000 0022 0000 0022
0000 0022 0000 0022 0000 0022 0000 0022
0000 0022 0000 0022 0000 0022 0000 0022
0000 0000 0000 0000 0000 0000 0000 0000
0000 0000 0000 0000 0000 0000 0000 0000
0000 0000 0000 0000 0000 0000 0000 0000
0000 0022 0000 0022 0000 0022 0000 0022
0000 0022 0000 0022 0000 0022 0000 0022
0000 0022 0000 0022 0000 0022 0000 0022
0000 0022 0000 0022 0000 0022 0000 0022
0000 0022 0000 0022 0000 0022 0000 0022
0000 0000 0000 0000 0000 0000 0000 0000
0000 0000 0000 0000 0000 0000 0000 0000
0000 0000 0000 0000 0000 0000 0000 0000
0000 0022 0000 0022 0000 0022 0000 0022
0000 0022 0000 0022 0000 0022 0000 0022
0000 0022 0000 0022 0000 0022 0000 0022
0000 0022 0000 0022 0000 0022 0000 0022
0000 0022 0000 0022 0000 0022 0000 0022
0000 0000 0000 0000 0000 0000 0000 0000
0000 0000 0000 0000 0000 0000 0000 0000
0000 0000 0000 0000 0000 0000 0000 0000
0000 0022 0000 0022 0000 0022 0000 0022
0000 0022 0000 0022 0000 0022 0000 0022
0000 0022 0000 0022 0000 0022 0000 0022
0000 0022 0000 0022 0000 0022 0000 0022
0000 0022 0000 0022 0000 0022 0000 0022
0000 0000 0000 0000 0000 0000 0000 0000
0000 0000 0000 0000 0000 0000 0000 0000
0000 0000 0000 0000 0000 0000 0000 0000
0000 0022 0000 0022 0000 0022 0000 0022
0000 0022 0000 0022 0000 0022 0000 0022
0000 0022 0000 0022 0000 0022 0000 0022
0000 0022 0000 0022 0000 0022 0000 0022
0000 0022 0000 0022 0000 0022 0000 0000
0000 0000 0000 0000 0000 0000 0000 0000
0000 0000 0000 0000 0000 0000 0000 0000
0000 0000 0000 0000 0000 0000 0000 0000
0000 0022 0000 0022 0000 0022 0000 0022
0000 0022 0000 0022 0000 0022 0000 0022
0000 0022 0000 0022 0000 0022 0000 0022
0000 0022 0000 0022 0000 0022 0000 0022
0000 0022 0000 0022 0000 0000 0000 0000
0000 0000 0000 0000 0000 0000 0000 0000
0000 0000 0000 0000 0000 0000 0000 0000
0000 0000 0000 0000 0000 0000 0000 0000
0000 0022 0000 0022 0000 0022 0000 0022
0000 0022 0000 0022 0000 0022 0000 0022
0000 0022 0000 0022 0000 0022 0000 0022
0000 0022 0000 0022 0000 0022 0000 0022
0000 0022 0000 0000 0000 0000 0000 0000
0000 0000 0000 0000 0000 0000 0000 0000
0000 0000 0000 0000 0000 0000 0000 0000
0000 0000 0000 0000 0000 0000 0000 0000
0000 0022 0000 0022 0000 0022 0000 0022
0000 0022 0000 0022 0000 0022 0000 0022
0000 0022 0000 0022 0000 0022 0000 0022
0000 0022 0000 0022 0000 0022 0000 0022
0000 0000 0000 0000 0000 0000 0000 0000
0000 0000 0000 0000 0000 0000 0000 0000
0000 0000 0000 0000 0000 0000 0000 0000
0000 0000 0000 0000 0000 0000 0000 0000
0000 0022 0000 0022 0000 0022 0000 0022
0000 0022 0000 0022 0000 0022 0000 0022
0000 0022 0000 0022 0000 0022 0000 0022
0000 0022 0000 0022 0000 0022 0000 0000
0000 0000 0000 0000 0000 0000 0000 0000
0000 0000 0000 0000 0000 0000 0000 0000
0000 0000 0000 0000 0000 0000 0000 0000
0000 0000 0000 0000 0000 0000 0000 0000
0000 0022 0000 0022 0000 0022 0000 0022
0000 0022 0000 0022 0000 0022 0000 0022
0000 0022 0000 0022 0000 0022 0000 0022
0000 0022 0000 0022 0000 0000 0000 0000
0000 0000 0000 0000 0000 0000 0000 0000
0000 0000 0000 0000 0000 0000 0000 0000
0000 0000 0000 0000 0000 0000 0000 0000
0000 0000 0000 0000 0000 0000 0000 0000
0000 0022 0000 0022 0000 0022 0000 0022
0000 0022 0000 0022 0000 0022 0000 0022
0000 0022 0000 0022 0000 0022 0000 0022
0000 0022 0000 0000 0000 0000 0000 0000
0000 0000 0000 0000 0000 0000 0000 0000
0000 0000 0000 0000 0000 0000 0000 0000
0000 0000 0000 0000 0000 0000 0000 0000
0000 0000 0000 0000 0000 0000 0000 0000
0000 0022 0000 0022 0000 0022 0000 0022
0000 0022 0000 0022 0000 0022 0000 0022
0000 0022 0000 0022 0000 0022 0000 0022
0000 0000 0000 0000 0000 0000 0000 0000
0000 0000 0000 0000 0000 0000 0000 0000
0000 0000 0000 0000 0000 0000 0000 0000
0000 0000 0000 0000 0000 0000 0000 0000
0000 0000 0000 0000 0000 0000 0000 0000
0000 0022 0000 0022 0000 0022 0000 0022
0000 0022 0000 0022 0000 0022 0000 0022
0000 0022 0000 0022 0000 0022 0000 0000
0000 0000 0000 0000 0000 0000 0000 0000
0000 0000 0000 0000 0000 0000 0000 0000
0000 0000 0000 0000 0000 0000 0000 0000
0000 0000 0000 0000 0000 0000 0000 0000
0000 0000 0000 0000 0000 0000 0000 0000
0000 0000 0000 0000 0000 0000 0000 0000
0000 0000 0000 0000 0000 0000 0000 0000
0000 0000 0000 0000 0000 0022 0000 0022
0000 0022 0000 0022 0000 0022 0000 0022
0000 0022 0000 0022 0000 0022 0000 0022
0000 0000 0000 0000 0000 0000 0000 0000
0000 0000 0000 0000 0000 0000 0000 0000
0000 0000 0000 0000 0000 0000 0000 0000
0000 0000 0000 0000 0000 0000 0000 0000
0000 0000 0000 0000 0000 0000 0000 0000
0000 0000 0000 0022 0000 0022 0000 0022
0000 0022 0000 0022 0000 0022 0000 0022
0000 0022 0000 0022 0000 0022 0000 0022
0000 0000 0000 0000 0000 0000 0000 0000
0000 0000 0000 0000 0000 0000 0000 0000
0000 0000 0000 0000 0000 0000 0000 0000
0000 0000 0000 0000 0000 0000 0000 0000
0000 0000 0000 0000 0000 0000 0000 0000
0000 0022 0000 0022 0000 0022 0000 0022
0000 0022 0000 0022 0000 0022 0000 0022
0000 0022 0000 0022 0000 0022 0000 0022
0000 0000 0000 0000 0000 0000 0000 0000
0000 0000 0000 0000 0000 0000 0000 0000
0000 0000 0000 0000 0000 0000 0000 0000
0000 0000 0000 0000 0000 0000 0000 0000
0000 0000 0000 0000 0000 0000 0000 0022
0000 0022 0000 0022 0000 0022 0000 0022
0000 0022 0000 0022 0000 0022 0000 0022
0000 0022 0000 0022 0000 0022 0000 0022
0000 0000 0000 0000 0000 0000 0000 0000
0000 0000 0000 0000 0000 0000 0000 0000
0000 0000 0000 0000 0000 0000 0000 0000
0000 0000 0000 0000 0000 0000 0000 0000
0000 0000 0000 0000 0000 0022 0000 0022
0000 0022 0000 0022 0000 0022 0000 0022
0000 0022 0000 0022 0000 0022 0000 0022
0000 0022 0000 0022 0000 0022 0000 0022
0000 0000 0000 0000 0000 0000 0000 0000
0000 0000 0000 0000 0000 0000 0000 0000
0000 0000 0000 0000 0000 0000 0000 0000
0000 0000 0000 0000 0000 0000 0000 0000
0000 0000 0000 0022 0000 0022 0000 0022
0000 0022 0000 0022 0000 0022 0000 0022
0000 0022 0000 0022 0000 0022 0000 0022
0000 0022 0000 0022 0000 0022 0000 0022
0000 0000 0000 0000 0000 0000 0000 0000
0000 0000 0000 0000 0000 0000 0000 0000
0000 0000 0000 0000 0000 0000 0000 0000
0000 0000 0000 0000 0000 0000 0000 0000
0000 0022 0000 0022 0000 0022 0000 0022
0000 0022 0000 0022 0000 0022 0000 0022
0000 0022 0000 0022 0000 0022 0000 0022
0000 0022 0000 0022 0000 0022 0000 0022
0000 0000 0000 0000 0000 0000 0000 0000
0000 0000 0000 0000 0000 0000 0000 0000
0000 0000 0000 0000 0000 0000 0000 0000
0000 0000 0000 0000 0000 0000 0000 0022
0000 0022 0000 0022 0000 0022 0000 0022
0000 0022 0000 0022 0000 0022 0000 0022
0000 0022 0000 0022 0000 0022 0000 0022
0000 0022 0000 0022 0000 0022 0000 0022
0000 0000 0000 0000 0000 0000 0000 0000
0000 0000 0000 0000 0000 0000 0000 0000
0000 0000 0000 0000 0000 0000 0000 0000
0000 0000 0000 0000 0000 0022 0000 0022
0000 0022 0000 0022 0000 0022 0000 0022
0000 0022 0000 0022 0000 0022 0000 0022
0000 0022 0000 0022 0000 0022 0000 0022
0000 0022 0000 0022 0000 0022 0000 0022
0000 0000 0000 0000 0000 0000 0000 0000
0000 0000 0000 0000 0000 0000 0000 0000
0000 0000 0000 0000 0000 0000 0000 0000
0000 0000 0000 0022 0000 0022 0000 0022
0000 0022 0000 0022 0000 0022 0000 0022
0000 0022 0000 0022 0000 0022 0000 0022
0000 0022 0000 0022 0000 0022 0000 0022
0000 0022 0000 0022 0000 0022 0000 0022
0000 0000 0000 0000 0000 0000 0000 0000
0000 0000 0000 0000 0000 0000 0000 0000
0000 0000 0000 0000 0000 0000 0000 0000