0000 001e 0000 001e 0000 001e 0000 001e
0000 001e 0000 001e 0000 001e 0000 001e
0000 001e 0000 001e 0000 001e 0000 001e
0000 001e 0000 001e 0000 001e 0000 001e
0000 001e 0000 001e 0000 001e 0000 001e
0000 0000 0000 0000 0000 0000 0000 0000
0000 0000 0000 0000 0000 0000 0000 0000
0000 0000 0000 0000 0000 0000 0000 0000
0000 001e 0000 001e 0000 001e 0000 001e
0000 001e 0000 001e 0000 001e 0000 001e
0000 001e 0000 001e 0000 001e 0000 001e
0000 001e 0000 001e 0000 001e 0000 001e
0000 001e 0000 001e 0000 001e 0000 001e
0000 0000 0000 0000 0000 0000 0000 0000
0000 0000 0000 0000 0000 0000 0000 0000
0000 0000 0000 0000 0000 0000 0000 0000
0000 001e 0000 001e 0000 001e 0000 001e
0000 001e 0000 001e 0000 001e 0000 001e
0000 001e 0000 001e 0000 001e 0000 001e
0000 001e 0000 001e 0000 001e 0000 001e
0000 001e 0000 001e 0000 001e 0000 001e
0000 0000 0000 0000 0000 0000 0000 0000
0000 0000 0000 0000 0000 0000 0000 0000
0000 0000 0000 0000 0000 0000 0000 0000
0000 001e 0000 001e 0000 001e 0000 001e
0000 001e 0000 001e 0000 001e 0000 001e
0000 001e 0000 001e 0000 001e 0000 001e
0000 001e 0000 001e 0000 001e 0000 001e
0000 001e 0000 001e 0000 001e 0000 001e
0000 0000 0000 0000 0000 0000 0000 0000
0000 0000 0000 0000 0000 0000 0000 0000
0000 0000 0000 0000 0000 0000 0000 0000
0000 001e 0000 001e 0000 001e 0000 001e
0000 001e 0000 001e 0000 001e 0000 001e
0000 001e 0000 001e 0000 001e 0000 001e
0000 001e 0000 001e 0000 001e 0000 001e
0000 001e 0000 001e 0000 001e 0000 001e
0000 0000 0000 0000 0000 0000 0000 0000
0000 0000 0000 0000 0000 0000 0000 0000
0000 0000 0000 0000 0000 0000 0000 0000
0000 001e 0000 001e 0000 001e 0000 001e
0000 001e 0000 001e 0000 001e 0000 001e
0000 001e 0000 001e 0000 001e 0000 001e
0000 001e 0000 001e 0000 001e 0000 001e
0000 001e 0000 001e 0000 001e 0000 001e
0000 0000 0000 0000 0000 0000 0000 0000
0000 0000 0000 0000 0000 0000 0000 0000
0000 0000 0000 0000 0000 0000 0000 0000
0000 001e 0000 001e 0000 001e 0000 001e
0000 001e 0000 001e 0000 001e 0000 001e
0000 001e 0000 001e 0000 001e 0000 001e
0000 001e 0000 001e 0000 001e 0000 001e
0000 001e 0000 001e 0000 001e 0000 001e
0000 0000 0000 0000 0000 0000 0000 0000
0000 0000 0000 0000 0000 0000 0000 0000
0000 0000 0000 0000 0000 0000 0000 0000
0000 001e 0000 001e 0000 001e 0000 001e
0000 001e 0000 001e 0000 001e 0000 001e
0000 001e 0000 001e 0000 001e 0000 001e
0000 001e 0000 001e 0000 001e 0000 001e
0000 001e 0000 001e 0000 001e 0000 001e
0000 0000 0000 0000 0000 0000 0000 0000
0000 0000 0000 0000 0000 0000 0000 0000
0000 0000 0000 0000 0000 0000 0000 0000
0000 001e 0000 001e 0000 001e 0000 001e
0000 001e 0000 001e 0000 001e 0000 001e
0000 001e 0000 001e 0000 001e 0000 001e
0000 001e 0000 001e 0000 001e 0000 001e
0000 001e 0000 001e 0000 001e 0000 001e
0000 0000 0000 0000 0000 0000 0000 0000
0000 0000 0000 0000 0000 0000 0000 0000
0000 0000 0000 0000 0000 0000 0000 0000
0000 001e 0000 001e 0000 001e 0000 001e
0000 001e 0000 001e 0000 001e 0000 001e
0000 001e 0000 001e 0000 001e 0000 001e
0000 001e 0000 001e 0000 001e 0000 001e
0000 001e 0000 001e 0000 001e 0000 001e
0000 0000 0000 0000 0000 0000 0000 0000
0000 0000 0000 0000 0000 0000 0000 0000
0000 0000 0000 0000 0000 0000 0000 0000
0000 001e 0000 001e 0000 001e 0000 001e
0000 001e 0000 001e 0000 001e 0000 001e
0000 001e 0000 001e 0000 001e 0000 001e
0000 001e 0000 001e 0000 001e 0000 001e
0000 001e 0000 001e 0000 001e 0000 001e
0000 0000 0000 0000 0000 0000 0000 0000
0000 0000 0000 0000 0000 0000 0000 0000
0000 0000 0000 0000 0000 0000 0000 0000
0000 001e 0000 001e 0000 001e 0000 001e
0000 001e 0000 001e 0000 001e 0000 001e
0000 001e 0000 001e 0000 001e 0000 001e
0000 001e 0000 001e 0000 001e 0000 001e
0000 001e 0000 001e 0000 001e 0000 001e
0000 0000 0000 0000 0000 0000 0000 0000
0000 0000 0000 0000 0000 0000 0000 0000
0000 0000 0000 0000 0000 0000 0000 0000
0000 001e 0000 001e 0000 001e 0000 001e
0000 001e 0000 001e 0000 001e 0000 001e
0000 001e 0000 001e 0000 001e 0000 001e
0000 001e 0000 001e 0000 001e 0000 001e
0000 001e 0000 001e 0000 001e 0000 001e
0000 0000 0000 0000 0000 0000 0000 0000
0000 0000 0000 0000 0000 0000 0000 0000
0000 0000 0000 0000 0000 0000 0000 0000
0000 001e 0000 001e 0000 001e 0000 001e
0000 001e 0000 001e 0000 001e 0000 001e
0000 001e 0000 001e 0000 001e 0000 001e
0000 001e 0000 001e 0000 001e 0000 001e
0000 001e 0000 001e 0000 001e 0000 0000
0000 0000 0000 0000 0000 0000 0000 0000
0000 0000 0000 0000 0000 0000 0000 0000
0000 0000 0000 0000 0000 0000 0000 0000
0000 001e 0000 001e 0000 001e 0000 001e
0000 001e 0000 001e 0000 001e 0000 001e
0000 001e 0000 001e 0000 001e 0000 001e
0000 001e 0000 001e 0000 001e 0000 001e
0000 001e 0000 001e 0000 0000 0000 0000
0000 0000 0000 0000 0000 0000 0000 0000
0000 0000 0000 0000 0000 0000 0000 0000
0000 0000 0000 0000 0000 0000 0000 0000
0000 001e 0000 001e 0000 001e 0000 001e
0000 001e 0000 001e 0000 001e 0000 001e
0000 001e 0000 001e 0000 001e 0000 001e
0000 001e 0000 001e 0000 001e 0000 001e
0000 001e 0000 0000 0000 0000 0000 0000
0000 0000 0000 0000 0000 0000 0000 0000
0000 0000 0000 0000 0000 0000 0000 0000
0000 0000 0000 0000 0000 0000 0000 0000
0000 001e 0000 001e 0000 001e 0000 001e
0000 001e 0000 001e 0000 001e 0000 001e
0000 001e 0000 001e 0000 001e 0000 001e
0000 001e 0000 001e 0000 001e 0000 001e
0000 0000 0000 0000 0000 0000 0000 0000
0000 0000 0000 0000 0000 0000 0000 0000
0000 0000 0000 0000 0000 0000 0000 0000
0000 0000 0000 0000 0000 0000 0000 0000
0000 001e 0000 001e 0000 001e 0000 001e
0000 001e 0000 001e 0000 001e 0000 001e
0000 001e 0000 001e 0000 001e 0000 001e
0000 001e 0000 001e 0000 001e 0000 0000
0000 0000 0000 0000 0000 0000 0000 0000
0000 0000 0000 0000 0000 0000 0000 0000
0000 0000 0000 0000 0000 0000 0000 0000
0000 0000 0000 0000 0000 0000 0000 0000
0000 001e 0000 001e 0000 001e 0000 001e
0000 001e 0000 001e 0000 001e 0000 001e
0000 001e 0000 001e 0000 001e 0000 001e
0000 001e 0000 001e 0000 0000 0000 0000
0000 0000 0000 0000 0000 0000 0000 0000
0000 0000 0000 0000 0000 0000 0000 0000
0000 0000 0000 0000 0000 0000 0000 0000
0000 0000 0000 0000 0000 0000 0000 0000
0000 001e 0000 001e 0000 001e 0000 001e
0000 001e 0000 001e 0000 001e 0000 001e
0000 001e 0000 001e 0000 001e 0000 001e
0000 001e 0000 0000 0000 0000 0000 0000
0000 0000 0000 0000 0000 0000 0000 0000
0000 0000 0000 0000 0000 0000 0000 0000
0000 0000 0000 0000 0000 0000 0000 0000
0000 0000 0000 0000 0000 0000 0000 0000
0000 001e 0000 001e 0000 001e 0000 001e
0000 001e 0000 001e 0000 001e 0000 001e
0000 001e 0000 001e 0000 001e 0000 001e
0000 0000 0000 0000 0000 0000 0000 0000
0000 0000 0000 0000 0000 0000 0000 0000
0000 0000 0000 0000 0000 0000 0000 0000
0000 0000 0000 0000 0000 0000 0000 0000
0000 0000 0000 0000 0000 0000 0000 0000
0000 001e 0000 001e 0000 001e 0000 001e
0000 001e 0000 001e 0000 001e 0000 001e
0000 001e 0000 001e 0000 001e 0000 0000
0000 0000 0000 0000 0000 0000 0000 0000
0000 0000 0000 0000 0000 0000 0000 0000
0000 0000 0000 0000 0000 0000 0000 0000
0000 0000 0000 0000 0000 0000 0000 0000
0000 0000 0000 0000 0000 0000 0000 0000
0000 0000 0000 0000 0000 0000 0000 0000
0000 0000 0000 0000 0000 0000 0000 0000
0000 0000 0000 0000 0000 001e 0000 001e
0000 001e 0000 001e 0000 001e 0000 001e
0000 001e 0000 001e 0000 001e 0000 001e
0000 0000 0000 0000 0000 0000 0000 0000
0000 0000 0000 0000 0000 0000 0000 0000
0000 0000 0000 0000 0000 0000 0000 0000
0000 0000 0000 0000 0000 0000 0000 0000
0000 0000 0000 0000 0000 0000 0000 0000
0000 0000 0000 001e 0000 001e 0000 001e
0000 001e 0000 001e 0000 001e 0000 001e
0000 001e 0000 001e 0000 001e 0000 001e
0000 0000 0000 0000 0000 0000 0000 0000
0000 0000 0000 0000 0000 0000 0000 0000
0000 0000 0000 0000 0000 0000 0000 0000
0000 0000 0000 0000 0000 0000 0000 0000
0000 0000 0000 0000 0000 0000 0000 0000
0000 001e 0000 001e 0000 001e 0000 001e
0000 001e 0000 001e 0000 001e 0000 001e
0000 001e 0000 001e 0000 001e 0000 001e
0000 0000 0000 0000 0000 0000 0000 0000
0000 0000 0000 0000 0000 0000 0000 0000
0000 0000 0000 0000 0000 0000 0000 0000
0000 0000 0000 0000 0000 0000 0000 0000
0000 0000 0000 0000 0000 0000 0000 001e
0000 001e 0000 001e 0000 001e 0000 001e
0000 001e 0000 001e 0000 001e 0000 001e
0000 001e 0000 001e 0000 001e 0000 001e
0000 0000 0000 0000 0000 0000 0000 0000
0000 0000 0000 0000 0000 0000 0000 0000
0000 0000 0000 0000 0000 0000 0000 0000
0000 0000 0000 0000 0000 0000 0000 0000
0000 0000 0000 0000 0000 001e 0000 001e
0000 001e 0000 001e 0000 001e 0000 001e
0000 001e 0000 001e 0000 001e 0000 001e
0000 001e 0000 001e 0000 001e 0000 001e
0000 0000 0000 0000 0000 0000 0000 0000
0000 0000 0000 0000 0000 0000 0000 0000
0000 0000 0000 0000 0000 0000 0000 0000
0000 0000 0000 0000 0000 0000 0000 0000
0000 0000 0000 001e 0000 001e 0000 001e
0000 001e 0000 001e 0000 001e 0000 001e
0000 001e 0000 001e 0000 001e 0000 001e
0000 001e 0000 001e 0000 001e 0000 001e
0000 0000 0000 0000 0000 0000 0000 0000
0000 0000 0000 0000 0000 0000 0000 0000
0000 0000 0000 0000 0000 0000 0000 0000
0000 0000 0000 0000 0000 0000 0000 0000
0000 001e 0000 001e 0000 001e 0000 001e
0000 001e 0000 001e 0000 001e 0000 001e
0000 001e 0000 001e 0000 001e 0000 001e
0000 001e 0000 001e 0000 001e 0000 001e
0000 0000 0000 0000 0000 0000 0000 0000
0000 0000 0000 0000 0000 0000 0000 0000
0000 0000 0000 0000 0000 0000 0000 0000
0000 0000 0000 0000 0000 0000 0000 001e
0000 001e 0000 001e 0000 001e 0000 001e
0000 001e 0000 001e 0000 001e 0000 001e
0000 001e 0000 001e 0000 001e 0000 001e
0000 001e 0000 001e 0000 001e 0000 001e
0000 0000 0000 0000 0000 0000 0000 0000
0000 0000 0000 0000 0000 0000 0000 0000
0000 0000 0000 0000 0000 0000 0000 0000
0000 0000 0000 0000 0000 001e 0000 001e
0000 001e 0000 001e 0000 001e 0000 001e
0000 001e 0000 001e 0000 001e 0000 001e
0000 001e 0000 001e 0000 001e 0000 001e
0000 001e 0000 001e 0000 001e 0000 001e
0000 0000 0000 0000 0000 0000 0000 0000
0000 0000 0000 0000 0000 0000 0000 0000
0000 0000 0000 0000 0000 0000 0000 0000
0000 0000 0000 001e 0000 001e 0000 001e
0000 001e 0000 001e 0000 001e 0000 001e
0000 001e 0000 001e 0000 001e 0000 001e
0000 001e 0000 001e 0000 001e 0000 001e
0000 001e 0000 001e 0000 001e 0000 001e
0000 0000 0000 0000 0000 0000 0000 0000
0000 0000 0000 0000 0000 0000 0000 0000
0000 0000 0000 0000 0000 0000 0000 0000