0000 001f 0000 001f 0000 001f 0000 001f
0000 001f 0000 001f 0000 001f 0000 001f
0000 001f 0000 001f 0000 001f 0000 001f
0000 001f 0000 001f 0000 001f 0000 001f
0000 001f 0000 001f 0000 001f 0000 001f
0000 001f 0000 001f 0000 001f 0000 001f
0000 001f 0000 001f 0000 001f 0000 001f
0000 001f 0000 001f 0000 001f 0000 001f
0000 001f 0000 001f 0000 001f 0000 001f
0000 001f 0000 001f 0000 001f 0000 001f
0000 001f 0000 001f 0000 001f 0000 001f
0000 001f 0000 001f 0000 001f 0000 001f
0000 001f 0000 001f 0000 001f 0000 001f
0000 001f 0000 001f 0000 001f 0000 001f
0000 001f 0000 001f 0000 001f 0000 001f
0000 001f 0000 001f 0000 001f 0000 001f
0000 001f 0000 001f 0000 001f 0000 001f
0000 001f 0000 001f 0000 001f 0000 001f
0000 001f 0000 001f 0000 001f 0000 001f
0000 001f 0000 001f 0000 001f 0000 001f
0000 001f 0000 001f 0000 001f 0000 001f
0000 001f 0000 001f 0000 001f 0000 001f
0000 001f 0000 001f 0000 001f 0000 001f
0000 001f 0000 001f 0000 001f 0000 001f
0000 001f 0000 001f 0000 001f 0000 001f
0000 001f 0000 001f 0000 001f 0000 001f
0000 001f 0000 001f 0000 001f 0000 001f
0000 001f 0000 001f 0000 001f 0000 001f
0000 001f 0000 001f 0000 001f 0000 001f
0000 001f 0000 001f 0000 001f 0000 001f
0000 001f 0000 001f 0000 001f 0000 001f
0000 001f 0000 001f 0000 001f 0000 001f
0000 001f 0000 001f 0000 001f 0000 001f
0000 001f 0000 001f 0000 001f 0000 001f
0000 001f 0000 001f 0000 001f 0000 001f
0000 001f 0000 001f 0000 001f 0000 001f
0000 001f 0000 001f 0000 001f 0000 001f
0000 001f 0000 001f 0000 001f 0000 001f
0000 001f 0000 001f 0000 001f 0000 001f
0000 001f 0000 001f 0000 001f 0000 001f
0000 001f 0000 001f 0000 001f 0000 001f
0000 001f 0000 001f 0000 001f 0000 001f
0000 001f 0000 001f 0000 001f 0000 001f
0000 001f 0000 001f 0000 001f 0000 001f
0000 001f 0000 001f 0000 001f 0000 001f
0000 001f 0000 001f 0000 001f 0000 001f
0000 001f 0000 001f 0000 001f 0000 001f
0000 001f 0000 001f 0000 001f 0000 001f
0000 001f 0000 001f 0000 001f 0000 001f
0000 001f 0000 001f 0000 001f 0000 001f
0000 001f 0000 001f 0000 001f 0000 001f
0000 001f 0000 001f 0000 001f 0000 001f
0000 001f 0000 001f 0000 001f 0000 001f
0000 001f 0000 001f 0000 001f 0000 001f
0000 001f 0000 001f 0000 001f 0000 001f
0000 001f 0000 001f 0000 001f 0000 001f
0000 001f 0000 001f 0000 001f 0000 001f
0000 001f 0000 001f 0000 001f 0000 001f
0000 001f 0000 001f 0000 001f 0000 001f
0000 001f 0000 001f 0000 001f 0000 001f
0000 001f 0000 001f 0000 001f 0000 001f
0000 001f 0000 001f 0000 001f 0000 001f
0000 001f 0000 001f 0000 001f 0000 001f
0000 001f 0000 001f 0000 001f 0000 001f
0000 001f 0000 001f 0000 001f 0000 001f
0000 001f 0000 001f 0000 001f 0000 001f
0000 001f 0000 001f 0000 001f 0000 001f
0000 001f 0000 001f 0000 001f 0000 001f
0000 001f 0000 001f 0000 001f 0000 001f
0000 001f 0000 001f 0000 001f 0000 001f
0000 001f 0000 001f 0000 001f 0000 001f
0000 001f 0000 001f 0000 001f 0000 001f
0000 001f 0000 001f 0000 001f 0000 001f
0000 001f 0000 001f 0000 001f 0000 001f
0000 001f 0000 001f 0000 001f 0000 001f
0000 001f 0000 001f 0000 001f 0000 001f
0000 001f 0000 001f 0000 001f 0000 001f
0000 001f 0000 001f 0000 001f 0000 001f
0000 001f 0000 001f 0000 001f 0000 001f
0000 001f 0000 001f 0000 001f 0000 001f
0000 001f 0000 001f 0000 001f 0000 001f
0000 001f 0000 001f 0000 001f 0000 001f
0000 001f 0000 001f 0000 001f 0000 001f
0000 001f 0000 001f 0000 001f 0000 001f
0000 001f 0000 001f 0000 001f 0000 001f
0000 001f 0000 001f 0000 001f 0000 001f
0000 001f 0000 001f 0000 001f 0000 001f
0000 001f 0000 001f 0000 001f 0000 001f
0000 001f 0000 001f 0000 001f 0000 001f
0000 001f 0000 001f 0000 001f 0000 001f
0000 001f 0000 001f 0000 001f 0000 001f
0000 001f 0000 001f 0000 001f 0000 001f
0000 001f 0000 001f 0000 001f 0000 001f
0000 001f 0000 001f 0000 001f 0000 001f
0000 001f 0000 001f 0000 001f 0000 001f
0000 001f 0000 001f 0000 001f 0000 001f
0000 001f 0000 001f 0000 001f 0000 001f
0000 001f 0000 001f 0000 001f 0000 001f
0000 001f 0000 001f 0000 001f 0000 001f
0000 001f 0000 001f 0000 001f 0000 001f
0000 001f 0000 001f 0000 001f 0000 001f
0000 001f 0000 001f 0000 001f 0000 001f
0000 001f 0000 001f 0000 001f 0000 001f
0000 001f 0000 001f 0000 001f 0000 001f
0000 001f 0000 001f 0000 001f 0000 001f
0000 001f 0000 001f 0000 001f 0000 001f
0000 001f 0000 001f 0000 001f 0000 001f
0000 001f 0000 001f 0000 001f 0000 001f
0000 001f 0000 001f 0000 001f 0000 001f
0000 001f 0000 001f 0000 001f 0000 001f
0000 001f 0000 001f 0000 001f 0000 001f
0000 001f 0000 001f 0000 001f 0000 001f
0000 001f 0000 001f 0000 001f 0000 001f
0000 001f 0000 001f 0000 001f 0000 001f
0000 001f 0000 001f 0000 001f 0000 001f
0000 001f 0000 001f 0000 001f 0000 001f
0000 001f 0000 001f 0000 001f 0000 001f
0000 001f 0000 001f 0000 001f 0000 001f
0000 001f 0000 001f 0000 001f 0000 001f
0000 001f 0000 001f 0000 001f 0000 001f
0000 001f 0000 001f 0000 001f 0000 001f
0000 001f 0000 001f 0000 001f 0000 001f
0000 001f 0000 001f 0000 001f 0000 001f
0000 001f 0000 001f 0000 001f 0000 001f
0000 001f 0000 001f 0000 001f 0000 001f
0000 001f 0000 001f 0000 001f 0000 001f
0000 001f 0000 001f 0000 001f 0000 001f
0000 001f 0000 001f 0000 001f 0000 001f
0000 001f 0000 001f 0000 001f 0000 001f
0000 001f 0000 001f 0000 001f 0000 001f
0000 001f 0000 001f 0000 001f 0000 001f
0000 001f 0000 001f 0000 001f 0000 001f
0000 001f 0000 001f 0000 001f 0000 001f
0000 001f 0000 001f 0000 001f 0000 001f
0000 001f 0000 001f 0000 001f 0000 001f
0000 001f 0000 001f 0000 001f 0000 001f
0000 001f 0000 001f 0000 001f 0000 001f
0000 001f 0000 001f 0000 001f 0000 001f
0000 001f 0000 001f 0000 001f 0000 001f
0000 001f 0000 001f 0000 001f 0000 001f
0000 001f 0000 001f 0000 001f 0000 001f
0000 001f 0000 001f 0000 001f 0000 001f
0000 001f 0000 001f 0000 001f 0000 001f
0000 001f 0000 001f 0000 001f 0000 001f
0000 001f 0000 001f 0000 001f 0000 001f
0000 001f 0000 001f 0000 001f 0000 001f
0000 001f 0000 001f 0000 001f 0000 001f
0000 001f 0000 001f 0000 001f 0000 001f
0000 001f 0000 001f 0000 001f 0000 001f
0000 001f 0000 001f 0000 001f 0000 001f
0000 001f 0000 001f 0000 001f 0000 001f
0000 001f 0000 001f 0000 001f 0000 001f
0000 001f 0000 001f 0000 001f 0000 001f
0000 001f 0000 001f 0000 001f 0000 001f
0000 001f 0000 001f 0000 001f 0000 001f
0000 001f 0000 001f 0000 001f 0000 001f
0000 001f 0000 001f 0000 001f 0000 001f
0000 001f 0000 001f 0000 001f 0000 001f
0000 001f 0000 001f 0000 001f 0000 001f
0000 001f 0000 001f 0000 001f 0000 001f
0000 001f 0000 001f 0000 001f 0000 001f
0000 001f 0000 001f 0000 001f 0000 001f
0000 001f 0000 001f 0000 001f 0000 001f
0000 001f 0000 001f 0000 001f 0000 001f
0000 001f 0000 001f 0000 001f 0000 001f
0000 001f 0000 001f 0000 001f 0000 001f
0000 001f 0000 001f 0000 001f 0000 001f
0000 001f 0000 001f 0000 001f 0000 001f
0000 001f 0000 001f 0000 001f 0000 001f
0000 001f 0000 001f 0000 001f 0000 001f
0000 001f 0000 001f 0000 001f 0000 001f
0000 001f 0000 001f 0000 001f 0000 001f
0000 001f 0000 001f 0000 001f 0000 001f
0000 001f 0000 001f 0000 001f 0000 001f
0000 001f 0000 001f 0000 001f 0000 001f
0000 001f 0000 001f 0000 001f 0000 001f
0000 001f 0000 001f 0000 001f 0000 001f
0000 001f 0000 001f 0000 001f 0000 001f
0000 001f 0000 001f 0000 001f 0000 001f
0000 001f 0000 001f 0000 001f 0000 001f
0000 001f 0000 001f 0000 001f 0000 001f
0000 001f 0000 001f 0000 001f 0000 001f
0000 001f 0000 001f 0000 001f 0000 001f
0000 001f 0000 001f 0000 001f 0000 001f
0000 001f 0000 001f 0000 001f 0000 001f
0000 001f 0000 001f 0000 001f 0000 001f
0000 001f 0000 001f 0000 001f 0000 001f
0000 001f 0000 001f 0000 001f 0000 001f
0000 001f 0000 001f 0000 001f 0000 001f
0000 001f 0000 001f 0000 001f 0000 001f
0000 001f 0000 001f 0000 001f 0000 001f
0000 001f 0000 001f 0000 001f 0000 001f
0000 001f 0000 001f 0000 001f 0000 001f
0000 001f 0000 001f 0000 001f 0000 001f
0000 001f 0000 001f 0000 001f 0000 001f
0000 001f 0000 001f 0000 001f 0000 001f
0000 001f 0000 001f 0000 001f 0000 001f
0000 001f 0000 001f 0000 001f 0000 001f
0000 001f 0000 001f 0000 001f 0000 001f
0000 001f 0000 001f 0000 001f 0000 001f
0000 001f 0000 001f 0000 001f 0000 001f
0000 001f 0000 001f 0000 001f 0000 001f
0000 001f 0000 001f 0000 001f 0000 001f
0000 001f 0000 001f 0000 001f 0000 001f
0000 001f 0000 001f 0000 001f 0000 001f
0000 001f 0000 001f 0000 001f 0000 001f
0000 001f 0000 001f 0000 001f 0000 001f
0000 001f 0000 001f 0000 001f 0000 001f
0000 001f 0000 001f 0000 001f 0000 001f
0000 001f 0000 001f 0000 001f 0000 001f
0000 001f 0000 001f 0000 001f 0000 001f
0000 001f 0000 001f 0000 001f 0000 001f
0000 001f 0000 001f 0000 001f 0000 001f
0000 001f 0000 001f 0000 001f 0000 001f
0000 001f 0000 001f 0000 001f 0000 001f
0000 001f 0000 001f 0000 001f 0000 001f
0000 001f 0000 001f 0000 001f 0000 001f
0000 001f 0000 001f 0000 001f 0000 001f
0000 001f 0000 001f 0000 001f 0000 001f
0000 001f 0000 001f 0000 001f 0000 001f
0000 001f 0000 001f 0000 001f 0000 001f
0000 001f 0000 001f 0000 001f 0000 001f
0000 001f 0000 001f 0000 001f 0000 001f
0000 001f 0000 001f 0000 001f 0000 001f
0000 001f 0000 001f 0000 001f 0000 001f
0000 001f 0000 001f 0000 001f 0000 001f
0000 001f 0000 001f 0000 001f 0000 001f
0000 001f 0000 001f 0000 001f 0000 001f
0000 001f 0000 001f 0000 001f 0000 001f
0000 001f 0000 001f 0000 001f 0000 001f
0000 001f 0000 001f 0000 001f 0000 001f
0000 001f 0000 001f 0000 001f 0000 001f
0000 001f 0000 001f 0000 001f 0000 001f
0000 001f 0000 001f 0000 001f 0000 001f
0000 001f 0000 001f 0000 001f 0000 001f
0000 001f 0000 001f 0000 001f 0000 001f
0000 001f 0000 001f 0000 001f 0000 001f
0000 001f 0000 001f 0000 001f 0000 001f
0000 001f 0000 001f 0000 001f 0000 001f
0000 001f 0000 001f 0000 001f 0000 001f
0000 001f 0000 001f 0000 001f 0000 001f
0000 001f 0000 001f 0000 001f 0000 001f
0000 001f 0000 001f 0000 001f 0000 001f
0000 001f 0000 001f 0000 001f 0000 001f
0000 001f 0000 001f 0000 001f 0000 001f
0000 001f 0000 001f 0000 001f 0000 001f
0000 001f 0000 001f 0000 001f 0000 001f
0000 001f 0000 001f 0000 001f 0000 001f
0000 001f 0000 001f 0000 001f 0000 001f
0000 001f 0000 001f 0000 001f 0000 001f
0000 001f 0000 001f 0000 001f 0000 001f
0000 001f 0000 001f 0000 001f 0000 001f
0000 001f 0000 001f 0000 001f 0000 001f
0000 001f 0000 001f 0000 001f 0000 001f
0000 001f 0000 001f 0000 001f 0000 001f
0000 001f 0000 001f 0000 001f 0000 001f