0000 0020 0000 0020 0000 0020 0000 0020
0000 0020 0000 0020 0000 0020 0000 0020
0000 0020 0000 0020 0000 0020 0000 0020
0000 0020 0000 0020 0000 0020 0000 0020
0000 0020 0000 0020 0000 0020 0000 0020
0000 0000 0000 0000 0000 0000 0000 0000
0000 0000 0000 0000 0000 0000 0000 0000
0000 0000 0000 0000 0000 0000 0000 0000
0000 0020 0000 0020 0000 0020 0000 0020
0000 0020 0000 0020 0000 0020 0000 0020
0000 0020 0000 0020 0000 0020 0000 0020
0000 0020 0000 0020 0000 0020 0000 0020
0000 0020 0000 0020 0000 0020 0000 0020
0000 0000 0000 0000 0000 0000 0000 0000
0000 0000 0000 0000 0000 0000 0000 0000
0000 0000 0000 0000 0000 0000 0000 0000
0000 0020 0000 0020 0000 0020 0000 0020
0000 0020 0000 0020 0000 0020 0000 0020
0000 0020 0000 0020 0000 0020 0000 0020
0000 0020 0000 0020 0000 0020 0000 0020
0000 0020 0000 0020 0000 0020 0000 0020
0000 0000 0000 0000 0000 0000 0000 0000
0000 0000 0000 0000 0000 0000 0000 0000
0000 0000 0000 0000 0000 0000 0000 0000
0000 0020 0000 0020 0000 0020 0000 0020
0000 0020 0000 0020 0000 0020 0000 0020
0000 0020 0000 0020 0000 0020 0000 0020
0000 0020 0000 0020 0000 0020 0000 0020
0000 0020 0000 0020 0000 0020 0000 0020
0000 0000 0000 0000 0000 0000 0000 0000
0000 0000 0000 0000 0000 0000 0000 0000
0000 0000 0000 0000 0000 0000 0000 0000
0000 0020 0000 0020 0000 0020 0000 0020
0000 0020 0000 0020 0000 0020 0000 0020
0000 0020 0000 0020 0000 0020 0000 0020
0000 0020 0000 0020 0000 0020 0000 0020
0000 0020 0000 0020 0000 0020 0000 0020
0000 0000 0000 0000 0000 0000 0000 0000
0000 0000 0000 0000 0000 0000 0000 0000
0000 0000 0000 0000 0000 0000 0000 0000
0000 0020 0000 0020 0000 0020 0000 0020
0000 0020 0000 0020 0000 0020 0000 0020
0000 0020 0000 0020 0000 0020 0000 0020
0000 0020 0000 0020 0000 0020 0000 0020
0000 0020 0000 0020 0000 0020 0000 0020
0000 0000 0000 0000 0000 0000 0000 0000
0000 0000 0000 0000 0000 0000 0000 0000
0000 0000 0000 0000 0000 0000 0000 0000
0000 0020 0000 0020 0000 0020 0000 0020
0000 0020 0000 0020 0000 0020 0000 0020
0000 0020 0000 0020 0000 0020 0000 0020
0000 0020 0000 0020 0000 0020 0000 0020
0000 0020 0000 0020 0000 0020 0000 0020
0000 0000 0000 0000 0000 0000 0000 0000
0000 0000 0000 0000 0000 0000 0000 0000
0000 0000 0000 0000 0000 0000 0000 0000
0000 0020 0000 0020 0000 0020 0000 0020
0000 0020 0000 0020 0000 0020 0000 0020
0000 0020 0000 0020 0000 0020 0000 0020
0000 0020 0000 0020 0000 0020 0000 0020
0000 0020 0000 0020 0000 0020 0000 0020
0000 0000 0000 0000 0000 0000 0000 0000
0000 0000 0000 0000 0000 0000 0000 0000
0000 0000 0000 0000 0000 0000 0000 0000
0000 0020 0000 0020 0000 0020 0000 0020
0000 0020 0000 0020 0000 0020 0000 0020
0000 0020 0000 0020 0000 0020 0000 0020
0000 0020 0000 0020 0000 0020 0000 0020
0000 0020 0000 0020 0000 0020 0000 0020
0000 0000 0000 0000 0000 0000 0000 0000
0000 0000 0000 0000 0000 0000 0000 0000
0000 0000 0000 0000 0000 0000 0000 0000
0000 0020 0000 0020 0000 0020 0000 0020
0000 0020 0000 0020 0000 0020 0000 0020
0000 0020 0000 0020 0000 0020 0000 0020
0000 0020 0000 0020 0000 0020 0000 0020
0000 0020 0000 0020 0000 0020 0000 0020
0000 0000 0000 0000 0000 0000 0000 0000
0000 0000 0000 0000 0000 0000 0000 0000
0000 0000 0000 0000 0000 0000 0000 0000
0000 0020 0000 0020 0000 0020 0000 0020
0000 0020 0000 0020 0000 0020 0000 0020
0000 0020 0000 0020 0000 0020 0000 0020
0000 0020 0000 0020 0000 0020 0000 0020
0000 0020 0000 0020 0000 0020 0000 0020
0000 0000 0000 0000 0000 0000 0000 0000
0000 0000 0000 0000 0000 0000 0000 0000
0000 0000 0000 0000 0000 0000 0000 0000
0000 0020 0000 0020 0000 0020 0000 0020
0000 0020 0000 0020 0000 0020 0000 0020
0000 0020 0000 0020 0000 0020 0000 0020
0000 0020 0000 0020 0000 0020 0000 0020
0000 0020 0000 0020 0000 0020 0000 0020
0000 0000 0000 0000 0000 0000 0000 0000
0000 0000 0000 0000 0000 0000 0000 0000
0000 0000 0000 0000 0000 0000 0000 0000
0000 0020 0000 0020 0000 0020 0000 0020
0000 0020 0000 0020 0000 0020 0000 0020
0000 0020 0000 0020 0000 0020 0000 0020
0000 0020 0000 0020 0000 0020 0000 0020
0000 0020 0000 0020 0000 0020 0000 0020
0000 0000 0000 0000 0000 0000 0000 0000
0000 0000 0000 0000 0000 0000 0000 0000
0000 0000 0000 0000 0000 0000 0000 0000
0000 0020 0000 0020 0000 0020 0000 0020
0000 0020 0000 0020 0000 0020 0000 0020
0000 0020 0000 0020 0000 0020 0000 0020
0000 0020 0000 0020 0000 0020 0000 0020
0000 0020 0000 0020 0000 0020 0000 0000
0000 0000 0000 0000 0000 0000 0000 0000
0000 0000 0000 0000 0000 0000 0000 0000
0000 0000 0000 0000 0000 0000 0000 0000
0000 0020 0000 0020 0000 0020 0000 0020
0000 0020 0000 0020 0000 0020 0000 0020
0000 0020 0000 0020 0000 0020 0000 0020
0000 0020 0000 0020 0000 0020 0000 0020
0000 0020 0000 0020 0000 0000 0000 0000
0000 0000 0000 0000 0000 0000 0000 0000
0000 0000 0000 0000 0000 0000 0000 0000
0000 0000 0000 0000 0000 0000 0000 0000
0000 0020 0000 0020 0000 0020 0000 0020
0000 0020 0000 0020 0000 0020 0000 0020
0000 0020 0000 0020 0000 0020 0000 0020
0000 0020 0000 0020 0000 0020 0000 0020
0000 0020 0000 0000 0000 0000 0000 0000
0000 0000 0000 0000 0000 0000 0000 0000
0000 0000 0000 0000 0000 0000 0000 0000
0000 0000 0000 0000 0000 0000 0000 0000
0000 0020 0000 0020 0000 0020 0000 0020
0000 0020 0000 0020 0000 0020 0000 0020
0000 0020 0000 0020 0000 0020 0000 0020
0000 0020 0000 0020 0000 0020 0000 0020
0000 0000 0000 0000 0000 0000 0000 0000
0000 0000 0000 0000 0000 0000 0000 0000
0000 0000 0000 0000 0000 0000 0000 0000
0000 0000 0000 0000 0000 0000 0000 0000
0000 0020 0000 0020 0000 0020 0000 0020
0000 0020 0000 0020 0000 0020 0000 0020
0000 0020 0000 0020 0000 0020 0000 0020
0000 0020 0000 0020 0000 0020 0000 0000
0000 0000 0000 0000 0000 0000 0000 0000
0000 0000 0000 0000 0000 0000 0000 0000
0000 0000 0000 0000 0000 0000 0000 0000
0000 0000 0000 0000 0000 0000 0000 0000
0000 0020 0000 0020 0000 0020 0000 0020
0000 0020 0000 0020 0000 0020 0000 0020
0000 0020 0000 0020 0000 0020 0000 0020
0000 0020 0000 0020 0000 0000 0000 0000
0000 0000 0000 0000 0000 0000 0000 0000
0000 0000 0000 0000 0000 0000 0000 0000
0000 0000 0000 0000 0000 0000 0000 0000
0000 0000 0000 0000 0000 0000 0000 0000
0000 0020 0000 0020 0000 0020 0000 0020
0000 0020 0000 0020 0000 0020 0000 0020
0000 0020 0000 0020 0000 0020 0000 0020
0000 0020 0000 0000 0000 0000 0000 0000
0000 0000 0000 0000 0000 0000 0000 0000
0000 0000 0000 0000 0000 0000 0000 0000
0000 0000 0000 0000 0000 0000 0000 0000
0000 0000 0000 0000 0000 0000 0000 0000
0000 0020 0000 0020 0000 0020 0000 0020
0000 0020 0000 0020 0000 0020 0000 0020
0000 0020 0000 0020 0000 0020 0000 0020
0000 0000 0000 0000 0000 0000 0000 0000
0000 0000 0000 0000 0000 0000 0000 0000
0000 0000 0000 0000 0000 0000 0000 0000
0000 0000 0000 0000 0000 0000 0000 0000
0000 0000 0000 0000 0000 0000 0000 0000
0000 0020 0000 0020 0000 0020 0000 0020
0000 0020 0000 0020 0000 0020 0000 0020
0000 0020 0000 0020 0000 0020 0000 0000
0000 0000 0000 0000 0000 0000 0000 0000
0000 0000 0000 0000 0000 0000 0000 0000
0000 0000 0000 0000 0000 0000 0000 0000
0000 0000 0000 0000 0000 0000 0000 0000
0000 0000 0000 0000 0000 0000 0000 0000
0000 0000 0000 0000 0000 0000 0000 0000
0000 0000 0000 0000 0000 0000 0000 0000
0000 0000 0000 0000 0000 0020 0000 0020
0000 0020 0000 0020 0000 0020 0000 0020
0000 0020 0000 0020 0000 0020 0000 0020
0000 0000 0000 0000 0000 0000 0000 0000
0000 0000 0000 0000 0000 0000 0000 0000
0000 0000 0000 0000 0000 0000 0000 0000
0000 0000 0000 0000 0000 0000 0000 0000
0000 0000 0000 0000 0000 0000 0000 0000
0000 0000 0000 0020 0000 0020 0000 0020
0000 0020 0000 0020 0000 0020 0000 0020
0000 0020 0000 0020 0000 0020 0000 0020
0000 0000 0000 0000 0000 0000 0000 0000
0000 0000 0000 0000 0000 0000 0000 0000
0000 0000 0000 0000 0000 0000 0000 0000
0000 0000 0000 0000 0000 0000 0000 0000
0000 0000 0000 0000 0000 0000 0000 0000
0000 0020 0000 0020 0000 0020 0000 0020
0000 0020 0000 0020 0000 0020 0000 0020
0000 0020 0000 0020 0000 0020 0000 0020
0000 0000 0000 0000 0000 0000 0000 0000
0000 0000 0000 0000 0000 0000 0000 0000
0000 0000 0000 0000 0000 0000 0000 0000
0000 0000 0000 0000 0000 0000 0000 0000
0000 0000 0000 0000 0000 0000 0000 0020
0000 0020 0000 0020 0000 0020 0000 0020
0000 0020 0000 0020 0000 0020 0000 0020
0000 0020 0000 0020 0000 0020 0000 0020
0000 0000 0000 0000 0000 0000 0000 0000
0000 0000 0000 0000 0000 0000 0000 0000
0000 0000 0000 0000 0000 0000 0000 0000
0000 0000 0000 0000 0000 0000 0000 0000
0000 0000 0000 0000 0000 0020 0000 0020
0000 0020 0000 0020 0000 0020 0000 0020
0000 0020 0000 0020 0000 0020 0000 0020
0000 0020 0000 0020 0000 0020 0000 0020
0000 0000 0000 0000 0000 0000 0000 0000
0000 0000 0000 0000 0000 0000 0000 0000
0000 0000 0000 0000 0000 0000 0000 0000
0000 0000 0000 0000 0000 0000 0000 0000
0000 0000 0000 0020 0000 0020 0000 0020
0000 0020 0000 0020 0000 0020 0000 0020
0000 0020 0000 0020 0000 0020 0000 0020
0000 0020 0000 0020 0000 0020 0000 0020
0000 0000 0000 0000 0000 0000 0000 0000
0000 0000 0000 0000 0000 0000 0000 0000
0000 0000 0000 0000 0000 0000 0000 0000
0000 0000 0000 0000 0000 0000 0000 0000
0000 0020 0000 0020 0000 0020 0000 0020
0000 0020 0000 0020 0000 0020 0000 0020
0000 0020 0000 0020 0000 0020 0000 0020
0000 0020 0000 0020 0000 0020 0000 0020
0000 0000 0000 0000 0000 0000 0000 0000
0000 0000 0000 0000 0000 0000 0000 0000
0000 0000 0000 0000 0000 0000 0000 0000
0000 0000 0000 0000 0000 0000 0000 0020
0000 0020 0000 0020 0000 0020 0000 0020
0000 0020 0000 0020 0000 0020 0000 0020
0000 0020 0000 0020 0000 0020 0000 0020
0000 0020 0000 0020 0000 0020 0000 0020
0000 0000 0000 0000 0000 0000 0000 0000
0000 0000 0000 0000 0000 0000 0000 0000
0000 0000 0000 0000 0000 0000 0000 0000
0000 0000 0000 0000 0000 0020 0000 0020
0000 0020 0000 0020 0000 0020 0000 0020
0000 0020 0000 0020 0000 0020 0000 0020
0000 0020 0000 0020 0000 0020 0000 0020
0000 0020 0000 0020 0000 0020 0000 0020
0000 0000 0000 0000 0000 0000 0000 0000
0000 0000 0000 0000 0000 0000 0000 0000
0000 0000 0000 0000 0000 0000 0000 0000
0000 0000 0000 0020 0000 0020 0000 0020
0000 0020 0000 0020 0000 0020 0000 0020
0000 0020 0000 0020 0000 0020 0000 0020
0000 0020 0000 0020 0000 0020 0000 0020
0000 0020 0000 0020 0000 0020 0000 0020
0000 0000 0000 0000 0000 0000 0000 0000
0000 0000 0000 0000 0000 0000 0000 0000
0000 0000 0000 0000 0000 0000 0000 0000