0000 0023 0000 0023 0000 0024 0000 0024
0000 0025 0000 0025 0000 0026 0000 0026
0000 0027 0000 0028 0000 0029 0000 002a
0000 002b 0000 002c 0000 002d 0000 002e
0000 002f 0000 0030 0000 0031 0000 0032
0000 0000 0000 0000 0000 0000 0000 0000
0000 0000 0000 0000 0000 0000 0000 0000
0000 0000 0000 0000 0000 0000 0000 0000
0000 0021 0000 0022 0000 0022 0000 0023
0000 0023 0000 0024 0000 0024 0000 0025
0000 0025 0000 0026 0000 0028 0000 0029
0000 002a 0000 002b 0000 002c 0000 002d
0000 002e 0000 002f 0000 0030 0000 0031
0000 0000 0000 0000 0000 0000 0000 0000
0000 0000 0000 0000 0000 0000 0000 0000
0000 0000 0000 0000 0000 0000 0000 0000
0000 0020 0000 0020 0000 0021 0000 0021
0000 0022 0000 0022 0000 0023 0000 0023
0000 0024 0000 0025 0000 0026 0000 0028
0000 0029 0000 002a 0000 002b 0000 002c
0000 002d 0000 002e 0000 002f 0000 0030
0000 0000 0000 0000 0000 0000 0000 0000
0000 0000 0000 0000 0000 0000 0000 0000
0000 0000 0000 0000 0000 0000 0000 0000
0000 001e 0000 001f 0000 001f 0000 0020
0000 0020 0000 0021 0000 0021 0000 0022
0000 0023 0000 0024 0000 0025 0000 0026
0000 0028 0000 0029 0000 002a 0000 002b
0000 002c 0000 002d 0000 002e 0000 002e
0000 0000 0000 0000 0000 0000 0000 0000
0000 0000 0000 0000 0000 0000 0000 0000
0000 0000 0000 0000 0000 0000 0000 0000
0000 001d 0000 001d 0000 001e 0000 001e
0000 001f 0000 001f 0000 0020 0000 0021
0000 0022 0000 0023 0000 0024 0000 0025
0000 0026 0000 0028 0000 0029 0000 002a
0000 002b 0000 002c 0000 002c 0000 002d
0000 0000 0000 0000 0000 0000 0000 0000
0000 0000 0000 0000 0000 0000 0000 0000
0000 0000 0000 0000 0000 0000 0000 0000
0000 001b 0000 001b 0000 001c 0000 001d
0000 001d 0000 001e 0000 001f 0000 0020
0000 0021 0000 0022 0000 0023 0000 0024
0000 0025 0000 0026 0000 0028 0000 0029
0000 002a 0000 002a 0000 002b 0000 002b
0000 0000 0000 0000 0000 0000 0000 0000
0000 0000 0000 0000 0000 0000 0000 0000
0000 0000 0000 0000 0000 0000 0000 0000
0000 0019 0000 001a 0000 001a 0000 001b
0000 001c 0000 001d 0000 001e 0000 001f
0000 0020 0000 0021 0000 0022 0000 0023
0000 0024 0000 0025 0000 0026 0000 0028
0000 0028 0000 0029 0000 0029 0000 002a
0000 0000 0000 0000 0000 0000 0000 0000
0000 0000 0000 0000 0000 0000 0000 0000
0000 0000 0000 0000 0000 0000 0000 0000
0000 0018 0000 0018 0000 0019 0000 001a
0000 001b 0000 001c 0000 001d 0000 001e
0000 001f 0000 0020 0000 0021 0000 0022
0000 0023 0000 0024 0000 0025 0000 0026
0000 0026 0000 0027 0000 0028 0000 0028
0000 0000 0000 0000 0000 0000 0000 0000
0000 0000 0000 0000 0000 0000 0000 0000
0000 0000 0000 0000 0000 0000 0000 0000
0000 0016 0000 0017 0000 0018 0000 0019
0000 001a 0000 001b 0000 001c 0000 001d
0000 001e 0000 001f 0000 0020 0000 0021
0000 0022 0000 0023 0000 0024 0000 0024
0000 0025 0000 0025 0000 0026 0000 0026
0000 0000 0000 0000 0000 0000 0000 0000
0000 0000 0000 0000 0000 0000 0000 0000
0000 0000 0000 0000 0000 0000 0000 0000
0000 0015 0000 0016 0000 0017 0000 0018
0000 0019 0000 001a 0000 001b 0000 001c
0000 001d 0000 001e 0000 001f 0000 0020
0000 0021 0000 0022 0000 0022 0000 0023
0000 0023 0000 0024 0000 0024 0000 0025
0000 0000 0000 0000 0000 0000 0000 0000
0000 0000 0000 0000 0000 0000 0000 0000
0000 0000 0000 0000 0000 0000 0000 0000
0000 0014 0000 0015 0000 0016 0000 0017
0000 0018 0000 0019 0000 001a 0000 001b
0000 001c 0000 001d 0000 001e 0000 001f
0000 0020 0000 0020 0000 0021 0000 0021
0000 0022 0000 0022 0000 0023 0000 0023
0000 0000 0000 0000 0000 0000 0000 0000
0000 0000 0000 0000 0000 0000 0000 0000
0000 0000 0000 0000 0000 0000 0000 0000
0000 0013 0000 0014 0000 0015 0000 0016
0000 0017 0000 0018 0000 0019 0000 001a
0000 001b 0000 001c 0000 001d 0000 001e
0000 001e 0000 001f 0000 001f 0000 0020
0000 0020 0000 0021 0000 0021 0000 0022
0000 0000 0000 0000 0000 0000 0000 0000
0000 0000 0000 0000 0000 0000 0000 0000
0000 0000 0000 0000 0000 0000 0000 0000
0000 0012 0000 0013 0000 0014 0000 0015
0000 0016 0000 0017 0000 0018 0000 0019
0000 001a 0000 001b 0000 001b 0000 001c
0000 001d 0000 001d 0000 001e 0000 001e
0000 001f 0000 001f 0000 0020 0000 0020
0000 0000 0000 0000 0000 0000 0000 0000
0000 0000 0000 0000 0000 0000 0000 0000
0000 0000 0000 0000 0000 0000 0000 0000
0000 0010 0000 0012 0000 0013 0000 0014
0000 0015 0000 0016 0000 0017 0000 0018
0000 0019 0000 0019 0000 001a 0000 001a
0000 001b 0000 001b 0000 001c 0000 001d
0000 001d 0000 001e 0000 001e 0000 0000
0000 0000 0000 0000 0000 0000 0000 0000
0000 0000 0000 0000 0000 0000 0000 0000
0000 0000 0000 0000 0000 0000 0000 0000
0000 000f 0000 0010 0000 0012 0000 0013
0000 0014 0000 0015 0000 0016 0000 0017
0000 0017 0000 0018 0000 0018 0000 0019
0000 0019 0000 001a 0000 001a 0000 001b
0000 001b 0000 001c 0000 0000 0000 0000
0000 0000 0000 0000 0000 0000 0000 0000
0000 0000 0000 0000 0000 0000 0000 0000
0000 0000 0000 0000 0000 0000 0000 0000
0000 000e 0000 000f 0000 0010 0000 0012
0000 0013 0000 0014 0000 0015 0000 0015
0000 0016 0000 0016 0000 0017 0000 0017
0000 0018 0000 0018 0000 0019 0000 0019
0000 001a 0000 0000 0000 0000 0000 0000
0000 0000 0000 0000 0000 0000 0000 0000
0000 0000 0000 0000 0000 0000 0000 0000
0000 0000 0000 0000 0000 0000 0000 0000
0000 000d 0000 000e 0000 000f 0000 0010
0000 0012 0000 0013 0000 0013 0000 0014
0000 0014 0000 0015 0000 0015 0000 0016
0000 0016 0000 0017 0000 0017 0000 0018
0000 0000 0000 0000 0000 0000 0000 0000
0000 0000 0000 0000 0000 0000 0000 0000
0000 0000 0000 0000 0000 0000 0000 0000
0000 0000 0000 0000 0000 0000 0000 0000
0000 000c 0000 000d 0000 000e 0000 000f
0000 0010 0000 0011 0000 0012 0000 0012
0000 0013 0000 0013 0000 0014 0000 0014
0000 0015 0000 0015 0000 0016 0000 0000
0000 0000 0000 0000 0000 0000 0000 0000
0000 0000 0000 0000 0000 0000 0000 0000
0000 0000 0000 0000 0000 0000 0000 0000
0000 0000 0000 0000 0000 0000 0000 0000
0000 000b 0000 000c 0000 000d 0000 000e
0000 000f 0000 000f 0000 0010 0000 0010
0000 0011 0000 0012 0000 0012 0000 0013
0000 0013 0000 0014 0000 0000 0000 0000
0000 0000 0000 0000 0000 0000 0000 0000
0000 0000 0000 0000 0000 0000 0000 0000
0000 0000 0000 0000 0000 0000 0000 0000
0000 0000 0000 0000 0000 0000 0000 0000
0000 000a 0000 000b 0000 000c 0000 000d
0000 000d 0000 000e 0000 000e 0000 000f
0000 000f 0000 0010 0000 0010 0000 0011
0000 0012 0000 0000 0000 0000 0000 0000
0000 0000 0000 0000 0000 0000 0000 0000
0000 0000 0000 0000 0000 0000 0000 0000
0000 0000 0000 0000 0000 0000 0000 0000
0000 0000 0000 0000 0000 0000 0000 0000
0000 0009 0000 000a 0000 000b 0000 000b
0000 000c 0000 000c 0000 000d 0000 000d
0000 000e 0000 000e 0000 000f 0000 000f
0000 0000 0000 0000 0000 0000 0000 0000
0000 0000 0000 0000 0000 0000 0000 0000
0000 0000 0000 0000 0000 0000 0000 0000
0000 0000 0000 0000 0000 0000 0000 0000
0000 0000 0000 0000 0000 0000 0000 0000
0000 0008 0000 0009 0000 0009 0000 000a
0000 000a 0000 000b 0000 000b 0000 000c
0000 000c 0000 000d 0000 000d 0000 0000
0000 0000 0000 0000 0000 0000 0000 0000
0000 0000 0000 0000 0000 0000 0000 0000
0000 0000 0000 0000 0000 0000 0000 0000
0000 0000 0000 0000 0000 0000 0000 0000
0000 0000 0000 0000 0000 0000 0000 0000
0000 0000 0000 0000 0000 0000 0000 0000
0000 0000 0000 0000 0000 0000 0000 0000
0000 0000 0000 0000 0000 0038 0000 0038
0000 0039 0000 0039 0000 003a 0000 003a
0000 003b 0000 003b 0000 003c 0000 003c
0000 0000 0000 0000 0000 0000 0000 0000
0000 0000 0000 0000 0000 0000 0000 0000
0000 0000 0000 0000 0000 0000 0000 0000
0000 0000 0000 0000 0000 0000 0000 0000
0000 0000 0000 0000 0000 0000 0000 0000
0000 0000 0000 0036 0000 0036 0000 0037
0000 0037 0000 0038 0000 0038 0000 0039
0000 0039 0000 003a 0000 003a 0000 003b
0000 0000 0000 0000 0000 0000 0000 0000
0000 0000 0000 0000 0000 0000 0000 0000
0000 0000 0000 0000 0000 0000 0000 0000
0000 0000 0000 0000 0000 0000 0000 0000
0000 0000 0000 0000 0000 0000 0000 0000
0000 0034 0000 0034 0000 0035 0000 0035
0000 0036 0000 0036 0000 0037 0000 0037
0000 0038 0000 0038 0000 0039 0000 003a
0000 0000 0000 0000 0000 0000 0000 0000
0000 0000 0000 0000 0000 0000 0000 0000
0000 0000 0000 0000 0000 0000 0000 0000
0000 0000 0000 0000 0000 0000 0000 0000
0000 0000 0000 0000 0000 0000 0000 0031
0000 0032 0000 0033 0000 0033 0000 0034
0000 0034 0000 0035 0000 0035 0000 0036
0000 0036 0000 0037 0000 0038 0000 0039
0000 0000 0000 0000 0000 0000 0000 0000
0000 0000 0000 0000 0000 0000 0000 0000
0000 0000 0000 0000 0000 0000 0000 0000
0000 0000 0000 0000 0000 0000 0000 0000
0000 0000 0000 0000 0000 002f 0000 0030
0000 0030 0000 0031 0000 0031 0000 0032
0000 0033 0000 0033 0000 0034 0000 0034
0000 0035 0000 0036 0000 0037 0000 0038
0000 0000 0000 0000 0000 0000 0000 0000
0000 0000 0000 0000 0000 0000 0000 0000
0000 0000 0000 0000 0000 0000 0000 0000
0000 0000 0000 0000 0000 0000 0000 0000
0000 0000 0000 002d 0000 002e 0000 002e
0000 002f 0000 002f 0000 0030 0000 0030
0000 0031 0000 0031 0000 0032 0000 0033
0000 0034 0000 0035 0000 0036 0000 0037
0000 0000 0000 0000 0000 0000 0000 0000
0000 0000 0000 0000 0000 0000 0000 0000
0000 0000 0000 0000 0000 0000 0000 0000
0000 0000 0000 0000 0000 0000 0000 0000
0000 002b 0000 002c 0000 002c 0000 002d
0000 002d 0000 002e 0000 002e 0000 002f
0000 002f 0000 0030 0000 0031 0000 0032
0000 0033 0000 0034 0000 0035 0000 0036
0000 0000 0000 0000 0000 0000 0000 0000
0000 0000 0000 0000 0000 0000 0000 0000
0000 0000 0000 0000 0000 0000 0000 0000
0000 0000 0000 0000 0000 0000 0000 0029
0000 002a 0000 002a 0000 002b 0000 002b
0000 002c 0000 002c 0000 002d 0000 002d
0000 002e 0000 002f 0000 0030 0000 0031
0000 0032 0000 0033 0000 0034 0000 0035
0000 0000 0000 0000 0000 0000 0000 0000
0000 0000 0000 0000 0000 0000 0000 0000
0000 0000 0000 0000 0000 0000 0000 0000
0000 0000 0000 0000 0000 0027 0000 0028
0000 0028 0000 0029 0000 0029 0000 002a
0000 002a 0000 002b 0000 002b 0000 002c
0000 002d 0000 002e 0000 002f 0000 0030
0000 0031 0000 0032 0000 0033 0000 0034
0000 0000 0000 0000 0000 0000 0000 0000
0000 0000 0000 0000 0000 0000 0000 0000
0000 0000 0000 0000 0000 0000 0000 0000
0000 0000 0000 0025 0000 0025 0000 0026
0000 0026 0000 0027 0000 0028 0000 0028
0000 0029 0000 0029 0000 002a 0000 002b
0000 002c 0000 002d 0000 002e 0000 002f
0000 0030 0000 0031 0000 0032 0000 0033
0000 0000 0000 0000 0000 0000 0000 0000
0000 0000 0000 0000 0000 0000 0000 0000
0000 0000 0000 0000 0000 0000 0000 0000