0000 0014 0000 0014 0000 0014 0000 0014
0000 0014 0000 0014 0000 0014 0000 0014
0000 0014 0000 0014 0000 0014 0000 0014
0000 0014 0000 0014 0000 0014 0000 0014
0000 0014 0000 0014 0000 0014 0000 0014
0000 0000 0000 0000 0000 0000 0000 0000
0000 0000 0000 0000 0000 0000 0000 0000
0000 0000 0000 0000 0000 0000 0000 0000
0000 0014 0000 0014 0000 0014 0000 0014
0000 0014 0000 0014 0000 0014 0000 0014
0000 0014 0000 0014 0000 0014 0000 0014
0000 0014 0000 0014 0000 0014 0000 0014
0000 0014 0000 0014 0000 0014 0000 0014
0000 0000 0000 0000 0000 0000 0000 0000
0000 0000 0000 0000 0000 0000 0000 0000
0000 0000 0000 0000 0000 0000 0000 0000
0000 0014 0000 0014 0000 0014 0000 0014
0000 0014 0000 0014 0000 0014 0000 0014
0000 0014 0000 0014 0000 0014 0000 0014
0000 0014 0000 0014 0000 0014 0000 0014
0000 0014 0000 0014 0000 0014 0000 0014
0000 0000 0000 0000 0000 0000 0000 0000
0000 0000 0000 0000 0000 0000 0000 0000
0000 0000 0000 0000 0000 0000 0000 0000
0000 0014 0000 0014 0000 0014 0000 0014
0000 0014 0000 0014 0000 0014 0000 0014
0000 0014 0000 0014 0000 0014 0000 0014
0000 0014 0000 0014 0000 0014 0000 0014
0000 0014 0000 0014 0000 0014 0000 0014
0000 0000 0000 0000 0000 0000 0000 0000
0000 0000 0000 0000 0000 0000 0000 0000
0000 0000 0000 0000 0000 0000 0000 0000
0000 0014 0000 0014 0000 0014 0000 0014
0000 0014 0000 0014 0000 0014 0000 0014
0000 0014 0000 0014 0000 0014 0000 0014
0000 0014 0000 0014 0000 0014 0000 0014
0000 0014 0000 0014 0000 0014 0000 0014
0000 0000 0000 0000 0000 0000 0000 0000
0000 0000 0000 0000 0000 0000 0000 0000
0000 0000 0000 0000 0000 0000 0000 0000
0000 0014 0000 0014 0000 0014 0000 0014
0000 0014 0000 0014 0000 0014 0000 0014
0000 0014 0000 0014 0000 0014 0000 0014
0000 0014 0000 0014 0000 0014 0000 0014
0000 0014 0000 0014 0000 0014 0000 0014
0000 0000 0000 0000 0000 0000 0000 0000
0000 0000 0000 0000 0000 0000 0000 0000
0000 0000 0000 0000 0000 0000 0000 0000
0000 0014 0000 0014 0000 0014 0000 0014
0000 0014 0000 0014 0000 0014 0000 0014
0000 0014 0000 0014 0000 0014 0000 0014
0000 0014 0000 0014 0000 0014 0000 0014
0000 0014 0000 0014 0000 0014 0000 0014
0000 0000 0000 0000 0000 0000 0000 0000
0000 0000 0000 0000 0000 0000 0000 0000
0000 0000 0000 0000 0000 0000 0000 0000
0000 0014 0000 0014 0000 0014 0000 0014
0000 0014 0000 0014 0000 0014 0000 0014
0000 0014 0000 0014 0000 0014 0000 0014
0000 0014 0000 0014 0000 0014 0000 0014
0000 0014 0000 0014 0000 0014 0000 0014
0000 0000 0000 0000 0000 0000 0000 0000
0000 0000 0000 0000 0000 0000 0000 0000
0000 0000 0000 0000 0000 0000 0000 0000
0000 0014 0000 0014 0000 0014 0000 0014
0000 0014 0000 0014 0000 0014 0000 0014
0000 0014 0000 0014 0000 0014 0000 0014
0000 0014 0000 0014 0000 0014 0000 0014
0000 0014 0000 0014 0000 0014 0000 0014
0000 0000 0000 0000 0000 0000 0000 0000
0000 0000 0000 0000 0000 0000 0000 0000
0000 0000 0000 0000 0000 0000 0000 0000
0000 0014 0000 0014 0000 0014 0000 0014
0000 0014 0000 0014 0000 0014 0000 0014
0000 0014 0000 0014 0000 0014 0000 0014
0000 0014 0000 0014 0000 0014 0000 0014
0000 0014 0000 0014 0000 0014 0000 0014
0000 0000 0000 0000 0000 0000 0000 0000
0000 0000 0000 0000 0000 0000 0000 0000
0000 0000 0000 0000 0000 0000 0000 0000
0000 0014 0000 0014 0000 0014 0000 0014
0000 0014 0000 0014 0000 0014 0000 0014
0000 0014 0000 0014 0000 0014 0000 0014
0000 0014 0000 0014 0000 0014 0000 0014
0000 0014 0000 0014 0000 0014 0000 0014
0000 0000 0000 0000 0000 0000 0000 0000
0000 0000 0000 0000 0000 0000 0000 0000
0000 0000 0000 0000 0000 0000 0000 0000
0000 0014 0000 0014 0000 0014 0000 0014
0000 0014 0000 0014 0000 0014 0000 0014
0000 0014 0000 0014 0000 0014 0000 0014
0000 0014 0000 0014 0000 0014 0000 0014
0000 0014 0000 0014 0000 0014 0000 0014
0000 0000 0000 0000 0000 0000 0000 0000
0000 0000 0000 0000 0000 0000 0000 0000
0000 0000 0000 0000 0000 0000 0000 0000
0000 0014 0000 0014 0000 0014 0000 0014
0000 0014 0000 0014 0000 0014 0000 0014
0000 0014 0000 0014 0000 0014 0000 0014
0000 0014 0000 0014 0000 0014 0000 0014
0000 0014 0000 0014 0000 0014 0000 0014
0000 0000 0000 0000 0000 0000 0000 0000
0000 0000 0000 0000 0000 0000 0000 0000
0000 0000 0000 0000 0000 0000 0000 0000
0000 0014 0000 0014 0000 0014 0000 0014
0000 0014 0000 0014 0000 0014 0000 0014
0000 0014 0000 0014 0000 0014 0000 0014
0000 0014 0000 0014 0000 0014 0000 0014
0000 0014 0000 0014 0000 0014 0000 0000
0000 0000 0000 0000 0000 0000 0000 0000
0000 0000 0000 0000 0000 0000 0000 0000
0000 0000 0000 0000 0000 0000 0000 0000
0000 0014 0000 0014 0000 0014 0000 0014
0000 0014 0000 0014 0000 0014 0000 0014
0000 0014 0000 0014 0000 0014 0000 0014
0000 0014 0000 0014 0000 0014 0000 0014
0000 0014 0000 0014 0000 0000 0000 0000
0000 0000 0000 0000 0000 0000 0000 0000
0000 0000 0000 0000 0000 0000 0000 0000
0000 0000 0000 0000 0000 0000 0000 0000
0000 0014 0000 0014 0000 0014 0000 0014
0000 0014 0000 0014 0000 0014 0000 0014
0000 0014 0000 0014 0000 0014 0000 0014
0000 0014 0000 0014 0000 0014 0000 0014
0000 0014 0000 0000 0000 0000 0000 0000
0000 0000 0000 0000 0000 0000 0000 0000
0000 0000 0000 0000 0000 0000 0000 0000
0000 0000 0000 0000 0000 0000 0000 0000
0000 0014 0000 0014 0000 0014 0000 0014
0000 0014 0000 0014 0000 0014 0000 0014
0000 0014 0000 0014 0000 0014 0000 0014
0000 0014 0000 0014 0000 0014 0000 0014
0000 0000 0000 0000 0000 0000 0000 0000
0000 0000 0000 0000 0000 0000 0000 0000
0000 0000 0000 0000 0000 0000 0000 0000
0000 0000 0000 0000 0000 0000 0000 0000
0000 0014 0000 0014 0000 0014 0000 0014
0000 0014 0000 0014 0000 0014 0000 0014
0000 0014 0000 0014 0000 0014 0000 0014
0000 0014 0000 0014 0000 0014 0000 0000
0000 0000 0000 0000 0000 0000 0000 0000
0000 0000 0000 0000 0000 0000 0000 0000
0000 0000 0000 0000 0000 0000 0000 0000
0000 0000 0000 0000 0000 0000 0000 0000
0000 0014 0000 0014 0000 0014 0000 0014
0000 0014 0000 0014 0000 0014 0000 0014
0000 0014 0000 0014 0000 0014 0000 0014
0000 0014 0000 0014 0000 0000 0000 0000
0000 0000 0000 0000 0000 0000 0000 0000
0000 0000 0000 0000 0000 0000 0000 0000
0000 0000 0000 0000 0000 0000 0000 0000
0000 0000 0000 0000 0000 0000 0000 0000
0000 0014 0000 0014 0000 0014 0000 0014
0000 0014 0000 0014 0000 0014 0000 0014
0000 0014 0000 0014 0000 0014 0000 0014
0000 0014 0000 0000 0000 0000 0000 0000
0000 0000 0000 0000 0000 0000 0000 0000
0000 0000 0000 0000 0000 0000 0000 0000
0000 0000 0000 0000 0000 0000 0000 0000
0000 0000 0000 0000 0000 0000 0000 0000
0000 0014 0000 0014 0000 0014 0000 0014
0000 0014 0000 0014 0000 0014 0000 0014
0000 0014 0000 0014 0000 0014 0000 0014
0000 0000 0000 0000 0000 0000 0000 0000
0000 0000 0000 0000 0000 0000 0000 0000
0000 0000 0000 0000 0000 0000 0000 0000
0000 0000 0000 0000 0000 0000 0000 0000
0000 0000 0000 0000 0000 0000 0000 0000
0000 0014 0000 0014 0000 0014 0000 0014
0000 0014 0000 0014 0000 0014 0000 0014
0000 0014 0000 0014 0000 0014 0000 0000
0000 0000 0000 0000 0000 0000 0000 0000
0000 0000 0000 0000 0000 0000 0000 0000
0000 0000 0000 0000 0000 0000 0000 0000
0000 0000 0000 0000 0000 0000 0000 0000
0000 0000 0000 0000 0000 0000 0000 0000
0000 0000 0000 0000 0000 0000 0000 0000
0000 0000 0000 0000 0000 0000 0000 0000
0000 0000 0000 0000 0000 0014 0000 0014
0000 0014 0000 0014 0000 0014 0000 0014
0000 0014 0000 0014 0000 0014 0000 0014
0000 0000 0000 0000 0000 0000 0000 0000
0000 0000 0000 0000 0000 0000 0000 0000
0000 0000 0000 0000 0000 0000 0000 0000
0000 0000 0000 0000 0000 0000 0000 0000
0000 0000 0000 0000 0000 0000 0000 0000
0000 0000 0000 0014 0000 0014 0000 0014
0000 0014 0000 0014 0000 0014 0000 0014
0000 0014 0000 0014 0000 0014 0000 0014
0000 0000 0000 0000 0000 0000 0000 0000
0000 0000 0000 0000 0000 0000 0000 0000
0000 0000 0000 0000 0000 0000 0000 0000
0000 0000 0000 0000 0000 0000 0000 0000
0000 0000 0000 0000 0000 0000 0000 0000
0000 0014 0000 0014 0000 0014 0000 0014
0000 0014 0000 0014 0000 0014 0000 0014
0000 0014 0000 0014 0000 0014 0000 0014
0000 0000 0000 0000 0000 0000 0000 0000
0000 0000 0000 0000 0000 0000 0000 0000
0000 0000 0000 0000 0000 0000 0000 0000
0000 0000 0000 0000 0000 0000 0000 0000
0000 0000 0000 0000 0000 0000 0000 0014
0000 0014 0000 0014 0000 0014 0000 0014
0000 0014 0000 0014 0000 0014 0000 0014
0000 0014 0000 0014 0000 0014 0000 0014
0000 0000 0000 0000 0000 0000 0000 0000
0000 0000 0000 0000 0000 0000 0000 0000
0000 0000 0000 0000 0000 0000 0000 0000
0000 0000 0000 0000 0000 0000 0000 0000
0000 0000 0000 0000 0000 0014 0000 0014
0000 0014 0000 0014 0000 0014 0000 0014
0000 0014 0000 0014 0000 0014 0000 0014
0000 0014 0000 0014 0000 0014 0000 0014
0000 0000 0000 0000 0000 0000 0000 0000
0000 0000 0000 0000 0000 0000 0000 0000
0000 0000 0000 0000 0000 0000 0000 0000
0000 0000 0000 0000 0000 0000 0000 0000
0000 0000 0000 0014 0000 0014 0000 0014
0000 0014 0000 0014 0000 0014 0000 0014
0000 0014 0000 0014 0000 0014 0000 0014
0000 0014 0000 0014 0000 0014 0000 0014
0000 0000 0000 0000 0000 0000 0000 0000
0000 0000 0000 0000 0000 0000 0000 0000
0000 0000 0000 0000 0000 0000 0000 0000
0000 0000 0000 0000 0000 0000 0000 0000
0000 0014 0000 0014 0000 0014 0000 0014
0000 0014 0000 0014 0000 0014 0000 0014
0000 0014 0000 0014 0000 0014 0000 0014
0000 0014 0000 0014 0000 0014 0000 0014
0000 0000 0000 0000 0000 0000 0000 0000
0000 0000 0000 0000 0000 0000 0000 0000
0000 0000 0000 0000 0000 0000 0000 0000
0000 0000 0000 0000 0000 0000 0000 0014
0000 0014 0000 0014 0000 0014 0000 0014
0000 0014 0000 0014 0000 0014 0000 0014
0000 0014 0000 0014 0000 0014 0000 0014
0000 0014 0000 0014 0000 0014 0000 0014
0000 0000 0000 0000 0000 0000 0000 0000
0000 0000 0000 0000 0000 0000 0000 0000
0000 0000 0000 0000 0000 0000 0000 0000
0000 0000 0000 0000 0000 0014 0000 0014
0000 0014 0000 0014 0000 0014 0000 0014
0000 0014 0000 0014 0000 0014 0000 0014
0000 0014 0000 0014 0000 0014 0000 0014
0000 0014 0000 0014 0000 0014 0000 0014
0000 0000 0000 0000 0000 0000 0000 0000
0000 0000 0000 0000 0000 0000 0000 0000
0000 0000 0000 0000 0000 0000 0000 0000
0000 0000 0000 0014 0000 0014 0000 0014
0000 0014 0000 0014 0000 0014 0000 0014
0000 0014 0000 0014 0000 0014 0000 0014
0000 0014 0000 0014 0000 0014 0000 0014
0000 0014 0000 0014 0000 0014 0000 0014
0000 0000 0000 0000 0000 0000 0000 0000
0000 0000 0000 0000 0000 0000 0000 0000
0000 0000 0000 0000 0000 0000 0000 0000