0000 0012 0000 0012 0000 0012 0000 0012
0000 0012 0000 0012 0000 0012 0000 0012
0000 0012 0000 0012 0000 0012 0000 0012
0000 0012 0000 0012 0000 0012 0000 0012
0000 0012 0000 0012 0000 0012 0000 0012
0000 0000 0000 0000 0000 0000 0000 0000
0000 0000 0000 0000 0000 0000 0000 0000
0000 0000 0000 0000 0000 0000 0000 0000
0000 0012 0000 0012 0000 0012 0000 0012
0000 0012 0000 0012 0000 0012 0000 0012
0000 0012 0000 0012 0000 0012 0000 0012
0000 0012 0000 0012 0000 0012 0000 0012
0000 0012 0000 0012 0000 0012 0000 0012
0000 0000 0000 0000 0000 0000 0000 0000
0000 0000 0000 0000 0000 0000 0000 0000
0000 0000 0000 0000 0000 0000 0000 0000
0000 0012 0000 0012 0000 0012 0000 0012
0000 0012 0000 0012 0000 0012 0000 0012
0000 0012 0000 0012 0000 0012 0000 0012
0000 0012 0000 0012 0000 0012 0000 0012
0000 0012 0000 0012 0000 0012 0000 0012
0000 0000 0000 0000 0000 0000 0000 0000
0000 0000 0000 0000 0000 0000 0000 0000
0000 0000 0000 0000 0000 0000 0000 0000
0000 0012 0000 0012 0000 0012 0000 0012
0000 0012 0000 0012 0000 0012 0000 0012
0000 0012 0000 0012 0000 0012 0000 0012
0000 0012 0000 0012 0000 0012 0000 0012
0000 0012 0000 0012 0000 0012 0000 0012
0000 0000 0000 0000 0000 0000 0000 0000
0000 0000 0000 0000 0000 0000 0000 0000
0000 0000 0000 0000 0000 0000 0000 0000
0000 0012 0000 0012 0000 0012 0000 0012
0000 0012 0000 0012 0000 0012 0000 0012
0000 0012 0000 0012 0000 0012 0000 0012
0000 0012 0000 0012 0000 0012 0000 0012
0000 0012 0000 0012 0000 0012 0000 0012
0000 0000 0000 0000 0000 0000 0000 0000
0000 0000 0000 0000 0000 0000 0000 0000
0000 0000 0000 0000 0000 0000 0000 0000
0000 0012 0000 0012 0000 0012 0000 0012
0000 0012 0000 0012 0000 0012 0000 0012
0000 0012 0000 0012 0000 0012 0000 0012
0000 0012 0000 0012 0000 0012 0000 0012
0000 0012 0000 0012 0000 0012 0000 0012
0000 0000 0000 0000 0000 0000 0000 0000
0000 0000 0000 0000 0000 0000 0000 0000
0000 0000 0000 0000 0000 0000 0000 0000
0000 0012 0000 0012 0000 0012 0000 0012
0000 0012 0000 0012 0000 0012 0000 0012
0000 0012 0000 0012 0000 0012 0000 0012
0000 0012 0000 0012 0000 0012 0000 0012
0000 0012 0000 0012 0000 0012 0000 0012
0000 0000 0000 0000 0000 0000 0000 0000
0000 0000 0000 0000 0000 0000 0000 0000
0000 0000 0000 0000 0000 0000 0000 0000
0000 0012 0000 0012 0000 0012 0000 0012
0000 0012 0000 0012 0000 0012 0000 0012
0000 0012 0000 0012 0000 0012 0000 0012
0000 0012 0000 0012 0000 0012 0000 0012
0000 0012 0000 0012 0000 0012 0000 0012
0000 0000 0000 0000 0000 0000 0000 0000
0000 0000 0000 0000 0000 0000 0000 0000
0000 0000 0000 0000 0000 0000 0000 0000
0000 0012 0000 0012 0000 0012 0000 0012
0000 0012 0000 0012 0000 0012 0000 0012
0000 0012 0000 0012 0000 0012 0000 0012
0000 0012 0000 0012 0000 0012 0000 0012
0000 0012 0000 0012 0000 0012 0000 0012
0000 0000 0000 0000 0000 0000 0000 0000
0000 0000 0000 0000 0000 0000 0000 0000
0000 0000 0000 0000 0000 0000 0000 0000
0000 0012 0000 0012 0000 0012 0000 0012
0000 0012 0000 0012 0000 0012 0000 0012
0000 0012 0000 0012 0000 0012 0000 0012
0000 0012 0000 0012 0000 0012 0000 0012
0000 0012 0000 0012 0000 0012 0000 0012
0000 0000 0000 0000 0000 0000 0000 0000
0000 0000 0000 0000 0000 0000 0000 0000
0000 0000 0000 0000 0000 0000 0000 0000
0000 0012 0000 0012 0000 0012 0000 0012
0000 0012 0000 0012 0000 0012 0000 0012
0000 0012 0000 0012 0000 0012 0000 0012
0000 0012 0000 0012 0000 0012 0000 0012
0000 0012 0000 0012 0000 0012 0000 0012
0000 0000 0000 0000 0000 0000 0000 0000
0000 0000 0000 0000 0000 0000 0000 0000
0000 0000 0000 0000 0000 0000 0000 0000
0000 0012 0000 0012 0000 0012 0000 0012
0000 0012 0000 0012 0000 0012 0000 0012
0000 0012 0000 0012 0000 0012 0000 0012
0000 0012 0000 0012 0000 0012 0000 0012
0000 0012 0000 0012 0000 0012 0000 0012
0000 0000 0000 0000 0000 0000 0000 0000
0000 0000 0000 0000 0000 0000 0000 0000
0000 0000 0000 0000 0000 0000 0000 0000
0000 0012 0000 0012 0000 0012 0000 0012
0000 0012 0000 0012 0000 0012 0000 0012
0000 0012 0000 0012 0000 0012 0000 0012
0000 0012 0000 0012 0000 0012 0000 0012
0000 0012 0000 0012 0000 0012 0000 0012
0000 0000 0000 0000 0000 0000 0000 0000
0000 0000 0000 0000 0000 0000 0000 0000
0000 0000 0000 0000 0000 0000 0000 0000
0000 0012 0000 0012 0000 0012 0000 0012
0000 0012 0000 0012 0000 0012 0000 0012
0000 0012 0000 0012 0000 0012 0000 0012
0000 0012 0000 0012 0000 0012 0000 0012
0000 0012 0000 0012 0000 0012 0000 0000
0000 0000 0000 0000 0000 0000 0000 0000
0000 0000 0000 0000 0000 0000 0000 0000
0000 0000 0000 0000 0000 0000 0000 0000
0000 0012 0000 0012 0000 0012 0000 0012
0000 0012 0000 0012 0000 0012 0000 0012
0000 0012 0000 0012 0000 0012 0000 0012
0000 0012 0000 0012 0000 0012 0000 0012
0000 0012 0000 0012 0000 0000 0000 0000
0000 0000 0000 0000 0000 0000 0000 0000
0000 0000 0000 0000 0000 0000 0000 0000
0000 0000 0000 0000 0000 0000 0000 0000
0000 0012 0000 0012 0000 0012 0000 0012
0000 0012 0000 0012 0000 0012 0000 0012
0000 0012 0000 0012 0000 0012 0000 0012
0000 0012 0000 0012 0000 0012 0000 0012
0000 0012 0000 0000 0000 0000 0000 0000
0000 0000 0000 0000 0000 0000 0000 0000
0000 0000 0000 0000 0000 0000 0000 0000
0000 0000 0000 0000 0000 0000 0000 0000
0000 0012 0000 0012 0000 0012 0000 0012
0000 0012 0000 0012 0000 0012 0000 0012
0000 0012 0000 0012 0000 0012 0000 0012
0000 0012 0000 0012 0000 0012 0000 0012
0000 0000 0000 0000 0000 0000 0000 0000
0000 0000 0000 0000 0000 0000 0000 0000
0000 0000 0000 0000 0000 0000 0000 0000
0000 0000 0000 0000 0000 0000 0000 0000
0000 0012 0000 0012 0000 0012 0000 0012
0000 0012 0000 0012 0000 0012 0000 0012
0000 0012 0000 0012 0000 0012 0000 0012
0000 0012 0000 0012 0000 0012 0000 0000
0000 0000 0000 0000 0000 0000 0000 0000
0000 0000 0000 0000 0000 0000 0000 0000
0000 0000 0000 0000 0000 0000 0000 0000
0000 0000 0000 0000 0000 0000 0000 0000
0000 0012 0000 0012 0000 0012 0000 0012
0000 0012 0000 0012 0000 0012 0000 0012
0000 0012 0000 0012 0000 0012 0000 0012
0000 0012 0000 0012 0000 0000 0000 0000
0000 0000 0000 0000 0000 0000 0000 0000
0000 0000 0000 0000 0000 0000 0000 0000
0000 0000 0000 0000 0000 0000 0000 0000
0000 0000 0000 0000 0000 0000 0000 0000
0000 0012 0000 0012 0000 0012 0000 0012
0000 0012 0000 0012 0000 0012 0000 0012
0000 0012 0000 0012 0000 0012 0000 0012
0000 0012 0000 0000 0000 0000 0000 0000
0000 0000 0000 0000 0000 0000 0000 0000
0000 0000 0000 0000 0000 0000 0000 0000
0000 0000 0000 0000 0000 0000 0000 0000
0000 0000 0000 0000 0000 0000 0000 0000
0000 0012 0000 0012 0000 0012 0000 0012
0000 0012 0000 0012 0000 0012 0000 0012
0000 0012 0000 0012 0000 0012 0000 0012
0000 0000 0000 0000 0000 0000 0000 0000
0000 0000 0000 0000 0000 0000 0000 0000
0000 0000 0000 0000 0000 0000 0000 0000
0000 0000 0000 0000 0000 0000 0000 0000
0000 0000 0000 0000 0000 0000 0000 0000
0000 0012 0000 0012 0000 0012 0000 0012
0000 0012 0000 0012 0000 0012 0000 0012
0000 0012 0000 0012 0000 0012 0000 0000
0000 0000 0000 0000 0000 0000 0000 0000
0000 0000 0000 0000 0000 0000 0000 0000
0000 0000 0000 0000 0000 0000 0000 0000
0000 0000 0000 0000 0000 0000 0000 0000
0000 0000 0000 0000 0000 0000 0000 0000
0000 0000 0000 0000 0000 0000 0000 0000
0000 0000 0000 0000 0000 0000 0000 0000
0000 0000 0000 0000 0000 0012 0000 0012
0000 0012 0000 0012 0000 0012 0000 0012
0000 0012 0000 0012 0000 0012 0000 0012
0000 0000 0000 0000 0000 0000 0000 0000
0000 0000 0000 0000 0000 0000 0000 0000
0000 0000 0000 0000 0000 0000 0000 0000
0000 0000 0000 0000 0000 0000 0000 0000
0000 0000 0000 0000 0000 0000 0000 0000
0000 0000 0000 0012 0000 0012 0000 0012
0000 0012 0000 0012 0000 0012 0000 0012
0000 0012 0000 0012 0000 0012 0000 0012
0000 0000 0000 0000 0000 0000 0000 0000
0000 0000 0000 0000 0000 0000 0000 0000
0000 0000 0000 0000 0000 0000 0000 0000
0000 0000 0000 0000 0000 0000 0000 0000
0000 0000 0000 0000 0000 0000 0000 0000
0000 0012 0000 0012 0000 0012 0000 0012
0000 0012 0000 0012 0000 0012 0000 0012
0000 0012 0000 0012 0000 0012 0000 0012
0000 0000 0000 0000 0000 0000 0000 0000
0000 0000 0000 0000 0000 0000 0000 0000
0000 0000 0000 0000 0000 0000 0000 0000
0000 0000 0000 0000 0000 0000 0000 0000
0000 0000 0000 0000 0000 0000 0000 0012
0000 0012 0000 0012 0000 0012 0000 0012
0000 0012 0000 0012 0000 0012 0000 0012
0000 0012 0000 0012 0000 0012 0000 0012
0000 0000 0000 0000 0000 0000 0000 0000
0000 0000 0000 0000 0000 0000 0000 0000
0000 0000 0000 0000 0000 0000 0000 0000
0000 0000 0000 0000 0000 0000 0000 0000
0000 0000 0000 0000 0000 0012 0000 0012
0000 0012 0000 0012 0000 0012 0000 0012
0000 0012 0000 0012 0000 0012 0000 0012
0000 0012 0000 0012 0000 0012 0000 0012
0000 0000 0000 0000 0000 0000 0000 0000
0000 0000 0000 0000 0000 0000 0000 0000
0000 0000 0000 0000 0000 0000 0000 0000
0000 0000 0000 0000 0000 0000 0000 0000
0000 0000 0000 0012 0000 0012 0000 0012
0000 0012 0000 0012 0000 0012 0000 0012
0000 0012 0000 0012 0000 0012 0000 0012
0000 0012 0000 0012 0000 0012 0000 0012
0000 0000 0000 0000 0000 0000 0000 0000
0000 0000 0000 0000 0000 0000 0000 0000
0000 0000 0000 0000 0000 0000 0000 0000
0000 0000 0000 0000 0000 0000 0000 0000
0000 0012 0000 0012 0000 0012 0000 0012
0000 0012 0000 0012 0000 0012 0000 0012
0000 0012 0000 0012 0000 0012 0000 0012
0000 0012 0000 0012 0000 0012 0000 0012
0000 0000 0000 0000 0000 0000 0000 0000
0000 0000 0000 0000 0000 0000 0000 0000
0000 0000 0000 0000 0000 0000 0000 0000
0000 0000 0000 0000 0000 0000 0000 0012
0000 0012 0000 0012 0000 0012 0000 0012
0000 0012 0000 0012 0000 0012 0000 0012
0000 0012 0000 0012 0000 0012 0000 0012
0000 0012 0000 0012 0000 0012 0000 0012
0000 0000 0000 0000 0000 0000 0000 0000
0000 0000 0000 0000 0000 0000 0000 0000
0000 0000 0000 0000 0000 0000 0000 0000
0000 0000 0000 0000 0000 0012 0000 0012
0000 0012 0000 0012 0000 0012 0000 0012
0000 0012 0000 0012 0000 0012 0000 0012
0000 0012 0000 0012 0000 0012 0000 0012
0000 0012 0000 0012 0000 0012 0000 0012
0000 0000 0000 0000 0000 0000 0000 0000
0000 0000 0000 0000 0000 0000 0000 0000
0000 0000 0000 0000 0000 0000 0000 0000
0000 0000 0000 0012 0000 0012 0000 0012
0000 0012 0000 0012 0000 0012 0000 0012
0000 0012 0000 0012 0000 0012 0000 0012
0000 0012 0000 0012 0000 0012 0000 0012
0000 0012 0000 0012 0000 0012 0000 0012
0000 0000 0000 0000 0000 0000 0000 0000
0000 0000 0000 0000 0000 0000 0000 0000
0000 0000 0000 0000 0000 0000 0000 0000