0000 0021 0000 0021 0000 0021 0000 0021
0000 0021 0000 0021 0000 0021 0000 0021
0000 0021 0000 0021 0000 0021 0000 0021
0000 0021 0000 0021 0000 0021 0000 0021
0000 0021 0000 0021 0000 0021 0000 0021
0000 0000 0000 0000 0000 0000 0000 0000
0000 0000 0000 0000 0000 0000 0000 0000
0000 0000 0000 0000 0000 0000 0000 0000
0000 0021 0000 0021 0000 0021 0000 0021
0000 0021 0000 0021 0000 0021 0000 0021
0000 0021 0000 0021 0000 0021 0000 0021
0000 0021 0000 0021 0000 0021 0000 0021
0000 0021 0000 0021 0000 0021 0000 0021
0000 0000 0000 0000 0000 0000 0000 0000
0000 0000 0000 0000 0000 0000 0000 0000
0000 0000 0000 0000 0000 0000 0000 0000
0000 0021 0000 0021 0000 0021 0000 0021
0000 0021 0000 0021 0000 0021 0000 0021
0000 0021 0000 0021 0000 0021 0000 0021
0000 0021 0000 0021 0000 0021 0000 0021
0000 0021 0000 0021 0000 0021 0000 0021
0000 0000 0000 0000 0000 0000 0000 0000
0000 0000 0000 0000 0000 0000 0000 0000
0000 0000 0000 0000 0000 0000 0000 0000
0000 0021 0000 0021 0000 0021 0000 0021
0000 0021 0000 0021 0000 0021 0000 0021
0000 0021 0000 0021 0000 0021 0000 0021
0000 0021 0000 0021 0000 0021 0000 0021
0000 0021 0000 0021 0000 0021 0000 0021
0000 0000 0000 0000 0000 0000 0000 0000
0000 0000 0000 0000 0000 0000 0000 0000
0000 0000 0000 0000 0000 0000 0000 0000
0000 0021 0000 0021 0000 0021 0000 0021
0000 0021 0000 0021 0000 0021 0000 0021
0000 0021 0000 0021 0000 0021 0000 0021
0000 0021 0000 0021 0000 0021 0000 0021
0000 0021 0000 0021 0000 0021 0000 0021
0000 0000 0000 0000 0000 0000 0000 0000
0000 0000 0000 0000 0000 0000 0000 0000
0000 0000 0000 0000 0000 0000 0000 0000
0000 0021 0000 0021 0000 0021 0000 0021
0000 0021 0000 0021 0000 0021 0000 0021
0000 0021 0000 0021 0000 0021 0000 0021
0000 0021 0000 0021 0000 0021 0000 0021
0000 0021 0000 0021 0000 0021 0000 0021
0000 0000 0000 0000 0000 0000 0000 0000
0000 0000 0000 0000 0000 0000 0000 0000
0000 0000 0000 0000 0000 0000 0000 0000
0000 0021 0000 0021 0000 0021 0000 0021
0000 0021 0000 0021 0000 0021 0000 0021
0000 0021 0000 0021 0000 0021 0000 0021
0000 0021 0000 0021 0000 0021 0000 0021
0000 0021 0000 0021 0000 0021 0000 0021
0000 0000 0000 0000 0000 0000 0000 0000
0000 0000 0000 0000 0000 0000 0000 0000
0000 0000 0000 0000 0000 0000 0000 0000
0000 0021 0000 0021 0000 0021 0000 0021
0000 0021 0000 0021 0000 0021 0000 0021
0000 0021 0000 0021 0000 0021 0000 0021
0000 0021 0000 0021 0000 0021 0000 0021
0000 0021 0000 0021 0000 0021 0000 0021
0000 0000 0000 0000 0000 0000 0000 0000
0000 0000 0000 0000 0000 0000 0000 0000
0000 0000 0000 0000 0000 0000 0000 0000
0000 0021 0000 0021 0000 0021 0000 0021
0000 0021 0000 0021 0000 0021 0000 0021
0000 0021 0000 0021 0000 0021 0000 0021
0000 0021 0000 0021 0000 0021 0000 0021
0000 0021 0000 0021 0000 0021 0000 0021
0000 0000 0000 0000 0000 0000 0000 0000
0000 0000 0000 0000 0000 0000 0000 0000
0000 0000 0000 0000 0000 0000 0000 0000
0000 0021 0000 0021 0000 0021 0000 0021
0000 0021 0000 0021 0000 0021 0000 0021
0000 0021 0000 0021 0000 0021 0000 0021
0000 0021 0000 0021 0000 0021 0000 0021
0000 0021 0000 0021 0000 0021 0000 0021
0000 0000 0000 0000 0000 0000 0000 0000
0000 0000 0000 0000 0000 0000 0000 0000
0000 0000 0000 0000 0000 0000 0000 0000
0000 0021 0000 0021 0000 0021 0000 0021
0000 0021 0000 0021 0000 0021 0000 0021
0000 0021 0000 0021 0000 0021 0000 0021
0000 0021 0000 0021 0000 0021 0000 0021
0000 0021 0000 0021 0000 0021 0000 0021
0000 0000 0000 0000 0000 0000 0000 0000
0000 0000 0000 0000 0000 0000 0000 0000
0000 0000 0000 0000 0000 0000 0000 0000
0000 0021 0000 0021 0000 0021 0000 0021
0000 0021 0000 0021 0000 0021 0000 0021
0000 0021 0000 0021 0000 0021 0000 0021
0000 0021 0000 0021 0000 0021 0000 0021
0000 0021 0000 0021 0000 0021 0000 0021
0000 0000 0000 0000 0000 0000 0000 0000
0000 0000 0000 0000 0000 0000 0000 0000
0000 0000 0000 0000 0000 0000 0000 0000
0000 0021 0000 0021 0000 0021 0000 0021
0000 0021 0000 0021 0000 0021 0000 0021
0000 0021 0000 0021 0000 0021 0000 0021
0000 0021 0000 0021 0000 0021 0000 0021
0000 0021 0000 0021 0000 0021 0000 0021
0000 0000 0000 0000 0000 0000 0000 0000
0000 0000 0000 0000 0000 0000 0000 0000
0000 0000 0000 0000 0000 0000 0000 0000
0000 0021 0000 0021 0000 0021 0000 0021
0000 0021 0000 0021 0000 0021 0000 0021
0000 0021 0000 0021 0000 0021 0000 0021
0000 0021 0000 0021 0000 0021 0000 0021
0000 0021 0000 0021 0000 0021 0000 0000
0000 0000 0000 0000 0000 0000 0000 0000
0000 0000 0000 0000 0000 0000 0000 0000
0000 0000 0000 0000 0000 0000 0000 0000
0000 0021 0000 0021 0000 0021 0000 0021
0000 0021 0000 0021 0000 0021 0000 0021
0000 0021 0000 0021 0000 0021 0000 0021
0000 0021 0000 0021 0000 0021 0000 0021
0000 0021 0000 0021 0000 0000 0000 0000
0000 0000 0000 0000 0000 0000 0000 0000
0000 0000 0000 0000 0000 0000 0000 0000
0000 0000 0000 0000 0000 0000 0000 0000
0000 0021 0000 0021 0000 0021 0000 0021
0000 0021 0000 0021 0000 0021 0000 0021
0000 0021 0000 0021 0000 0021 0000 0021
0000 0021 0000 0021 0000 0021 0000 0021
0000 0021 0000 0000 0000 0000 0000 0000
0000 0000 0000 0000 0000 0000 0000 0000
0000 0000 0000 0000 0000 0000 0000 0000
0000 0000 0000 0000 0000 0000 0000 0000
0000 0021 0000 0021 0000 0021 0000 0021
0000 0021 0000 0021 0000 0021 0000 0021
0000 0021 0000 0021 0000 0021 0000 0021
0000 0021 0000 0021 0000 0021 0000 0021
0000 0000 0000 0000 0000 0000 0000 0000
0000 0000 0000 0000 0000 0000 0000 0000
0000 0000 0000 0000 0000 0000 0000 0000
0000 0000 0000 0000 0000 0000 0000 0000
0000 0021 0000 0021 0000 0021 0000 0021
0000 0021 0000 0021 0000 0021 0000 0021
0000 0021 0000 0021 0000 0021 0000 0021
0000 0021 0000 0021 0000 0021 0000 0000
0000 0000 0000 0000 0000 0000 0000 0000
0000 0000 0000 0000 0000 0000 0000 0000
0000 0000 0000 0000 0000 0000 0000 0000
0000 0000 0000 0000 0000 0000 0000 0000
0000 0021 0000 0021 0000 0021 0000 0021
0000 0021 0000 0021 0000 0021 0000 0021
0000 0021 0000 0021 0000 0021 0000 0021
0000 0021 0000 0021 0000 0000 0000 0000
0000 0000 0000 0000 0000 0000 0000 0000
0000 0000 0000 0000 0000 0000 0000 0000
0000 0000 0000 0000 0000 0000 0000 0000
0000 0000 0000 0000 0000 0000 0000 0000
0000 0021 0000 0021 0000 0021 0000 0021
0000 0021 0000 0021 0000 0021 0000 0021
0000 0021 0000 0021 0000 0021 0000 0021
0000 0021 0000 0000 0000 0000 0000 0000
0000 0000 0000 0000 0000 0000 0000 0000
0000 0000 0000 0000 0000 0000 0000 0000
0000 0000 0000 0000 0000 0000 0000 0000
0000 0000 0000 0000 0000 0000 0000 0000
0000 0021 0000 0021 0000 0021 0000 0021
0000 0021 0000 0021 0000 0021 0000 0021
0000 0021 0000 0021 0000 0021 0000 0021
0000 0000 0000 0000 0000 0000 0000 0000
0000 0000 0000 0000 0000 0000 0000 0000
0000 0000 0000 0000 0000 0000 0000 0000
0000 0000 0000 0000 0000 0000 0000 0000
0000 0000 0000 0000 0000 0000 0000 0000
0000 0021 0000 0021 0000 0021 0000 0021
0000 0021 0000 0021 0000 0021 0000 0021
0000 0021 0000 0021 0000 0021 0000 0000
0000 0000 0000 0000 0000 0000 0000 0000
0000 0000 0000 0000 0000 0000 0000 0000
0000 0000 0000 0000 0000 0000 0000 0000
0000 0000 0000 0000 0000 0000 0000 0000
0000 0000 0000 0000 0000 0000 0000 0000
0000 0000 0000 0000 0000 0000 0000 0000
0000 0000 0000 0000 0000 0000 0000 0000
0000 0000 0000 0000 0000 0021 0000 0021
0000 0021 0000 0021 0000 0021 0000 0021
0000 0021 0000 0021 0000 0021 0000 0021
0000 0000 0000 0000 0000 0000 0000 0000
0000 0000 0000 0000 0000 0000 0000 0000
0000 0000 0000 0000 0000 0000 0000 0000
0000 0000 0000 0000 0000 0000 0000 0000
0000 0000 0000 0000 0000 0000 0000 0000
0000 0000 0000 0021 0000 0021 0000 0021
0000 0021 0000 0021 0000 0021 0000 0021
0000 0021 0000 0021 0000 0021 0000 0021
0000 0000 0000 0000 0000 0000 0000 0000
0000 0000 0000 0000 0000 0000 0000 0000
0000 0000 0000 0000 0000 0000 0000 0000
0000 0000 0000 0000 0000 0000 0000 0000
0000 0000 0000 0000 0000 0000 0000 0000
0000 0021 0000 0021 0000 0021 0000 0021
0000 0021 0000 0021 0000 0021 0000 0021
0000 0021 0000 0021 0000 0021 0000 0021
0000 0000 0000 0000 0000 0000 0000 0000
0000 0000 0000 0000 0000 0000 0000 0000
0000 0000 0000 0000 0000 0000 0000 0000
0000 0000 0000 0000 0000 0000 0000 0000
0000 0000 0000 0000 0000 0000 0000 0021
0000 0021 0000 0021 0000 0021 0000 0021
0000 0021 0000 0021 0000 0021 0000 0021
0000 0021 0000 0021 0000 0021 0000 0021
0000 0000 0000 0000 0000 0000 0000 0000
0000 0000 0000 0000 0000 0000 0000 0000
0000 0000 0000 0000 0000 0000 0000 0000
0000 0000 0000 0000 0000 0000 0000 0000
0000 0000 0000 0000 0000 0021 0000 0021
0000 0021 0000 0021 0000 0021 0000 0021
0000 0021 0000 0021 0000 0021 0000 0021
0000 0021 0000 0021 0000 0021 0000 0021
0000 0000 0000 0000 0000 0000 0000 0000
0000 0000 0000 0000 0000 0000 0000 0000
0000 0000 0000 0000 0000 0000 0000 0000
0000 0000 0000 0000 0000 0000 0000 0000
0000 0000 0000 0021 0000 0021 0000 0021
0000 0021 0000 0021 0000 0021 0000 0021
0000 0021 0000 0021 0000 0021 0000 0021
0000 0021 0000 0021 0000 0021 0000 0021
0000 0000 0000 0000 0000 0000 0000 0000
0000 0000 0000 0000 0000 0000 0000 0000
0000 0000 0000 0000 0000 0000 0000 0000
0000 0000 0000 0000 0000 0000 0000 0000
0000 0021 0000 0021 0000 0021 0000 0021
0000 0021 0000 0021 0000 0021 0000 0021
0000 0021 0000 0021 0000 0021 0000 0021
0000 0021 0000 0021 0000 0021 0000 0021
0000 0000 0000 0000 0000 0000 0000 0000
0000 0000 0000 0000 0000 0000 0000 0000
0000 0000 0000 0000 0000 0000 0000 0000
0000 0000 0000 0000 0000 0000 0000 0021
0000 0021 0000 0021 0000 0021 0000 0021
0000 0021 0000 0021 0000 0021 0000 0021
0000 0021 0000 0021 0000 0021 0000 0021
0000 0021 0000 0021 0000 0021 0000 0021
0000 0000 0000 0000 0000 0000 0000 0000
0000 0000 0000 0000 0000 0000 0000 0000
0000 0000 0000 0000 0000 0000 0000 0000
0000 0000 0000 0000 0000 0021 0000 0021
0000 0021 0000 0021 0000 0021 0000 0021
0000 0021 0000 0021 0000 0021 0000 0021
0000 0021 0000 0021 0000 0021 0000 0021
0000 0021 0000 0021 0000 0021 0000 0021
0000 0000 0000 0000 0000 0000 0000 0000
0000 0000 0000 0000 0000 0000 0000 0000
0000 0000 0000 0000 0000 0000 0000 0000
0000 0000 0000 0021 0000 0021 0000 0021
0000 0021 0000 0021 0000 0021 0000 0021
0000 0021 0000 0021 0000 0021 0000 0021
0000 0021 0000 0021 0000 0021 0000 0021
0000 0021 0000 0021 0000 0021 0000 0021
0000 0000 0000 0000 0000 0000 0000 0000
0000 0000 0000 0000 0000 0000 0000 0000
0000 0000 0000 0000 0000 0000 0000 0000