0000 001b 0000 001b 0000 001b 0000 001b
0000 001b 0000 001b 0000 001b 0000 001b
0000 001b 0000 001b 0000 001b 0000 001b
0000 001b 0000 001b 0000 001b 0000 001b
0000 001b 0000 001b 0000 001b 0000 001b
0000 001b 0000 001b 0000 001b 0000 001b
0000 001b 0000 001b 0000 001b 0000 001b
0000 001b 0000 001b 0000 001b 0000 001b
0000 001c 0000 001c 0000 001c 0000 001c
0000 001c 0000 001c 0000 001c 0000 001c
0000 001c 0000 001c 0000 001c 0000 001c
0000 001c 0000 001c 0000 001c 0000 001c
0000 001c 0000 001c 0000 001c 0000 001c
0000 001c 0000 001c 0000 001c 0000 001c
0000 001c 0000 001c 0000 001c 0000 001c
0000 001c 0000 001c 0000 001c 0000 001c
0000 001d 0000 001d 0000 001d 0000 001d
0000 001d 0000 001d 0000 001d 0000 001d
0000 001d 0000 001d 0000 001d 0000 001d
0000 001d 0000 001d 0000 001d 0000 001d
0000 001d 0000 001d 0000 001d 0000 001d
0000 001d 0000 001d 0000 001d 0000 001d
0000 001d 0000 001d 0000 001d 0000 001d
0000 001d 0000 001d 0000 001d 0000 001d
0000 001e 0000 001e 0000 001e 0000 001e
0000 001e 0000 001e 0000 001e 0000 001e
0000 001e 0000 001e 0000 001e 0000 001e
0000 001e 0000 001e 0000 001e 0000 001e
0000 001e 0000 001e 0000 001e 0000 001e
0000 001e 0000 001e 0000 001e 0000 001e
0000 001e 0000 001e 0000 001e 0000 001e
0000 001e 0000 001e 0000 001e 0000 001e
0000 001f 0000 001f 0000 001f 0000 001f
0000 001f 0000 001f 0000 001f 0000 001f
0000 001f 0000 001f 0000 001f 0000 001f
0000 001f 0000 001f 0000 001f 0000 001f
0000 001f 0000 001f 0000 001f 0000 001f
0000 001f 0000 001f 0000 001f 0000 001f
0000 001f 0000 001f 0000 001f 0000 001f
0000 001f 0000 001f 0000 001f 0000 001f
0000 0020 0000 0020 0000 0020 0000 0020
0000 0020 0000 0020 0000 0020 0000 0020
0000 0020 0000 0020 0000 0020 0000 0020
0000 0020 0000 0020 0000 0020 0000 0020
0000 0020 0000 0020 0000 0020 0000 0020
0000 0020 0000 0020 0000 0020 0000 0020
0000 0020 0000 0020 0000 0020 0000 0020
0000 0020 0000 0020 0000 0020 0000 0020
0000 0021 0000 0021 0000 0021 0000 0021
0000 0021 0000 0021 0000 0021 0000 0021
0000 0021 0000 0021 0000 0021 0000 0021
0000 0021 0000 0021 0000 0021 0000 0021
0000 0021 0000 0021 0000 0021 0000 0021
0000 0021 0000 0021 0000 0021 0000 0021
0000 0021 0000 0021 0000 0021 0000 0021
0000 0021 0000 0021 0000 0021 0000 0021
0000 0022 0000 0022 0000 0022 0000 0022
0000 0022 0000 0022 0000 0022 0000 0022
0000 0022 0000 0022 0000 0022 0000 0022
0000 0022 0000 0022 0000 0022 0000 0022
0000 0022 0000 0022 0000 0022 0000 0022
0000 0022 0000 0022 0000 0022 0000 0022
0000 0022 0000 0022 0000 0022 0000 0022
0000 0022 0000 0022 0000 0022 0000 0022
0000 0023 0000 0023 0000 0023 0000 0023
0000 0023 0000 0023 0000 0023 0000 0023
0000 0023 0000 0023 0000 0023 0000 0023
0000 0023 0000 0023 0000 0023 0000 0023
0000 0023 0000 0023 0000 0023 0000 0023
0000 0023 0000 0023 0000 0023 0000 0023
0000 0023 0000 0023 0000 0023 0000 0023
0000 0023 0000 0023 0000 0023 0000 0023
0000 0024 0000 0024 0000 0024 0000 0024
0000 0024 0000 0024 0000 0024 0000 0024
0000 0024 0000 0024 0000 0024 0000 0024
0000 0024 0000 0024 0000 0024 0000 0024
0000 0024 0000 0024 0000 0024 0000 0024
0000 0024 0000 0024 0000 0024 0000 0024
0000 0024 0000 0024 0000 0024 0000 0024
0000 0024 0000 0024 0000 0024 0000 0024
0000 0025 0000 0025 0000 0025 0000 0025
0000 0025 0000 0025 0000 0025 0000 0025
0000 0025 0000 0025 0000 0025 0000 0025
0000 0025 0000 0025 0000 0025 0000 0025
0000 0025 0000 0025 0000 0025 0000 0025
0000 0025 0000 0025 0000 0025 0000 0025
0000 0025 0000 0025 0000 0025 0000 0025
0000 0025 0000 0025 0000 0025 0000 0025
0000 0026 0000 0026 0000 0026 0000 0026
0000 0026 0000 0026 0000 0026 0000 0026
0000 0026 0000 0026 0000 0026 0000 0026
0000 0026 0000 0026 0000 0026 0000 0026
0000 0026 0000 0026 0000 0026 0000 0026
0000 0026 0000 0026 0000 0026 0000 0026
0000 0026 0000 0026 0000 0026 0000 0026
0000 0026 0000 0026 0000 0026 0000 0026
0000 0028 0000 0028 0000 0028 0000 0028
0000 0028 0000 0028 0000 0028 0000 0028
0000 0028 0000 0028 0000 0028 0000 0028
0000 0028 0000 0028 0000 0028 0000 0028
0000 0028 0000 0028 0000 0028 0000 0028
0000 0028 0000 0028 0000 0028 0000 0028
0000 0028 0000 0028 0000 0028 0000 0028
0000 0028 0000 0028 0000 0028 0000 0028
0000 0029 0000 0029 0000 0029 0000 0029
0000 0029 0000 0029 0000 0029 0000 0029
0000 0029 0000 0029 0000 0029 0000 0029
0000 0029 0000 0029 0000 0029 0000 0029
0000 0029 0000 0029 0000 0029 0000 0029
0000 0029 0000 0029 0000 0029 0000 0029
0000 0029 0000 0029 0000 0029 0000 0029
0000 0029 0000 0029 0000 0029 0000 0029
0000 002a 0000 002a 0000 002a 0000 002a
0000 002a 0000 002a 0000 002a 0000 002a
0000 002a 0000 002a 0000 002a 0000 002a
0000 002a 0000 002a 0000 002a 0000 002a
0000 002a 0000 002a 0000 002a 0000 002a
0000 002a 0000 002a 0000 002a 0000 002a
0000 002a 0000 002a 0000 002a 0000 002a
0000 002a 0000 002a 0000 002a 0000 002a
0000 002b 0000 002b 0000 002b 0000 002b
0000 002b 0000 002b 0000 002b 0000 002b
0000 002b 0000 002b 0000 002b 0000 002b
0000 002b 0000 002b 0000 002b 0000 002b
0000 002b 0000 002b 0000 002b 0000 002b
0000 002b 0000 002b 0000 002b 0000 002b
0000 002b 0000 002b 0000 002b 0000 002b
0000 002b 0000 002b 0000 002b 0000 002b
0000 002c 0000 002c 0000 002c 0000 002c
0000 002c 0000 002c 0000 002c 0000 002c
0000 002c 0000 002c 0000 002c 0000 002c
0000 002c 0000 002c 0000 002c 0000 002c
0000 002c 0000 002c 0000 002c 0000 002c
0000 002c 0000 002c 0000 002c 0000 002c
0000 002c 0000 002c 0000 002c 0000 002c
0000 002c 0000 002c 0000 002c 0000 002c
0000 002d 0000 002d 0000 002d 0000 002d
0000 002d 0000 002d 0000 002d 0000 002d
0000 002d 0000 002d 0000 002d 0000 002d
0000 002d 0000 002d 0000 002d 0000 002d
0000 002d 0000 002d 0000 002d 0000 002d
0000 002d 0000 002d 0000 002d 0000 002d
0000 002d 0000 002d 0000 002d 0000 002d
0000 002d 0000 002d 0000 002d 0000 002d
0000 002e 0000 002e 0000 002e 0000 002e
0000 002e 0000 002e 0000 002e 0000 002e
0000 002e 0000 002e 0000 002e 0000 002e
0000 002e 0000 002e 0000 002e 0000 002e
0000 002e 0000 002e 0000 002e 0000 002e
0000 002e 0000 002e 0000 002e 0000 002e
0000 002e 0000 002e 0000 002e 0000 002e
0000 002e 0000 002e 0000 002e 0000 002e
0000 002f 0000 002f 0000 002f 0000 002f
0000 002f 0000 002f 0000 002f 0000 002f
0000 002f 0000 002f 0000 002f 0000 002f
0000 002f 0000 002f 0000 002f 0000 002f
0000 002f 0000 002f 0000 002f 0000 002f
0000 002f 0000 002f 0000 002f 0000 002f
0000 002f 0000 002f 0000 002f 0000 002f
0000 002f 0000 002f 0000 002f 0000 002f
0000 0030 0000 0030 0000 0030 0000 0030
0000 0030 0000 0030 0000 0030 0000 0030
0000 0030 0000 0030 0000 0030 0000 0030
0000 0030 0000 0030 0000 0030 0000 0030
0000 0030 0000 0030 0000 0030 0000 0030
0000 0030 0000 0030 0000 0030 0000 0030
0000 0030 0000 0030 0000 0030 0000 0030
0000 0030 0000 0030 0000 0030 0000 0030
0000 0031 0000 0031 0000 0031 0000 0031
0000 0031 0000 0031 0000 0031 0000 0031
0000 0031 0000 0031 0000 0031 0000 0031
0000 0031 0000 0031 0000 0031 0000 0031
0000 0031 0000 0031 0000 0031 0000 0031
0000 0031 0000 0031 0000 0031 0000 0031
0000 0031 0000 0031 0000 0031 0000 0031
0000 0031 0000 0031 0000 0031 0000 0031
0000 0010 0000 0010 0000 0010 0000 0010
0000 0010 0000 0010 0000 0010 0000 0010
0000 0010 0000 0010 0000 0010 0000 0010
0000 0010 0000 0010 0000 0010 0000 0010
0000 0010 0000 0010 0000 0010 0000 0010
0000 0010 0000 0010 0000 0010 0000 0010
0000 0010 0000 0010 0000 0010 0000 0010
0000 0010 0000 0010 0000 0010 0000 0010
0000 0012 0000 0012 0000 0012 0000 0012
0000 0012 0000 0012 0000 0012 0000 0012
0000 0012 0000 0012 0000 0012 0000 0012
0000 0012 0000 0012 0000 0012 0000 0012
0000 0012 0000 0012 0000 0012 0000 0012
0000 0012 0000 0012 0000 0012 0000 0012
0000 0012 0000 0012 0000 0012 0000 0012
0000 0012 0000 0012 0000 0012 0000 0012
0000 0013 0000 0013 0000 0013 0000 0013
0000 0013 0000 0013 0000 0013 0000 0013
0000 0013 0000 0013 0000 0013 0000 0013
0000 0013 0000 0013 0000 0013 0000 0013
0000 0013 0000 0013 0000 0013 0000 0013
0000 0013 0000 0013 0000 0013 0000 0013
0000 0013 0000 0013 0000 0013 0000 0013
0000 0013 0000 0013 0000 0013 0000 0013
0000 0014 0000 0014 0000 0014 0000 0014
0000 0014 0000 0014 0000 0014 0000 0014
0000 0014 0000 0014 0000 0014 0000 0014
0000 0014 0000 0014 0000 0014 0000 0014
0000 0014 0000 0014 0000 0014 0000 0014
0000 0014 0000 0014 0000 0014 0000 0014
0000 0014 0000 0014 0000 0014 0000 0014
0000 0014 0000 0014 0000 0014 0000 0014
0000 0015 0000 0015 0000 0015 0000 0015
0000 0015 0000 0015 0000 0015 0000 0015
0000 0015 0000 0015 0000 0015 0000 0015
0000 0015 0000 0015 0000 0015 0000 0015
0000 0015 0000 0015 0000 0015 0000 0015
0000 0015 0000 0015 0000 0015 0000 0015
0000 0015 0000 0015 0000 0015 0000 0015
0000 0015 0000 0015 0000 0015 0000 0015
0000 0016 0000 0016 0000 0016 0000 0016
0000 0016 0000 0016 0000 0016 0000 0016
0000 0016 0000 0016 0000 0016 0000 0016
0000 0016 0000 0016 0000 0016 0000 0016
0000 0016 0000 0016 0000 0016 0000 0016
0000 0016 0000 0016 0000 0016 0000 0016
0000 0016 0000 0016 0000 0016 0000 0016
0000 0016 0000 0016 0000 0016 0000 0016
0000 0017 0000 0017 0000 0017 0000 0017
0000 0017 0000 0017 0000 0017 0000 0017
0000 0017 0000 0017 0000 0017 0000 0017
0000 0017 0000 0017 0000 0017 0000 0017
0000 0017 0000 0017 0000 0017 0000 0017
0000 0017 0000 0017 0000 0017 0000 0017
0000 0017 0000 0017 0000 0017 0000 0017
0000 0017 0000 0017 0000 0017 0000 0017
0000 0018 0000 0018 0000 0018 0000 0018
0000 0018 0000 0018 0000 0018 0000 0018
0000 0018 0000 0018 0000 0018 0000 0018
0000 0018 0000 0018 0000 0018 0000 0018
0000 0018 0000 0018 0000 0018 0000 0018
0000 0018 0000 0018 0000 0018 0000 0018
0000 0018 0000 0018 0000 0018 0000 0018
0000 0018 0000 0018 0000 0018 0000 0018
0000 0019 0000 0019 0000 0019 0000 0019
0000 0019 0000 0019 0000 0019 0000 0019
0000 0019 0000 0019 0000 0019 0000 0019
0000 0019 0000 0019 0000 0019 0000 0019
0000 0019 0000 0019 0000 0019 0000 0019
0000 0019 0000 0019 0000 0019 0000 0019
0000 0019 0000 0019 0000 0019 0000 0019
0000 0019 0000 0019 0000 0019 0000 0019
0000 001a 0000 001a 0000 001a 0000 001a
0000 001a 0000 001a 0000 001a 0000 001a
0000 001a 0000 001a 0000 001a 0000 001a
0000 001a 0000 001a 0000 001a 0000 001a
0000 001a 0000 001a 0000 001a 0000 001a
0000 001a 0000 001a 0000 001a 0000 001a
0000 001a 0000 001a 0000 001a 0000 001a
0000 001a 0000 001a 0000 001a 0000 001a