0000 001c 0000 001c 0000 001c 0000 001c
0000 001c 0000 001c 0000 001c 0000 001c
0000 001c 0000 001c 0000 001c 0000 001c
0000 001c 0000 001c 0000 001c 0000 001c
0000 001c 0000 001c 0000 001c 0000 001c
0000 001c 0000 001c 0000 001c 0000 001c
0000 001c 0000 001c 0000 001c 0000 001c
0000 001c 0000 001c 0000 001c 0000 001c
0000 001c 0000 001c 0000 001c 0000 001c
0000 001c 0000 001c 0000 001c 0000 001c
0000 001c 0000 001c 0000 001c 0000 001c
0000 001c 0000 001c 0000 001c 0000 001c
0000 001c 0000 001c 0000 001c 0000 001c
0000 001c 0000 001c 0000 001c 0000 001c
0000 001c 0000 001c 0000 001c 0000 001c
0000 001c 0000 001c 0000 001c 0000 001c
0000 001c 0000 001c 0000 001c 0000 001c
0000 001c 0000 001c 0000 001c 0000 001c
0000 001c 0000 001c 0000 001c 0000 001c
0000 001c 0000 001c 0000 001c 0000 001c
0000 001c 0000 001c 0000 001c 0000 001c
0000 001c 0000 001c 0000 001c 0000 001c
0000 001c 0000 001c 0000 001c 0000 001c
0000 001c 0000 001c 0000 001c 0000 001c
0000 001c 0000 001c 0000 001c 0000 001c
0000 001c 0000 001c 0000 001c 0000 001c
0000 001c 0000 001c 0000 001c 0000 001c
0000 001c 0000 001c 0000 001c 0000 001c
0000 001c 0000 001c 0000 001c 0000 001c
0000 001c 0000 001c 0000 001c 0000 001c
0000 001c 0000 001c 0000 001c 0000 001c
0000 001c 0000 001c 0000 001c 0000 001c
0000 001c 0000 001c 0000 001c 0000 001c
0000 001c 0000 001c 0000 001c 0000 001c
0000 001c 0000 001c 0000 001c 0000 001c
0000 001c 0000 001c 0000 001c 0000 001c
0000 001c 0000 001c 0000 001c 0000 001c
0000 001c 0000 001c 0000 001c 0000 001c
0000 001c 0000 001c 0000 001c 0000 001c
0000 001c 0000 001c 0000 001c 0000 001c
0000 001c 0000 001c 0000 001c 0000 001c
0000 001c 0000 001c 0000 001c 0000 001c
0000 001c 0000 001c 0000 001c 0000 001c
0000 001c 0000 001c 0000 001c 0000 001c
0000 001c 0000 001c 0000 001c 0000 001c
0000 001c 0000 001c 0000 001c 0000 001c
0000 001c 0000 001c 0000 001c 0000 001c
0000 001c 0000 001c 0000 001c 0000 001c
0000 001c 0000 001c 0000 001c 0000 001c
0000 001c 0000 001c 0000 001c 0000 001c
0000 001c 0000 001c 0000 001c 0000 001c
0000 001c 0000 001c 0000 001c 0000 001c
0000 001c 0000 001c 0000 001c 0000 001c
0000 001c 0000 001c 0000 001c 0000 001c
0000 001c 0000 001c 0000 001c 0000 001c
0000 001c 0000 001c 0000 001c 0000 001c
0000 001c 0000 001c 0000 001c 0000 001c
0000 001c 0000 001c 0000 001c 0000 001c
0000 001c 0000 001c 0000 001c 0000 001c
0000 001c 0000 001c 0000 001c 0000 001c
0000 001c 0000 001c 0000 001c 0000 001c
0000 001c 0000 001c 0000 001c 0000 001c
0000 001c 0000 001c 0000 001c 0000 001c
0000 001c 0000 001c 0000 001c 0000 001c
0000 001c 0000 001c 0000 001c 0000 001c
0000 001c 0000 001c 0000 001c 0000 001c
0000 001c 0000 001c 0000 001c 0000 001c
0000 001c 0000 001c 0000 001c 0000 001c
0000 001c 0000 001c 0000 001c 0000 001c
0000 001c 0000 001c 0000 001c 0000 001c
0000 001c 0000 001c 0000 001c 0000 001c
0000 001c 0000 001c 0000 001c 0000 001c
0000 001c 0000 001c 0000 001c 0000 001c
0000 001c 0000 001c 0000 001c 0000 001c
0000 001c 0000 001c 0000 001c 0000 001c
0000 001c 0000 001c 0000 001c 0000 001c
0000 001c 0000 001c 0000 001c 0000 001c
0000 001c 0000 001c 0000 001c 0000 001c
0000 001c 0000 001c 0000 001c 0000 001c
0000 001c 0000 001c 0000 001c 0000 001c
0000 001c 0000 001c 0000 001c 0000 001c
0000 001c 0000 001c 0000 001c 0000 001c
0000 001c 0000 001c 0000 001c 0000 001c
0000 001c 0000 001c 0000 001c 0000 001c
0000 001c 0000 001c 0000 001c 0000 001c
0000 001c 0000 001c 0000 001c 0000 001c
0000 001c 0000 001c 0000 001c 0000 001c
0000 001c 0000 001c 0000 001c 0000 001c
0000 001c 0000 001c 0000 001c 0000 001c
0000 001c 0000 001c 0000 001c 0000 001c
0000 001c 0000 001c 0000 001c 0000 001c
0000 001c 0000 001c 0000 001c 0000 001c
0000 001c 0000 001c 0000 001c 0000 001c
0000 001c 0000 001c 0000 001c 0000 001c
0000 001c 0000 001c 0000 001c 0000 001c
0000 001c 0000 001c 0000 001c 0000 001c
0000 001c 0000 001c 0000 001c 0000 001c
0000 001c 0000 001c 0000 001c 0000 001c
0000 001c 0000 001c 0000 001c 0000 001c
0000 001c 0000 001c 0000 001c 0000 001c
0000 001c 0000 001c 0000 001c 0000 001c
0000 001c 0000 001c 0000 001c 0000 001c
0000 001c 0000 001c 0000 001c 0000 001c
0000 001c 0000 001c 0000 001c 0000 001c
0000 001c 0000 001c 0000 001c 0000 001c
0000 001c 0000 001c 0000 001c 0000 001c
0000 001c 0000 001c 0000 001c 0000 001c
0000 001c 0000 001c 0000 001c 0000 001c
0000 001c 0000 001c 0000 001c 0000 001c
0000 001c 0000 001c 0000 001c 0000 001c
0000 001c 0000 001c 0000 001c 0000 001c
0000 001c 0000 001c 0000 001c 0000 001c
0000 001c 0000 001c 0000 001c 0000 001c
0000 001c 0000 001c 0000 001c 0000 001c
0000 001c 0000 001c 0000 001c 0000 001c
0000 001c 0000 001c 0000 001c 0000 001c
0000 001c 0000 001c 0000 001c 0000 001c
0000 001c 0000 001c 0000 001c 0000 001c
0000 001c 0000 001c 0000 001c 0000 001c
0000 001c 0000 001c 0000 001c 0000 001c
0000 001c 0000 001c 0000 001c 0000 001c
0000 001c 0000 001c 0000 001c 0000 001c
0000 001c 0000 001c 0000 001c 0000 001c
0000 001c 0000 001c 0000 001c 0000 001c
0000 001c 0000 001c 0000 001c 0000 001c
0000 001c 0000 001c 0000 001c 0000 001c
0000 001c 0000 001c 0000 001c 0000 001c
0000 001c 0000 001c 0000 001c 0000 001c
0000 001c 0000 001c 0000 001c 0000 001c
0000 001c 0000 001c 0000 001c 0000 001c
0000 001c 0000 001c 0000 001c 0000 001c
0000 001c 0000 001c 0000 001c 0000 001c
0000 001c 0000 001c 0000 001c 0000 001c
0000 001c 0000 001c 0000 001c 0000 001c
0000 001c 0000 001c 0000 001c 0000 001c
0000 001c 0000 001c 0000 001c 0000 001c
0000 001c 0000 001c 0000 001c 0000 001c
0000 001c 0000 001c 0000 001c 0000 001c
0000 001c 0000 001c 0000 001c 0000 001c
0000 001c 0000 001c 0000 001c 0000 001c
0000 001c 0000 001c 0000 001c 0000 001c
0000 001c 0000 001c 0000 001c 0000 001c
0000 001c 0000 001c 0000 001c 0000 001c
0000 001c 0000 001c 0000 001c 0000 001c
0000 001c 0000 001c 0000 001c 0000 001c
0000 001c 0000 001c 0000 001c 0000 001c
0000 001c 0000 001c 0000 001c 0000 001c
0000 001c 0000 001c 0000 001c 0000 001c
0000 001c 0000 001c 0000 001c 0000 001c
0000 001c 0000 001c 0000 001c 0000 001c
0000 001c 0000 001c 0000 001c 0000 001c
0000 001c 0000 001c 0000 001c 0000 001c
0000 001c 0000 001c 0000 001c 0000 001c
0000 001c 0000 001c 0000 001c 0000 001c
0000 001c 0000 001c 0000 001c 0000 001c
0000 001c 0000 001c 0000 001c 0000 001c
0000 001c 0000 001c 0000 001c 0000 001c
0000 001c 0000 001c 0000 001c 0000 001c
0000 001c 0000 001c 0000 001c 0000 001c
0000 001c 0000 001c 0000 001c 0000 001c
0000 001c 0000 001c 0000 001c 0000 001c
0000 001c 0000 001c 0000 001c 0000 001c
0000 001c 0000 001c 0000 001c 0000 001c
0000 001c 0000 001c 0000 001c 0000 001c
0000 001c 0000 001c 0000 001c 0000 001c
0000 001c 0000 001c 0000 001c 0000 001c
0000 001c 0000 001c 0000 001c 0000 001c
0000 001c 0000 001c 0000 001c 0000 001c
0000 001c 0000 001c 0000 001c 0000 001c
0000 001c 0000 001c 0000 001c 0000 001c
0000 001c 0000 001c 0000 001c 0000 001c
0000 001c 0000 001c 0000 001c 0000 001c
0000 001c 0000 001c 0000 001c 0000 001c
0000 001c 0000 001c 0000 001c 0000 001c
0000 001c 0000 001c 0000 001c 0000 001c
0000 001c 0000 001c 0000 001c 0000 001c
0000 001c 0000 001c 0000 001c 0000 001c
0000 001c 0000 001c 0000 001c 0000 001c
0000 001c 0000 001c 0000 001c 0000 001c
0000 001c 0000 001c 0000 001c 0000 001c
0000 001c 0000 001c 0000 001c 0000 001c
0000 001c 0000 001c 0000 001c 0000 001c
0000 001c 0000 001c 0000 001c 0000 001c
0000 001c 0000 001c 0000 001c 0000 001c
0000 001c 0000 001c 0000 001c 0000 001c
0000 001c 0000 001c 0000 001c 0000 001c
0000 001c 0000 001c 0000 001c 0000 001c
0000 001c 0000 001c 0000 001c 0000 001c
0000 001c 0000 001c 0000 001c 0000 001c
0000 001c 0000 001c 0000 001c 0000 001c
0000 001c 0000 001c 0000 001c 0000 001c
0000 001c 0000 001c 0000 001c 0000 001c
0000 001c 0000 001c 0000 001c 0000 001c
0000 001c 0000 001c 0000 001c 0000 001c
0000 001c 0000 001c 0000 001c 0000 001c
0000 001c 0000 001c 0000 001c 0000 001c
0000 001c 0000 001c 0000 001c 0000 001c
0000 001c 0000 001c 0000 001c 0000 001c
0000 001c 0000 001c 0000 001c 0000 001c
0000 001c 0000 001c 0000 001c 0000 001c
0000 001c 0000 001c 0000 001c 0000 001c
0000 001c 0000 001c 0000 001c 0000 001c
0000 001c 0000 001c 0000 001c 0000 001c
0000 001c 0000 001c 0000 001c 0000 001c
0000 001c 0000 001c 0000 001c 0000 001c
0000 001c 0000 001c 0000 001c 0000 001c
0000 001c 0000 001c 0000 001c 0000 001c
0000 001c 0000 001c 0000 001c 0000 001c
0000 001c 0000 001c 0000 001c 0000 001c
0000 001c 0000 001c 0000 001c 0000 001c
0000 001c 0000 001c 0000 001c 0000 001c
0000 001c 0000 001c 0000 001c 0000 001c
0000 001c 0000 001c 0000 001c 0000 001c
0000 001c 0000 001c 0000 001c 0000 001c
0000 001c 0000 001c 0000 001c 0000 001c
0000 001c 0000 001c 0000 001c 0000 001c
0000 001c 0000 001c 0000 001c 0000 001c
0000 001c 0000 001c 0000 001c 0000 001c
0000 001c 0000 001c 0000 001c 0000 001c
0000 001c 0000 001c 0000 001c 0000 001c
0000 001c 0000 001c 0000 001c 0000 001c
0000 001c 0000 001c 0000 001c 0000 001c
0000 001c 0000 001c 0000 001c 0000 001c
0000 001c 0000 001c 0000 001c 0000 001c
0000 001c 0000 001c 0000 001c 0000 001c
0000 001c 0000 001c 0000 001c 0000 001c
0000 001c 0000 001c 0000 001c 0000 001c
0000 001c 0000 001c 0000 001c 0000 001c
0000 001c 0000 001c 0000 001c 0000 001c
0000 001c 0000 001c 0000 001c 0000 001c
0000 001c 0000 001c 0000 001c 0000 001c
0000 001c 0000 001c 0000 001c 0000 001c
0000 001c 0000 001c 0000 001c 0000 001c
0000 001c 0000 001c 0000 001c 0000 001c
0000 001c 0000 001c 0000 001c 0000 001c
0000 001c 0000 001c 0000 001c 0000 001c
0000 001c 0000 001c 0000 001c 0000 001c
0000 001c 0000 001c 0000 001c 0000 001c
0000 001c 0000 001c 0000 001c 0000 001c
0000 001c 0000 001c 0000 001c 0000 001c
0000 001c 0000 001c 0000 001c 0000 001c
0000 001c 0000 001c 0000 001c 0000 001c
0000 001c 0000 001c 0000 001c 0000 001c
0000 001c 0000 001c 0000 001c 0000 001c
0000 001c 0000 001c 0000 001c 0000 001c
0000 001c 0000 001c 0000 001c 0000 001c
0000 001c 0000 001c 0000 001c 0000 001c
0000 001c 0000 001c 0000 001c 0000 001c
0000 001c 0000 001c 0000 001c 0000 001c
0000 001c 0000 001c 0000 001c 0000 001c
0000 001c 0000 001c 0000 001c 0000 001c
0000 001c 0000 001c 0000 001c 0000 001c
0000 001c 0000 001c 0000 001c 0000 001c
0000 001c 0000 001c 0000 001c 0000 001c
0000 001c 0000 001c 0000 001c 0000 001c
0000 001c 0000 001c 0000 001c 0000 001c