0000 0026 0000 0026 0000 0026 0000 0026
0000 0026 0000 0026 0000 0026 0000 0026
0000 0026 0000 0026 0000 0026 0000 0026
0000 0026 0000 0026 0000 0026 0000 0026
0000 0026 0000 0026 0000 0026 0000 0026
0000 0000 0000 0000 0000 0000 0000 0000
0000 0000 0000 0000 0000 0000 0000 0000
0000 0000 0000 0000 0000 0000 0000 0000
0000 0026 0000 0026 0000 0026 0000 0026
0000 0026 0000 0026 0000 0026 0000 0026
0000 0026 0000 0026 0000 0026 0000 0026
0000 0026 0000 0026 0000 0026 0000 0026
0000 0026 0000 0026 0000 0026 0000 0026
0000 0000 0000 0000 0000 0000 0000 0000
0000 0000 0000 0000 0000 0000 0000 0000
0000 0000 0000 0000 0000 0000 0000 0000
0000 0026 0000 0026 0000 0026 0000 0026
0000 0026 0000 0026 0000 0026 0000 0026
0000 0026 0000 0026 0000 0026 0000 0026
0000 0026 0000 0026 0000 0026 0000 0026
0000 0026 0000 0026 0000 0026 0000 0026
0000 0000 0000 0000 0000 0000 0000 0000
0000 0000 0000 0000 0000 0000 0000 0000
0000 0000 0000 0000 0000 0000 0000 0000
0000 0026 0000 0026 0000 0026 0000 0026
0000 0026 0000 0026 0000 0026 0000 0026
0000 0026 0000 0026 0000 0026 0000 0026
0000 0026 0000 0026 0000 0026 0000 0026
0000 0026 0000 0026 0000 0026 0000 0026
0000 0000 0000 0000 0000 0000 0000 0000
0000 0000 0000 0000 0000 0000 0000 0000
0000 0000 0000 0000 0000 0000 0000 0000
0000 0026 0000 0026 0000 0026 0000 0026
0000 0026 0000 0026 0000 0026 0000 0026
0000 0026 0000 0026 0000 0026 0000 0026
0000 0026 0000 0026 0000 0026 0000 0026
0000 0026 0000 0026 0000 0026 0000 0026
0000 0000 0000 0000 0000 0000 0000 0000
0000 0000 0000 0000 0000 0000 0000 0000
0000 0000 0000 0000 0000 0000 0000 0000
0000 0026 0000 0026 0000 0026 0000 0026
0000 0026 0000 0026 0000 0026 0000 0026
0000 0026 0000 0026 0000 0026 0000 0026
0000 0026 0000 0026 0000 0026 0000 0026
0000 0026 0000 0026 0000 0026 0000 0026
0000 0000 0000 0000 0000 0000 0000 0000
0000 0000 0000 0000 0000 0000 0000 0000
0000 0000 0000 0000 0000 0000 0000 0000
0000 0026 0000 0026 0000 0026 0000 0026
0000 0026 0000 0026 0000 0026 0000 0026
0000 0026 0000 0026 0000 0026 0000 0026
0000 0026 0000 0026 0000 0026 0000 0026
0000 0026 0000 0026 0000 0026 0000 0026
0000 0000 0000 0000 0000 0000 0000 0000
0000 0000 0000 0000 0000 0000 0000 0000
0000 0000 0000 0000 0000 0000 0000 0000
0000 0026 0000 0026 0000 0026 0000 0026
0000 0026 0000 0026 0000 0026 0000 0026
0000 0026 0000 0026 0000 0026 0000 0026
0000 0026 0000 0026 0000 0026 0000 0026
0000 0026 0000 0026 0000 0026 0000 0026
0000 0000 0000 0000 0000 0000 0000 0000
0000 0000 0000 0000 0000 0000 0000 0000
0000 0000 0000 0000 0000 0000 0000 0000
0000 0026 0000 0026 0000 0026 0000 0026
0000 0026 0000 0026 0000 0026 0000 0026
0000 0026 0000 0026 0000 0026 0000 0026
0000 0026 0000 0026 0000 0026 0000 0026
0000 0026 0000 0026 0000 0026 0000 0026
0000 0000 0000 0000 0000 0000 0000 0000
0000 0000 0000 0000 0000 0000 0000 0000
0000 0000 0000 0000 0000 0000 0000 0000
0000 0026 0000 0026 0000 0026 0000 0026
0000 0026 0000 0026 0000 0026 0000 0026
0000 0026 0000 0026 0000 0026 0000 0026
0000 0026 0000 0026 0000 0026 0000 0026
0000 0026 0000 0026 0000 0026 0000 0026
0000 0000 0000 0000 0000 0000 0000 0000
0000 0000 0000 0000 0000 0000 0000 0000
0000 0000 0000 0000 0000 0000 0000 0000
0000 0026 0000 0026 0000 0026 0000 0026
0000 0026 0000 0026 0000 0026 0000 0026
0000 0026 0000 0026 0000 0026 0000 0026
0000 0026 0000 0026 0000 0026 0000 0026
0000 0026 0000 0026 0000 0026 0000 0026
0000 0000 0000 0000 0000 0000 0000 0000
0000 0000 0000 0000 0000 0000 0000 0000
0000 0000 0000 0000 0000 0000 0000 0000
0000 0026 0000 0026 0000 0026 0000 0026
0000 0026 0000 0026 0000 0026 0000 0026
0000 0026 0000 0026 0000 0026 0000 0026
0000 0026 0000 0026 0000 0026 0000 0026
0000 0026 0000 0026 0000 0026 0000 0026
0000 0000 0000 0000 0000 0000 0000 0000
0000 0000 0000 0000 0000 0000 0000 0000
0000 0000 0000 0000 0000 0000 0000 0000
0000 0026 0000 0026 0000 0026 0000 0026
0000 0026 0000 0026 0000 0026 0000 0026
0000 0026 0000 0026 0000 0026 0000 0026
0000 0026 0000 0026 0000 0026 0000 0026
0000 0026 0000 0026 0000 0026 0000 0026
0000 0000 0000 0000 0000 0000 0000 0000
0000 0000 0000 0000 0000 0000 0000 0000
0000 0000 0000 0000 0000 0000 0000 0000
0000 0026 0000 0026 0000 0026 0000 0026
0000 0026 0000 0026 0000 0026 0000 0026
0000 0026 0000 0026 0000 0026 0000 0026
0000 0026 0000 0026 0000 0026 0000 0026
0000 0026 0000 0026 0000 0026 0000 0000
0000 0000 0000 0000 0000 0000 0000 0000
0000 0000 0000 0000 0000 0000 0000 0000
0000 0000 0000 0000 0000 0000 0000 0000
0000 0026 0000 0026 0000 0026 0000 0026
0000 0026 0000 0026 0000 0026 0000 0026
0000 0026 0000 0026 0000 0026 0000 0026
0000 0026 0000 0026 0000 0026 0000 0026
0000 0026 0000 0026 0000 0000 0000 0000
0000 0000 0000 0000 0000 0000 0000 0000
0000 0000 0000 0000 0000 0000 0000 0000
0000 0000 0000 0000 0000 0000 0000 0000
0000 0026 0000 0026 0000 0026 0000 0026
0000 0026 0000 0026 0000 0026 0000 0026
0000 0026 0000 0026 0000 0026 0000 0026
0000 0026 0000 0026 0000 0026 0000 0026
0000 0026 0000 0000 0000 0000 0000 0000
0000 0000 0000 0000 0000 0000 0000 0000
0000 0000 0000 0000 0000 0000 0000 0000
0000 0000 0000 0000 0000 0000 0000 0000
0000 0026 0000 0026 0000 0026 0000 0026
0000 0026 0000 0026 0000 0026 0000 0026
0000 0026 0000 0026 0000 0026 0000 0026
0000 0026 0000 0026 0000 0026 0000 0026
0000 0000 0000 0000 0000 0000 0000 0000
0000 0000 0000 0000 0000 0000 0000 0000
0000 0000 0000 0000 0000 0000 0000 0000
0000 0000 0000 0000 0000 0000 0000 0000
0000 0026 0000 0026 0000 0026 0000 0026
0000 0026 0000 0026 0000 0026 0000 0026
0000 0026 0000 0026 0000 0026 0000 0026
0000 0026 0000 0026 0000 0026 0000 0000
0000 0000 0000 0000 0000 0000 0000 0000
0000 0000 0000 0000 0000 0000 0000 0000
0000 0000 0000 0000 0000 0000 0000 0000
0000 0000 0000 0000 0000 0000 0000 0000
0000 0026 0000 0026 0000 0026 0000 0026
0000 0026 0000 0026 0000 0026 0000 0026
0000 0026 0000 0026 0000 0026 0000 0026
0000 0026 0000 0026 0000 0000 0000 0000
0000 0000 0000 0000 0000 0000 0000 0000
0000 0000 0000 0000 0000 0000 0000 0000
0000 0000 0000 0000 0000 0000 0000 0000
0000 0000 0000 0000 0000 0000 0000 0000
0000 0026 0000 0026 0000 0026 0000 0026
0000 0026 0000 0026 0000 0026 0000 0026
0000 0026 0000 0026 0000 0026 0000 0026
0000 0026 0000 0000 0000 0000 0000 0000
0000 0000 0000 0000 0000 0000 0000 0000
0000 0000 0000 0000 0000 0000 0000 0000
0000 0000 0000 0000 0000 0000 0000 0000
0000 0000 0000 0000 0000 0000 0000 0000
0000 0026 0000 0026 0000 0026 0000 0026
0000 0026 0000 0026 0000 0026 0000 0026
0000 0026 0000 0026 0000 0026 0000 0026
0000 0000 0000 0000 0000 0000 0000 0000
0000 0000 0000 0000 0000 0000 0000 0000
0000 0000 0000 0000 0000 0000 0000 0000
0000 0000 0000 0000 0000 0000 0000 0000
0000 0000 0000 0000 0000 0000 0000 0000
0000 0026 0000 0026 0000 0026 0000 0026
0000 0026 0000 0026 0000 0026 0000 0026
0000 0026 0000 0026 0000 0026 0000 0000
0000 0000 0000 0000 0000 0000 0000 0000
0000 0000 0000 0000 0000 0000 0000 0000
0000 0000 0000 0000 0000 0000 0000 0000
0000 0000 0000 0000 0000 0000 0000 0000
0000 0000 0000 0000 0000 0000 0000 0000
0000 0000 0000 0000 0000 0000 0000 0000
0000 0000 0000 0000 0000 0000 0000 0000
0000 0000 0000 0000 0000 0026 0000 0026
0000 0026 0000 0026 0000 0026 0000 0026
0000 0026 0000 0026 0000 0026 0000 0026
0000 0000 0000 0000 0000 0000 0000 0000
0000 0000 0000 0000 0000 0000 0000 0000
0000 0000 0000 0000 0000 0000 0000 0000
0000 0000 0000 0000 0000 0000 0000 0000
0000 0000 0000 0000 0000 0000 0000 0000
0000 0000 0000 0026 0000 0026 0000 0026
0000 0026 0000 0026 0000 0026 0000 0026
0000 0026 0000 0026 0000 0026 0000 0026
0000 0000 0000 0000 0000 0000 0000 0000
0000 0000 0000 0000 0000 0000 0000 0000
0000 0000 0000 0000 0000 0000 0000 0000
0000 0000 0000 0000 0000 0000 0000 0000
0000 0000 0000 0000 0000 0000 0000 0000
0000 0026 0000 0026 0000 0026 0000 0026
0000 0026 0000 0026 0000 0026 0000 0026
0000 0026 0000 0026 0000 0026 0000 0026
0000 0000 0000 0000 0000 0000 0000 0000
0000 0000 0000 0000 0000 0000 0000 0000
0000 0000 0000 0000 0000 0000 0000 0000
0000 0000 0000 0000 0000 0000 0000 0000
0000 0000 0000 0000 0000 0000 0000 0026
0000 0026 0000 0026 0000 0026 0000 0026
0000 0026 0000 0026 0000 0026 0000 0026
0000 0026 0000 0026 0000 0026 0000 0026
0000 0000 0000 0000 0000 0000 0000 0000
0000 0000 0000 0000 0000 0000 0000 0000
0000 0000 0000 0000 0000 0000 0000 0000
0000 0000 0000 0000 0000 0000 0000 0000
0000 0000 0000 0000 0000 0026 0000 0026
0000 0026 0000 0026 0000 0026 0000 0026
0000 0026 0000 0026 0000 0026 0000 0026
0000 0026 0000 0026 0000 0026 0000 0026
0000 0000 0000 0000 0000 0000 0000 0000
0000 0000 0000 0000 0000 0000 0000 0000
0000 0000 0000 0000 0000 0000 0000 0000
0000 0000 0000 0000 0000 0000 0000 0000
0000 0000 0000 0026 0000 0026 0000 0026
0000 0026 0000 0026 0000 0026 0000 0026
0000 0026 0000 0026 0000 0026 0000 0026
0000 0026 0000 0026 0000 0026 0000 0026
0000 0000 0000 0000 0000 0000 0000 0000
0000 0000 0000 0000 0000 0000 0000 0000
0000 0000 0000 0000 0000 0000 0000 0000
0000 0000 0000 0000 0000 0000 0000 0000
0000 0026 0000 0026 0000 0026 0000 0026
0000 0026 0000 0026 0000 0026 0000 0026
0000 0026 0000 0026 0000 0026 0000 0026
0000 0026 0000 0026 0000 0026 0000 0026
0000 0000 0000 0000 0000 0000 0000 0000
0000 0000 0000 0000 0000 0000 0000 0000
0000 0000 0000 0000 0000 0000 0000 0000
0000 0000 0000 0000 0000 0000 0000 0026
0000 0026 0000 0026 0000 0026 0000 0026
0000 0026 0000 0026 0000 0026 0000 0026
0000 0026 0000 0026 0000 0026 0000 0026
0000 0026 0000 0026 0000 0026 0000 0026
0000 0000 0000 0000 0000 0000 0000 0000
0000 0000 0000 0000 0000 0000 0000 0000
0000 0000 0000 0000 0000 0000 0000 0000
0000 0000 0000 0000 0000 0026 0000 0026
0000 0026 0000 0026 0000 0026 0000 0026
0000 0026 0000 0026 0000 0026 0000 0026
0000 0026 0000 0026 0000 0026 0000 0026
0000 0026 0000 0026 0000 0026 0000 0026
0000 0000 0000 0000 0000 0000 0000 0000
0000 0000 0000 0000 0000 0000 0000 0000
0000 0000 0000 0000 0000 0000 0000 0000
0000 0000 0000 0026 0000 0026 0000 0026
0000 0026 0000 0026 0000 0026 0000 0026
0000 0026 0000 0026 0000 0026 0000 0026
0000 0026 0000 0026 0000 0026 0000 0026
0000 0026 0000 0026 0000 0026 0000 0026
0000 0000 0000 0000 0000 0000 0000 0000
0000 0000 0000 0000 0000 0000 0000 0000
0000 0000 0000 0000 0000 0000 0000 0000