0000 001c 0000 001c 0000 001c 0000 001c
0000 001c 0000 001c 0000 001c 0000 001c
0000 001c 0000 001c 0000 001c 0000 001c
0000 001c 0000 001c 0000 001c 0000 001c
0000 001c 0000 001c 0000 001c 0000 001c
0000 0000 0000 0000 0000 0000 0000 0000
0000 0000 0000 0000 0000 0000 0000 0000
0000 0000 0000 0000 0000 0000 0000 0000
0000 001c 0000 001c 0000 001c 0000 001c
0000 001c 0000 001c 0000 001c 0000 001c
0000 001c 0000 001c 0000 001c 0000 001c
0000 001c 0000 001c 0000 001c 0000 001c
0000 001c 0000 001c 0000 001c 0000 001c
0000 0000 0000 0000 0000 0000 0000 0000
0000 0000 0000 0000 0000 0000 0000 0000
0000 0000 0000 0000 0000 0000 0000 0000
0000 001c 0000 001c 0000 001c 0000 001c
0000 001c 0000 001c 0000 001c 0000 001c
0000 001c 0000 001c 0000 001c 0000 001c
0000 001c 0000 001c 0000 001c 0000 001c
0000 001c 0000 001c 0000 001c 0000 001c
0000 0000 0000 0000 0000 0000 0000 0000
0000 0000 0000 0000 0000 0000 0000 0000
0000 0000 0000 0000 0000 0000 0000 0000
0000 001c 0000 001c 0000 001c 0000 001c
0000 001c 0000 001c 0000 001c 0000 001c
0000 001c 0000 001c 0000 001c 0000 001c
0000 001c 0000 001c 0000 001c 0000 001c
0000 001c 0000 001c 0000 001c 0000 001c
0000 0000 0000 0000 0000 0000 0000 0000
0000 0000 0000 0000 0000 0000 0000 0000
0000 0000 0000 0000 0000 0000 0000 0000
0000 001c 0000 001c 0000 001c 0000 001c
0000 001c 0000 001c 0000 001c 0000 001c
0000 001c 0000 001c 0000 001c 0000 001c
0000 001c 0000 001c 0000 001c 0000 001c
0000 001c 0000 001c 0000 001c 0000 001c
0000 0000 0000 0000 0000 0000 0000 0000
0000 0000 0000 0000 0000 0000 0000 0000
0000 0000 0000 0000 0000 0000 0000 0000
0000 001c 0000 001c 0000 001c 0000 001c
0000 001c 0000 001c 0000 001c 0000 001c
0000 001c 0000 001c 0000 001c 0000 001c
0000 001c 0000 001c 0000 001c 0000 001c
0000 001c 0000 001c 0000 001c 0000 001c
0000 0000 0000 0000 0000 0000 0000 0000
0000 0000 0000 0000 0000 0000 0000 0000
0000 0000 0000 0000 0000 0000 0000 0000
0000 001c 0000 001c 0000 001c 0000 001c
0000 001c 0000 001c 0000 001c 0000 001c
0000 001c 0000 001c 0000 001c 0000 001c
0000 001c 0000 001c 0000 001c 0000 001c
0000 001c 0000 001c 0000 001c 0000 001c
0000 0000 0000 0000 0000 0000 0000 0000
0000 0000 0000 0000 0000 0000 0000 0000
0000 0000 0000 0000 0000 0000 0000 0000
0000 001c 0000 001c 0000 001c 0000 001c
0000 001c 0000 001c 0000 001c 0000 001c
0000 001c 0000 001c 0000 001c 0000 001c
0000 001c 0000 001c 0000 001c 0000 001c
0000 001c 0000 001c 0000 001c 0000 001c
0000 0000 0000 0000 0000 0000 0000 0000
0000 0000 0000 0000 0000 0000 0000 0000
0000 0000 0000 0000 0000 0000 0000 0000
0000 001c 0000 001c 0000 001c 0000 001c
0000 001c 0000 001c 0000 001c 0000 001c
0000 001c 0000 001c 0000 001c 0000 001c
0000 001c 0000 001c 0000 001c 0000 001c
0000 001c 0000 001c 0000 001c 0000 001c
0000 0000 0000 0000 0000 0000 0000 0000
0000 0000 0000 0000 0000 0000 0000 0000
0000 0000 0000 0000 0000 0000 0000 0000
0000 001c 0000 001c 0000 001c 0000 001c
0000 001c 0000 001c 0000 001c 0000 001c
0000 001c 0000 001c 0000 001c 0000 001c
0000 001c 0000 001c 0000 001c 0000 001c
0000 001c 0000 001c 0000 001c 0000 001c
0000 0000 0000 0000 0000 0000 0000 0000
0000 0000 0000 0000 0000 0000 0000 0000
0000 0000 0000 0000 0000 0000 0000 0000
0000 001c 0000 001c 0000 001c 0000 001c
0000 001c 0000 001c 0000 001c 0000 001c
0000 001c 0000 001c 0000 001c 0000 001c
0000 001c 0000 001c 0000 001c 0000 001c
0000 001c 0000 001c 0000 001c 0000 001c
0000 0000 0000 0000 0000 0000 0000 0000
0000 0000 0000 0000 0000 0000 0000 0000
0000 0000 0000 0000 0000 0000 0000 0000
0000 001c 0000 001c 0000 001c 0000 001c
0000 001c 0000 001c 0000 001c 0000 001c
0000 001c 0000 001c 0000 001c 0000 001c
0000 001c 0000 001c 0000 001c 0000 001c
0000 001c 0000 001c 0000 001c 0000 001c
0000 0000 0000 0000 0000 0000 0000 0000
0000 0000 0000 0000 0000 0000 0000 0000
0000 0000 0000 0000 0000 0000 0000 0000
0000 001c 0000 001c 0000 001c 0000 001c
0000 001c 0000 001c 0000 001c 0000 001c
0000 001c 0000 001c 0000 001c 0000 001c
0000 001c 0000 001c 0000 001c 0000 001c
0000 001c 0000 001c 0000 001c 0000 001c
0000 0000 0000 0000 0000 0000 0000 0000
0000 0000 0000 0000 0000 0000 0000 0000
0000 0000 0000 0000 0000 0000 0000 0000
0000 001c 0000 001c 0000 001c 0000 001c
0000 001c 0000 001c 0000 001c 0000 001c
0000 001c 0000 001c 0000 001c 0000 001c
0000 001c 0000 001c 0000 001c 0000 001c
0000 001c 0000 001c 0000 001c 0000 0000
0000 0000 0000 0000 0000 0000 0000 0000
0000 0000 0000 0000 0000 0000 0000 0000
0000 0000 0000 0000 0000 0000 0000 0000
0000 001c 0000 001c 0000 001c 0000 001c
0000 001c 0000 001c 0000 001c 0000 001c
0000 001c 0000 001c 0000 001c 0000 001c
0000 001c 0000 001c 0000 001c 0000 001c
0000 001c 0000 001c 0000 0000 0000 0000
0000 0000 0000 0000 0000 0000 0000 0000
0000 0000 0000 0000 0000 0000 0000 0000
0000 0000 0000 0000 0000 0000 0000 0000
0000 001c 0000 001c 0000 001c 0000 001c
0000 001c 0000 001c 0000 001c 0000 001c
0000 001c 0000 001c 0000 001c 0000 001c
0000 001c 0000 001c 0000 001c 0000 001c
0000 001c 0000 0000 0000 0000 0000 0000
0000 0000 0000 0000 0000 0000 0000 0000
0000 0000 0000 0000 0000 0000 0000 0000
0000 0000 0000 0000 0000 0000 0000 0000
0000 001c 0000 001c 0000 001c 0000 001c
0000 001c 0000 001c 0000 001c 0000 001c
0000 001c 0000 001c 0000 001c 0000 001c
0000 001c 0000 001c 0000 001c 0000 001c
0000 0000 0000 0000 0000 0000 0000 0000
0000 0000 0000 0000 0000 0000 0000 0000
0000 0000 0000 0000 0000 0000 0000 0000
0000 0000 0000 0000 0000 0000 0000 0000
0000 001c 0000 001c 0000 001c 0000 001c
0000 001c 0000 001c 0000 001c 0000 001c
0000 001c 0000 001c 0000 001c 0000 001c
0000 001c 0000 001c 0000 001c 0000 0000
0000 0000 0000 0000 0000 0000 0000 0000
0000 0000 0000 0000 0000 0000 0000 0000
0000 0000 0000 0000 0000 0000 0000 0000
0000 0000 0000 0000 0000 0000 0000 0000
0000 001c 0000 001c 0000 001c 0000 001c
0000 001c 0000 001c 0000 001c 0000 001c
0000 001c 0000 001c 0000 001c 0000 001c
0000 001c 0000 001c 0000 0000 0000 0000
0000 0000 0000 0000 0000 0000 0000 0000
0000 0000 0000 0000 0000 0000 0000 0000
0000 0000 0000 0000 0000 0000 0000 0000
0000 0000 0000 0000 0000 0000 0000 0000
0000 001c 0000 001c 0000 001c 0000 001c
0000 001c 0000 001c 0000 001c 0000 001c
0000 001c 0000 001c 0000 001c 0000 001c
0000 001c 0000 0000 0000 0000 0000 0000
0000 0000 0000 0000 0000 0000 0000 0000
0000 0000 0000 0000 0000 0000 0000 0000
0000 0000 0000 0000 0000 0000 0000 0000
0000 0000 0000 0000 0000 0000 0000 0000
0000 001c 0000 001c 0000 001c 0000 001c
0000 001c 0000 001c 0000 001c 0000 001c
0000 001c 0000 001c 0000 001c 0000 001c
0000 0000 0000 0000 0000 0000 0000 0000
0000 0000 0000 0000 0000 0000 0000 0000
0000 0000 0000 0000 0000 0000 0000 0000
0000 0000 0000 0000 0000 0000 0000 0000
0000 0000 0000 0000 0000 0000 0000 0000
0000 001c 0000 001c 0000 001c 0000 001c
0000 001c 0000 001c 0000 001c 0000 001c
0000 001c 0000 001c 0000 001c 0000 0000
0000 0000 0000 0000 0000 0000 0000 0000
0000 0000 0000 0000 0000 0000 0000 0000
0000 0000 0000 0000 0000 0000 0000 0000
0000 0000 0000 0000 0000 0000 0000 0000
0000 0000 0000 0000 0000 0000 0000 0000
0000 0000 0000 0000 0000 0000 0000 0000
0000 0000 0000 0000 0000 0000 0000 0000
0000 0000 0000 0000 0000 001c 0000 001c
0000 001c 0000 001c 0000 001c 0000 001c
0000 001c 0000 001c 0000 001c 0000 001c
0000 0000 0000 0000 0000 0000 0000 0000
0000 0000 0000 0000 0000 0000 0000 0000
0000 0000 0000 0000 0000 0000 0000 0000
0000 0000 0000 0000 0000 0000 0000 0000
0000 0000 0000 0000 0000 0000 0000 0000
0000 0000 0000 001c 0000 001c 0000 001c
0000 001c 0000 001c 0000 001c 0000 001c
0000 001c 0000 001c 0000 001c 0000 001c
0000 0000 0000 0000 0000 0000 0000 0000
0000 0000 0000 0000 0000 0000 0000 0000
0000 0000 0000 0000 0000 0000 0000 0000
0000 0000 0000 0000 0000 0000 0000 0000
0000 0000 0000 0000 0000 0000 0000 0000
0000 001c 0000 001c 0000 001c 0000 001c
0000 001c 0000 001c 0000 001c 0000 001c
0000 001c 0000 001c 0000 001c 0000 001c
0000 0000 0000 0000 0000 0000 0000 0000
0000 0000 0000 0000 0000 0000 0000 0000
0000 0000 0000 0000 0000 0000 0000 0000
0000 0000 0000 0000 0000 0000 0000 0000
0000 0000 0000 0000 0000 0000 0000 001c
0000 001c 0000 001c 0000 001c 0000 001c
0000 001c 0000 001c 0000 001c 0000 001c
0000 001c 0000 001c 0000 001c 0000 001c
0000 0000 0000 0000 0000 0000 0000 0000
0000 0000 0000 0000 0000 0000 0000 0000
0000 0000 0000 0000 0000 0000 0000 0000
0000 0000 0000 0000 0000 0000 0000 0000
0000 0000 0000 0000 0000 001c 0000 001c
0000 001c 0000 001c 0000 001c 0000 001c
0000 001c 0000 001c 0000 001c 0000 001c
0000 001c 0000 001c 0000 001c 0000 001c
0000 0000 0000 0000 0000 0000 0000 0000
0000 0000 0000 0000 0000 0000 0000 0000
0000 0000 0000 0000 0000 0000 0000 0000
0000 0000 0000 0000 0000 0000 0000 0000
0000 0000 0000 001c 0000 001c 0000 001c
0000 001c 0000 001c 0000 001c 0000 001c
0000 001c 0000 001c 0000 001c 0000 001c
0000 001c 0000 001c 0000 001c 0000 001c
0000 0000 0000 0000 0000 0000 0000 0000
0000 0000 0000 0000 0000 0000 0000 0000
0000 0000 0000 0000 0000 0000 0000 0000
0000 0000 0000 0000 0000 0000 0000 0000
0000 001c 0000 001c 0000 001c 0000 001c
0000 001c 0000 001c 0000 001c 0000 001c
0000 001c 0000 001c 0000 001c 0000 001c
0000 001c 0000 001c 0000 001c 0000 001c
0000 0000 0000 0000 0000 0000 0000 0000
0000 0000 0000 0000 0000 0000 0000 0000
0000 0000 0000 0000 0000 0000 0000 0000
0000 0000 0000 0000 0000 0000 0000 001c
0000 001c 0000 001c 0000 001c 0000 001c
0000 001c 0000 001c 0000 001c 0000 001c
0000 001c 0000 001c 0000 001c 0000 001c
0000 001c 0000 001c 0000 001c 0000 001c
0000 0000 0000 0000 0000 0000 0000 0000
0000 0000 0000 0000 0000 0000 0000 0000
0000 0000 0000 0000 0000 0000 0000 0000
0000 0000 0000 0000 0000 001c 0000 001c
0000 001c 0000 001c 0000 001c 0000 001c
0000 001c 0000 001c 0000 001c 0000 001c
0000 001c 0000 001c 0000 001c 0000 001c
0000 001c 0000 001c 0000 001c 0000 001c
0000 0000 0000 0000 0000 0000 0000 0000
0000 0000 0000 0000 0000 0000 0000 0000
0000 0000 0000 0000 0000 0000 0000 0000
0000 0000 0000 001c 0000 001c 0000 001c
0000 001c 0000 001c 0000 001c 0000 001c
0000 001c 0000 001c 0000 001c 0000 001c
0000 001c 0000 001c 0000 001c 0000 001c
0000 001c 0000 001c 0000 001c 0000 001c
0000 0000 0000 0000 0000 0000 0000 0000
0000 0000 0000 0000 0000 0000 0000 0000
0000 0000 0000 0000 0000 0000 0000 0000