0000 001d 0000 001d 0000 001d 0000 001d
0000 001d 0000 001d 0000 001d 0000 001d
0000 001d 0000 001d 0000 001d 0000 001d
0000 001d 0000 001d 0000 001d 0000 001d
0000 001d 0000 001d 0000 001d 0000 001d
0000 0000 0000 0000 0000 0000 0000 0000
0000 0000 0000 0000 0000 0000 0000 0000
0000 0000 0000 0000 0000 0000 0000 0000
0000 001d 0000 001d 0000 001d 0000 001d
0000 001d 0000 001d 0000 001d 0000 001d
0000 001d 0000 001d 0000 001d 0000 001d
0000 001d 0000 001d 0000 001d 0000 001d
0000 001d 0000 001d 0000 001d 0000 001d
0000 0000 0000 0000 0000 0000 0000 0000
0000 0000 0000 0000 0000 0000 0000 0000
0000 0000 0000 0000 0000 0000 0000 0000
0000 001d 0000 001d 0000 001d 0000 001d
0000 001d 0000 001d 0000 001d 0000 001d
0000 001d 0000 001d 0000 001d 0000 001d
0000 001d 0000 001d 0000 001d 0000 001d
0000 001d 0000 001d 0000 001d 0000 001d
0000 0000 0000 0000 0000 0000 0000 0000
0000 0000 0000 0000 0000 0000 0000 0000
0000 0000 0000 0000 0000 0000 0000 0000
0000 001d 0000 001d 0000 001d 0000 001d
0000 001d 0000 001d 0000 001d 0000 001d
0000 001d 0000 001d 0000 001d 0000 001d
0000 001d 0000 001d 0000 001d 0000 001d
0000 001d 0000 001d 0000 001d 0000 001d
0000 0000 0000 0000 0000 0000 0000 0000
0000 0000 0000 0000 0000 0000 0000 0000
0000 0000 0000 0000 0000 0000 0000 0000
0000 001d 0000 001d 0000 001d 0000 001d
0000 001d 0000 001d 0000 001d 0000 001d
0000 001d 0000 001d 0000 001d 0000 001d
0000 001d 0000 001d 0000 001d 0000 001d
0000 001d 0000 001d 0000 001d 0000 001d
0000 0000 0000 0000 0000 0000 0000 0000
0000 0000 0000 0000 0000 0000 0000 0000
0000 0000 0000 0000 0000 0000 0000 0000
0000 001d 0000 001d 0000 001d 0000 001d
0000 001d 0000 001d 0000 001d 0000 001d
0000 001d 0000 001d 0000 001d 0000 001d
0000 001d 0000 001d 0000 001d 0000 001d
0000 001d 0000 001d 0000 001d 0000 001d
0000 0000 0000 0000 0000 0000 0000 0000
0000 0000 0000 0000 0000 0000 0000 0000
0000 0000 0000 0000 0000 0000 0000 0000
0000 001d 0000 001d 0000 001d 0000 001d
0000 001d 0000 001d 0000 001d 0000 001d
0000 001d 0000 001d 0000 001d 0000 001d
0000 001d 0000 001d 0000 001d 0000 001d
0000 001d 0000 001d 0000 001d 0000 001d
0000 0000 0000 0000 0000 0000 0000 0000
0000 0000 0000 0000 0000 0000 0000 0000
0000 0000 0000 0000 0000 0000 0000 0000
0000 001d 0000 001d 0000 001d 0000 001d
0000 001d 0000 001d 0000 001d 0000 001d
0000 001d 0000 001d 0000 001d 0000 001d
0000 001d 0000 001d 0000 001d 0000 001d
0000 001d 0000 001d 0000 001d 0000 001d
0000 0000 0000 0000 0000 0000 0000 0000
0000 0000 0000 0000 0000 0000 0000 0000
0000 0000 0000 0000 0000 0000 0000 0000
0000 001d 0000 001d 0000 001d 0000 001d
0000 001d 0000 001d 0000 001d 0000 001d
0000 001d 0000 001d 0000 001d 0000 001d
0000 001d 0000 001d 0000 001d 0000 001d
0000 001d 0000 001d 0000 001d 0000 001d
0000 0000 0000 0000 0000 0000 0000 0000
0000 0000 0000 0000 0000 0000 0000 0000
0000 0000 0000 0000 0000 0000 0000 0000
0000 001d 0000 001d 0000 001d 0000 001d
0000 001d 0000 001d 0000 001d 0000 001d
0000 001d 0000 001d 0000 001d 0000 001d
0000 001d 0000 001d 0000 001d 0000 001d
0000 001d 0000 001d 0000 001d 0000 001d
0000 0000 0000 0000 0000 0000 0000 0000
0000 0000 0000 0000 0000 0000 0000 0000
0000 0000 0000 0000 0000 0000 0000 0000
0000 001d 0000 001d 0000 001d 0000 001d
0000 001d 0000 001d 0000 001d 0000 001d
0000 001d 0000 001d 0000 001d 0000 001d
0000 001d 0000 001d 0000 001d 0000 001d
0000 001d 0000 001d 0000 001d 0000 001d
0000 0000 0000 0000 0000 0000 0000 0000
0000 0000 0000 0000 0000 0000 0000 0000
0000 0000 0000 0000 0000 0000 0000 0000
0000 001d 0000 001d 0000 001d 0000 001d
0000 001d 0000 001d 0000 001d 0000 001d
0000 001d 0000 001d 0000 001d 0000 001d
0000 001d 0000 001d 0000 001d 0000 001d
0000 001d 0000 001d 0000 001d 0000 001d
0000 0000 0000 0000 0000 0000 0000 0000
0000 0000 0000 0000 0000 0000 0000 0000
0000 0000 0000 0000 0000 0000 0000 0000
0000 001d 0000 001d 0000 001d 0000 001d
0000 001d 0000 001d 0000 001d 0000 001d
0000 001d 0000 001d 0000 001d 0000 001d
0000 001d 0000 001d 0000 001d 0000 001d
0000 001d 0000 001d 0000 001d 0000 001d
0000 0000 0000 0000 0000 0000 0000 0000
0000 0000 0000 0000 0000 0000 0000 0000
0000 0000 0000 0000 0000 0000 0000 0000
0000 001d 0000 001d 0000 001d 0000 001d
0000 001d 0000 001d 0000 001d 0000 001d
0000 001d 0000 001d 0000 001d 0000 001d
0000 001d 0000 001d 0000 001d 0000 001d
0000 001d 0000 001d 0000 001d 0000 0000
0000 0000 0000 0000 0000 0000 0000 0000
0000 0000 0000 0000 0000 0000 0000 0000
0000 0000 0000 0000 0000 0000 0000 0000
0000 001d 0000 001d 0000 001d 0000 001d
0000 001d 0000 001d 0000 001d 0000 001d
0000 001d 0000 001d 0000 001d 0000 001d
0000 001d 0000 001d 0000 001d 0000 001d
0000 001d 0000 001d 0000 0000 0000 0000
0000 0000 0000 0000 0000 0000 0000 0000
0000 0000 0000 0000 0000 0000 0000 0000
0000 0000 0000 0000 0000 0000 0000 0000
0000 001d 0000 001d 0000 001d 0000 001d
0000 001d 0000 001d 0000 001d 0000 001d
0000 001d 0000 001d 0000 001d 0000 001d
0000 001d 0000 001d 0000 001d 0000 001d
0000 001d 0000 0000 0000 0000 0000 0000
0000 0000 0000 0000 0000 0000 0000 0000
0000 0000 0000 0000 0000 0000 0000 0000
0000 0000 0000 0000 0000 0000 0000 0000
0000 001d 0000 001d 0000 001d 0000 001d
0000 001d 0000 001d 0000 001d 0000 001d
0000 001d 0000 001d 0000 001d 0000 001d
0000 001d 0000 001d 0000 001d 0000 001d
0000 0000 0000 0000 0000 0000 0000 0000
0000 0000 0000 0000 0000 0000 0000 0000
0000 0000 0000 0000 0000 0000 0000 0000
0000 0000 0000 0000 0000 0000 0000 0000
0000 001d 0000 001d 0000 001d 0000 001d
0000 001d 0000 001d 0000 001d 0000 001d
0000 001d 0000 001d 0000 001d 0000 001d
0000 001d 0000 001d 0000 001d 0000 0000
0000 0000 0000 0000 0000 0000 0000 0000
0000 0000 0000 0000 0000 0000 0000 0000
0000 0000 0000 0000 0000 0000 0000 0000
0000 0000 0000 0000 0000 0000 0000 0000
0000 001d 0000 001d 0000 001d 0000 001d
0000 001d 0000 001d 0000 001d 0000 001d
0000 001d 0000 001d 0000 001d 0000 001d
0000 001d 0000 001d 0000 0000 0000 0000
0000 0000 0000 0000 0000 0000 0000 0000
0000 0000 0000 0000 0000 0000 0000 0000
0000 0000 0000 0000 0000 0000 0000 0000
0000 0000 0000 0000 0000 0000 0000 0000
0000 001d 0000 001d 0000 001d 0000 001d
0000 001d 0000 001d 0000 001d 0000 001d
0000 001d 0000 001d 0000 001d 0000 001d
0000 001d 0000 0000 0000 0000 0000 0000
0000 0000 0000 0000 0000 0000 0000 0000
0000 0000 0000 0000 0000 0000 0000 0000
0000 0000 0000 0000 0000 0000 0000 0000
0000 0000 0000 0000 0000 0000 0000 0000
0000 001d 0000 001d 0000 001d 0000 001d
0000 001d 0000 001d 0000 001d 0000 001d
0000 001d 0000 001d 0000 001d 0000 001d
0000 0000 0000 0000 0000 0000 0000 0000
0000 0000 0000 0000 0000 0000 0000 0000
0000 0000 0000 0000 0000 0000 0000 0000
0000 0000 0000 0000 0000 0000 0000 0000
0000 0000 0000 0000 0000 0000 0000 0000
0000 001d 0000 001d 0000 001d 0000 001d
0000 001d 0000 001d 0000 001d 0000 001d
0000 001d 0000 001d 0000 001d 0000 0000
0000 0000 0000 0000 0000 0000 0000 0000
0000 0000 0000 0000 0000 0000 0000 0000
0000 0000 0000 0000 0000 0000 0000 0000
0000 0000 0000 0000 0000 0000 0000 0000
0000 0000 0000 0000 0000 0000 0000 0000
0000 0000 0000 0000 0000 0000 0000 0000
0000 0000 0000 0000 0000 0000 0000 0000
0000 0000 0000 0000 0000 001d 0000 001d
0000 001d 0000 001d 0000 001d 0000 001d
0000 001d 0000 001d 0000 001d 0000 001d
0000 0000 0000 0000 0000 0000 0000 0000
0000 0000 0000 0000 0000 0000 0000 0000
0000 0000 0000 0000 0000 0000 0000 0000
0000 0000 0000 0000 0000 0000 0000 0000
0000 0000 0000 0000 0000 0000 0000 0000
0000 0000 0000 001d 0000 001d 0000 001d
0000 001d 0000 001d 0000 001d 0000 001d
0000 001d 0000 001d 0000 001d 0000 001d
0000 0000 0000 0000 0000 0000 0000 0000
0000 0000 0000 0000 0000 0000 0000 0000
0000 0000 0000 0000 0000 0000 0000 0000
0000 0000 0000 0000 0000 0000 0000 0000
0000 0000 0000 0000 0000 0000 0000 0000
0000 001d 0000 001d 0000 001d 0000 001d
0000 001d 0000 001d 0000 001d 0000 001d
0000 001d 0000 001d 0000 001d 0000 001d
0000 0000 0000 0000 0000 0000 0000 0000
0000 0000 0000 0000 0000 0000 0000 0000
0000 0000 0000 0000 0000 0000 0000 0000
0000 0000 0000 0000 0000 0000 0000 0000
0000 0000 0000 0000 0000 0000 0000 001d
0000 001d 0000 001d 0000 001d 0000 001d
0000 001d 0000 001d 0000 001d 0000 001d
0000 001d 0000 001d 0000 001d 0000 001d
0000 0000 0000 0000 0000 0000 0000 0000
0000 0000 0000 0000 0000 0000 0000 0000
0000 0000 0000 0000 0000 0000 0000 0000
0000 0000 0000 0000 0000 0000 0000 0000
0000 0000 0000 0000 0000 001d 0000 001d
0000 001d 0000 001d 0000 001d 0000 001d
0000 001d 0000 001d 0000 001d 0000 001d
0000 001d 0000 001d 0000 001d 0000 001d
0000 0000 0000 0000 0000 0000 0000 0000
0000 0000 0000 0000 0000 0000 0000 0000
0000 0000 0000 0000 0000 0000 0000 0000
0000 0000 0000 0000 0000 0000 0000 0000
0000 0000 0000 001d 0000 001d 0000 001d
0000 001d 0000 001d 0000 001d 0000 001d
0000 001d 0000 001d 0000 001d 0000 001d
0000 001d 0000 001d 0000 001d 0000 001d
0000 0000 0000 0000 0000 0000 0000 0000
0000 0000 0000 0000 0000 0000 0000 0000
0000 0000 0000 0000 0000 0000 0000 0000
0000 0000 0000 0000 0000 0000 0000 0000
0000 001d 0000 001d 0000 001d 0000 001d
0000 001d 0000 001d 0000 001d 0000 001d
0000 001d 0000 001d 0000 001d 0000 001d
0000 001d 0000 001d 0000 001d 0000 001d
0000 0000 0000 0000 0000 0000 0000 0000
0000 0000 0000 0000 0000 0000 0000 0000
0000 0000 0000 0000 0000 0000 0000 0000
0000 0000 0000 0000 0000 0000 0000 001d
0000 001d 0000 001d 0000 001d 0000 001d
0000 001d 0000 001d 0000 001d 0000 001d
0000 001d 0000 001d 0000 001d 0000 001d
0000 001d 0000 001d 0000 001d 0000 001d
0000 0000 0000 0000 0000 0000 0000 0000
0000 0000 0000 0000 0000 0000 0000 0000
0000 0000 0000 0000 0000 0000 0000 0000
0000 0000 0000 0000 0000 001d 0000 001d
0000 001d 0000 001d 0000 001d 0000 001d
0000 001d 0000 001d 0000 001d 0000 001d
0000 001d 0000 001d 0000 001d 0000 001d
0000 001d 0000 001d 0000 001d 0000 001d
0000 0000 0000 0000 0000 0000 0000 0000
0000 0000 0000 0000 0000 0000 0000 0000
0000 0000 0000 0000 0000 0000 0000 0000
0000 0000 0000 001d 0000 001d 0000 001d
0000 001d 0000 001d 0000 001d 0000 001d
0000 001d 0000 001d 0000 001d 0000 001d
0000 001d 0000 001d 0000 001d 0000 001d
0000 001d 0000 001d 0000 001d 0000 001d
0000 0000 0000 0000 0000 0000 0000 0000
0000 0000 0000 0000 0000 0000 0000 0000
0000 0000 0000 0000 0000 0000 0000 0000