0000 0017 0000 0017 0000 0017 0000 0017
0000 0017 0000 0017 0000 0017 0000 0017
0000 0017 0000 0017 0000 0017 0000 0017
0000 0017 0000 0017 0000 0017 0000 0017
0000 0017 0000 0017 0000 0017 0000 0017
0000 0017 0000 0017 0000 0017 0000 0017
0000 0017 0000 0017 0000 0017 0000 0017
0000 0017 0000 0017 0000 0017 0000 0017
0000 0017 0000 0017 0000 0017 0000 0017
0000 0017 0000 0017 0000 0017 0000 0017
0000 0017 0000 0017 0000 0017 0000 0017
0000 0017 0000 0017 0000 0017 0000 0017
0000 0017 0000 0017 0000 0017 0000 0017
0000 0017 0000 0017 0000 0017 0000 0017
0000 0017 0000 0017 0000 0017 0000 0017
0000 0017 0000 0017 0000 0017 0000 0017
0000 0017 0000 0017 0000 0017 0000 0017
0000 0017 0000 0017 0000 0017 0000 0017
0000 0017 0000 0017 0000 0017 0000 0017
0000 0017 0000 0017 0000 0017 0000 0017
0000 0017 0000 0017 0000 0017 0000 0017
0000 0017 0000 0017 0000 0017 0000 0017
0000 0017 0000 0017 0000 0017 0000 0017
0000 0017 0000 0017 0000 0017 0000 0017
0000 0017 0000 0017 0000 0017 0000 0017
0000 0017 0000 0017 0000 0017 0000 0017
0000 0017 0000 0017 0000 0017 0000 0017
0000 0017 0000 0017 0000 0017 0000 0017
0000 0017 0000 0017 0000 0017 0000 0017
0000 0017 0000 0017 0000 0017 0000 0017
0000 0017 0000 0017 0000 0017 0000 0017
0000 0017 0000 0017 0000 0017 0000 0017
0000 0017 0000 0017 0000 0017 0000 0017
0000 0017 0000 0017 0000 0017 0000 0017
0000 0017 0000 0017 0000 0017 0000 0017
0000 0017 0000 0017 0000 0017 0000 0017
0000 0017 0000 0017 0000 0017 0000 0017
0000 0017 0000 0017 0000 0017 0000 0017
0000 0017 0000 0017 0000 0017 0000 0017
0000 0017 0000 0017 0000 0017 0000 0017
0000 0017 0000 0017 0000 0017 0000 0017
0000 0017 0000 0017 0000 0017 0000 0017
0000 0017 0000 0017 0000 0017 0000 0017
0000 0017 0000 0017 0000 0017 0000 0017
0000 0017 0000 0017 0000 0017 0000 0017
0000 0017 0000 0017 0000 0017 0000 0017
0000 0017 0000 0017 0000 0017 0000 0017
0000 0017 0000 0017 0000 0017 0000 0017
0000 0017 0000 0017 0000 0017 0000 0017
0000 0017 0000 0017 0000 0017 0000 0017
0000 0017 0000 0017 0000 0017 0000 0017
0000 0017 0000 0017 0000 0017 0000 0017
0000 0017 0000 0017 0000 0017 0000 0017
0000 0017 0000 0017 0000 0017 0000 0017
0000 0017 0000 0017 0000 0017 0000 0017
0000 0017 0000 0017 0000 0017 0000 0017
0000 0017 0000 0017 0000 0017 0000 0017
0000 0017 0000 0017 0000 0017 0000 0017
0000 0017 0000 0017 0000 0017 0000 0017
0000 0017 0000 0017 0000 0017 0000 0017
0000 0017 0000 0017 0000 0017 0000 0017
0000 0017 0000 0017 0000 0017 0000 0017
0000 0017 0000 0017 0000 0017 0000 0017
0000 0017 0000 0017 0000 0017 0000 0017
0000 0017 0000 0017 0000 0017 0000 0017
0000 0017 0000 0017 0000 0017 0000 0017
0000 0017 0000 0017 0000 0017 0000 0017
0000 0017 0000 0017 0000 0017 0000 0017
0000 0017 0000 0017 0000 0017 0000 0017
0000 0017 0000 0017 0000 0017 0000 0017
0000 0017 0000 0017 0000 0017 0000 0017
0000 0017 0000 0017 0000 0017 0000 0017
0000 0017 0000 0017 0000 0017 0000 0017
0000 0017 0000 0017 0000 0017 0000 0017
0000 0017 0000 0017 0000 0017 0000 0017
0000 0017 0000 0017 0000 0017 0000 0017
0000 0017 0000 0017 0000 0017 0000 0017
0000 0017 0000 0017 0000 0017 0000 0017
0000 0017 0000 0017 0000 0017 0000 0017
0000 0017 0000 0017 0000 0017 0000 0017
0000 0017 0000 0017 0000 0017 0000 0017
0000 0017 0000 0017 0000 0017 0000 0017
0000 0017 0000 0017 0000 0017 0000 0017
0000 0017 0000 0017 0000 0017 0000 0017
0000 0017 0000 0017 0000 0017 0000 0017
0000 0017 0000 0017 0000 0017 0000 0017
0000 0017 0000 0017 0000 0017 0000 0017
0000 0017 0000 0017 0000 0017 0000 0017
0000 0017 0000 0017 0000 0017 0000 0017
0000 0017 0000 0017 0000 0017 0000 0017
0000 0017 0000 0017 0000 0017 0000 0017
0000 0017 0000 0017 0000 0017 0000 0017
0000 0017 0000 0017 0000 0017 0000 0017
0000 0017 0000 0017 0000 0017 0000 0017
0000 0017 0000 0017 0000 0017 0000 0017
0000 0017 0000 0017 0000 0017 0000 0017
0000 0017 0000 0017 0000 0017 0000 0017
0000 0017 0000 0017 0000 0017 0000 0017
0000 0017 0000 0017 0000 0017 0000 0017
0000 0017 0000 0017 0000 0017 0000 0017
0000 0017 0000 0017 0000 0017 0000 0017
0000 0017 0000 0017 0000 0017 0000 0017
0000 0017 0000 0017 0000 0017 0000 0017
0000 0017 0000 0017 0000 0017 0000 0017
0000 0017 0000 0017 0000 0017 0000 0017
0000 0017 0000 0017 0000 0017 0000 0017
0000 0017 0000 0017 0000 0017 0000 0017
0000 0017 0000 0017 0000 0017 0000 0017
0000 0017 0000 0017 0000 0017 0000 0017
0000 0017 0000 0017 0000 0017 0000 0017
0000 0017 0000 0017 0000 0017 0000 0017
0000 0017 0000 0017 0000 0017 0000 0017
0000 0017 0000 0017 0000 0017 0000 0017
0000 0017 0000 0017 0000 0017 0000 0017
0000 0017 0000 0017 0000 0017 0000 0017
0000 0017 0000 0017 0000 0017 0000 0017
0000 0017 0000 0017 0000 0017 0000 0017
0000 0017 0000 0017 0000 0017 0000 0017
0000 0017 0000 0017 0000 0017 0000 0017
0000 0017 0000 0017 0000 0017 0000 0017
0000 0017 0000 0017 0000 0017 0000 0017
0000 0017 0000 0017 0000 0017 0000 0017
0000 0017 0000 0017 0000 0017 0000 0017
0000 0017 0000 0017 0000 0017 0000 0017
0000 0017 0000 0017 0000 0017 0000 0017
0000 0017 0000 0017 0000 0017 0000 0017
0000 0017 0000 0017 0000 0017 0000 0017
0000 0017 0000 0017 0000 0017 0000 0017
0000 0017 0000 0017 0000 0017 0000 0017
0000 0017 0000 0017 0000 0017 0000 0017
0000 0017 0000 0017 0000 0017 0000 0017
0000 0017 0000 0017 0000 0017 0000 0017
0000 0017 0000 0017 0000 0017 0000 0017
0000 0017 0000 0017 0000 0017 0000 0017
0000 0017 0000 0017 0000 0017 0000 0017
0000 0017 0000 0017 0000 0017 0000 0017
0000 0017 0000 0017 0000 0017 0000 0017
0000 0017 0000 0017 0000 0017 0000 0017
0000 0017 0000 0017 0000 0017 0000 0017
0000 0017 0000 0017 0000 0017 0000 0017
0000 0017 0000 0017 0000 0017 0000 0017
0000 0017 0000 0017 0000 0017 0000 0017
0000 0017 0000 0017 0000 0017 0000 0017
0000 0017 0000 0017 0000 0017 0000 0017
0000 0017 0000 0017 0000 0017 0000 0017
0000 0017 0000 0017 0000 0017 0000 0017
0000 0017 0000 0017 0000 0017 0000 0017
0000 0017 0000 0017 0000 0017 0000 0017
0000 0017 0000 0017 0000 0017 0000 0017
0000 0017 0000 0017 0000 0017 0000 0017
0000 0017 0000 0017 0000 0017 0000 0017
0000 0017 0000 0017 0000 0017 0000 0017
0000 0017 0000 0017 0000 0017 0000 0017
0000 0017 0000 0017 0000 0017 0000 0017
0000 0017 0000 0017 0000 0017 0000 0017
0000 0017 0000 0017 0000 0017 0000 0017
0000 0017 0000 0017 0000 0017 0000 0017
0000 0017 0000 0017 0000 0017 0000 0017
0000 0017 0000 0017 0000 0017 0000 0017
0000 0017 0000 0017 0000 0017 0000 0017
0000 0017 0000 0017 0000 0017 0000 0017
0000 0017 0000 0017 0000 0017 0000 0017
0000 0017 0000 0017 0000 0017 0000 0017
0000 0017 0000 0017 0000 0017 0000 0017
0000 0017 0000 0017 0000 0017 0000 0017
0000 0017 0000 0017 0000 0017 0000 0017
0000 0017 0000 0017 0000 0017 0000 0017
0000 0017 0000 0017 0000 0017 0000 0017
0000 0017 0000 0017 0000 0017 0000 0017
0000 0017 0000 0017 0000 0017 0000 0017
0000 0017 0000 0017 0000 0017 0000 0017
0000 0017 0000 0017 0000 0017 0000 0017
0000 0017 0000 0017 0000 0017 0000 0017
0000 0017 0000 0017 0000 0017 0000 0017
0000 0017 0000 0017 0000 0017 0000 0017
0000 0017 0000 0017 0000 0017 0000 0017
0000 0017 0000 0017 0000 0017 0000 0017
0000 0017 0000 0017 0000 0017 0000 0017
0000 0017 0000 0017 0000 0017 0000 0017
0000 0017 0000 0017 0000 0017 0000 0017
0000 0017 0000 0017 0000 0017 0000 0017
0000 0017 0000 0017 0000 0017 0000 0017
0000 0017 0000 0017 0000 0017 0000 0017
0000 0017 0000 0017 0000 0017 0000 0017
0000 0017 0000 0017 0000 0017 0000 0017
0000 0017 0000 0017 0000 0017 0000 0017
0000 0017 0000 0017 0000 0017 0000 0017
0000 0017 0000 0017 0000 0017 0000 0017
0000 0017 0000 0017 0000 0017 0000 0017
0000 0017 0000 0017 0000 0017 0000 0017
0000 0017 0000 0017 0000 0017 0000 0017
0000 0017 0000 0017 0000 0017 0000 0017
0000 0017 0000 0017 0000 0017 0000 0017
0000 0017 0000 0017 0000 0017 0000 0017
0000 0017 0000 0017 0000 0017 0000 0017
0000 0017 0000 0017 0000 0017 0000 0017
0000 0017 0000 0017 0000 0017 0000 0017
0000 0017 0000 0017 0000 0017 0000 0017
0000 0017 0000 0017 0000 0017 0000 0017
0000 0017 0000 0017 0000 0017 0000 0017
0000 0017 0000 0017 0000 0017 0000 0017
0000 0017 0000 0017 0000 0017 0000 0017
0000 0017 0000 0017 0000 0017 0000 0017
0000 0017 0000 0017 0000 0017 0000 0017
0000 0017 0000 0017 0000 0017 0000 0017
0000 0017 0000 0017 0000 0017 0000 0017
0000 0017 0000 0017 0000 0017 0000 0017
0000 0017 0000 0017 0000 0017 0000 0017
0000 0017 0000 0017 0000 0017 0000 0017
0000 0017 0000 0017 0000 0017 0000 0017
0000 0017 0000 0017 0000 0017 0000 0017
0000 0017 0000 0017 0000 0017 0000 0017
0000 0017 0000 0017 0000 0017 0000 0017
0000 0017 0000 0017 0000 0017 0000 0017
0000 0017 0000 0017 0000 0017 0000 0017
0000 0017 0000 0017 0000 0017 0000 0017
0000 0017 0000 0017 0000 0017 0000 0017
0000 0017 0000 0017 0000 0017 0000 0017
0000 0017 0000 0017 0000 0017 0000 0017
0000 0017 0000 0017 0000 0017 0000 0017
0000 0017 0000 0017 0000 0017 0000 0017
0000 0017 0000 0017 0000 0017 0000 0017
0000 0017 0000 0017 0000 0017 0000 0017
0000 0017 0000 0017 0000 0017 0000 0017
0000 0017 0000 0017 0000 0017 0000 0017
0000 0017 0000 0017 0000 0017 0000 0017
0000 0017 0000 0017 0000 0017 0000 0017
0000 0017 0000 0017 0000 0017 0000 0017
0000 0017 0000 0017 0000 0017 0000 0017
0000 0017 0000 0017 0000 0017 0000 0017
0000 0017 0000 0017 0000 0017 0000 0017
0000 0017 0000 0017 0000 0017 0000 0017
0000 0017 0000 0017 0000 0017 0000 0017
0000 0017 0000 0017 0000 0017 0000 0017
0000 0017 0000 0017 0000 0017 0000 0017
0000 0017 0000 0017 0000 0017 0000 0017
0000 0017 0000 0017 0000 0017 0000 0017
0000 0017 0000 0017 0000 0017 0000 0017
0000 0017 0000 0017 0000 0017 0000 0017
0000 0017 0000 0017 0000 0017 0000 0017
0000 0017 0000 0017 0000 0017 0000 0017
0000 0017 0000 0017 0000 0017 0000 0017
0000 0017 0000 0017 0000 0017 0000 0017
0000 0017 0000 0017 0000 0017 0000 0017
0000 0017 0000 0017 0000 0017 0000 0017
0000 0017 0000 0017 0000 0017 0000 0017
0000 0017 0000 0017 0000 0017 0000 0017
0000 0017 0000 0017 0000 0017 0000 0017
0000 0017 0000 0017 0000 0017 0000 0017
0000 0017 0000 0017 0000 0017 0000 0017
0000 0017 0000 0017 0000 0017 0000 0017
0000 0017 0000 0017 0000 0017 0000 0017
0000 0017 0000 0017 0000 0017 0000 0017
0000 0017 0000 0017 0000 0017 0000 0017
0000 0017 0000 0017 0000 0017 0000 0017
0000 0017 0000 0017 0000 0017 0000 0017